year,region,species_type,property,value,unit
2019,Northern America,cattle-dairy,def,0.59,kg/1000kg/day
2019,Western Europe,cattle-dairy,def,0.54,kg/1000kg/day
2019,Eastern Europe,cattle-dairy,def,0.42,kg/1000kg/day
2019,AUS,cattle-dairy,def,0.72,kg/1000kg/day
2019,Latin America,cattle-dairy,def,0.39,kg/1000kg/day
2019,Latin America,cattle-dairy_hp,def,0.6,kg/1000kg/day
2019,Latin America,cattle-dairy_lp,def,0.28,kg/1000kg/day
2019,AFR,cattle-dairy,def,0.44,kg/1000kg/day
2019,AFR,cattle-dairy_hp,def,0.41,kg/1000kg/day
2019,AFR,cattle-dairy_lp,def,0.45,kg/1000kg/day
2019,Middle East,cattle-dairy,def,0.5,kg/1000kg/day
2019,Middle East,cattle-dairy_hp,def,0.49,kg/1000kg/day
2019,Middle East,cattle-dairy_lp,def,0.51,kg/1000kg/day
2019,ASI,cattle-dairy,def,0.44,kg/1000kg/day
2019,ASI,cattle-dairy_hp,def,0.55,kg/1000kg/day
2019,ASI,cattle-dairy_lp,def,0.41,kg/1000kg/day
2019,Indian Subcontinent,cattle-dairy,def,0.65,kg/1000kg/day
2019,Indian Subcontinent,cattle-dairy_hp,def,0.51,kg/1000kg/day
2019,Indian Subcontinent,cattle-dairy_lp,def,0.7,kg/1000kg/day
2019,Northern America,cattle-other,def,0.4,kg/1000kg/day
2019,Western Europe,cattle-other,def,0.42,kg/1000kg/day
2019,Eastern Europe,cattle-other,def,0.47,kg/1000kg/day
2019,AUS,cattle-other,def,0.46,kg/1000kg/day
2019,Latin America,cattle-other,def,0.31,kg/1000kg/day
2019,Latin America,cattle-other_hp,def,0.36,kg/1000kg/day
2019,Latin America,cattle-other_lp,def,0.29,kg/1000kg/day
2019,AFR,cattle-other,def,0.45,kg/1000kg/day
2019,AFR,cattle-other_hp,def,0.42,kg/1000kg/day
2019,AFR,cattle-other_lp,def,0.44,kg/1000kg/day
2019,Middle East,cattle-other,def,0.56,kg/1000kg/day
2019,Middle East,cattle-other_hp,def,0.51,kg/1000kg/day
2019,Middle East,cattle-other_lp,def,0.59,kg/1000kg/day
2019,ASI,cattle-other,def,0.38,kg/1000kg/day
2019,ASI,cattle-other_hp,def,0.36,kg/1000kg/day
2019,ASI,cattle-other_lp,def,0.39,kg/1000kg/day
2019,Indian Subcontinent,cattle-other,def,0.44,kg/1000kg/day
2019,Indian Subcontinent,cattle-other_hp,def,0.64,kg/1000kg/day
2019,Indian Subcontinent,cattle-other_lp,def,0.41,kg/1000kg/day
2019,Western Europe,buffalo,def,0.45,kg/1000kg/day
2019,Eastern Europe,buffalo,def,0.35,kg/1000kg/day
2019,Latin America,buffalo,def,0.41,kg/1000kg/day
2019,Latin America,buffalo_hp,def,0.41,kg/1000kg/day
2019,Latin America,buffalo_lp,def,0.41,kg/1000kg/day
2019,AFR,buffalo,def,0.42,kg/1000kg/day
2019,AFR,buffalo_hp,def,0.42,kg/1000kg/day
2019,AFR,buffalo_lp,def,0.42,kg/1000kg/day
2019,Middle East,buffalo,def,0.39,kg/1000kg/day
2019,Middle East,buffalo_hp,def,0.39,kg/1000kg/day
2019,Middle East,buffalo_lp,def,0.39,kg/1000kg/day
2019,ASI,buffalo,def,0.44,kg/1000kg/day
2019,ASI,buffalo_hp,def,0.44,kg/1000kg/day
2019,ASI,buffalo_lp,def,0.44,kg/1000kg/day
2019,Indian Subcontinent,buffalo,def,0.58,kg/1000kg/day
2019,Indian Subcontinent,buffalo_hp,def,0.58,kg/1000kg/day
2019,Indian Subcontinent,buffalo_lp,def,0.58,kg/1000kg/day
2019,Northern America,swine-growing,def,0.39,kg/1000kg/day
2019,Western Europe,swine-growing,def,0.65,kg/1000kg/day
2019,Eastern Europe,swine-growing,def,0.63,kg/1000kg/day
2019,AUS,swine-growing,def,0.54,kg/1000kg/day
2019,Latin America,swine-growing,def,0.59,kg/1000kg/day
2019,Latin America,swine-growing_hp,def,0.55,kg/1000kg/day
2019,Latin America,swine-growing_lp,def,0.67,kg/1000kg/day
2019,AFR,swine-growing,def,0.44,kg/1000kg/day
2019,AFR,swine-growing_hp,def,0.33,kg/1000kg/day
2019,AFR,swine-growing_lp,def,0.49,kg/1000kg/day
2019,Middle East,swine-growing,def,0.66,kg/1000kg/day
2019,Middle East,swine-growing_hp,def,0.67,kg/1000kg/day
2019,Middle East,swine-growing_lp,def,0.56,kg/1000kg/day
2019,ASI,swine-growing,def,0.61,kg/1000kg/day
2019,ASI,swine-growing_hp,def,0.54,kg/1000kg/day
2019,ASI,swine-growing_lp,def,0.67,kg/1000kg/day
2019,Indian Subcontinent,swine-growing,def,0.68,kg/1000kg/day
2019,Indian Subcontinent,swine-growing_hp,def,0.63,kg/1000kg/day
2019,Indian Subcontinent,swine-growing_lp,def,0.71,kg/1000kg/day
2019,Northern America,swine-mature,def,0.39,kg/1000kg/day
2019,Western Europe,swine-mature,def,0.65,kg/1000kg/day
2019,Eastern Europe,swine-mature,def,0.63,kg/1000kg/day
2019,AUS,swine-mature,def,0.54,kg/1000kg/day
2019,Latin America,swine-mature,def,0.59,kg/1000kg/day
2019,Latin America,swine-mature_hp,def,0.55,kg/1000kg/day
2019,Latin America,swine-mature_lp,def,0.67,kg/1000kg/day
2019,AFR,swine-mature,def,0.44,kg/1000kg/day
2019,AFR,swine-mature_hp,def,0.33,kg/1000kg/day
2019,AFR,swine-mature_lp,def,0.49,kg/1000kg/day
2019,Middle East,swine-mature,def,0.66,kg/1000kg/day
2019,Middle East,swine-mature_hp,def,0.67,kg/1000kg/day
2019,Middle East,swine-mature_lp,def,0.56,kg/1000kg/day
2019,ASI,swine-mature,def,0.61,kg/1000kg/day
2019,ASI,swine-mature_hp,def,0.54,kg/1000kg/day
2019,ASI,swine-mature_lp,def,0.67,kg/1000kg/day
2019,Indian Subcontinent,swine-mature,def,0.68,kg/1000kg/day
2019,Indian Subcontinent,swine-mature_hp,def,0.63,kg/1000kg/day
2019,Indian Subcontinent,swine-mature_lp,def,0.71,kg/1000kg/day
2019,Northern America,swine-mature_breeding,def,0.24,kg/1000kg/day
2019,Western Europe,swine-mature_breeding,def,0.38,kg/1000kg/day
2019,Eastern Europe,swine-mature_breeding,def,0.36,kg/1000kg/day
2019,AUS,swine-mature_breeding,def,0.31,kg/1000kg/day
2019,Latin America,swine-mature_breeding,def,0.35,kg/1000kg/day
2019,Latin America,swine-mature_hp_breeding,def,0.32,kg/1000kg/day
2019,Latin America,swine-mature_lp_breeding,def,0.43,kg/1000kg/day
2019,AFR,swine-mature_breeding,def,0.29,kg/1000kg/day
2019,AFR,swine-mature_hp_breeding,def,0.21,kg/1000kg/day
2019,AFR,swine-mature_lp_breeding,def,0.35,kg/1000kg/day
2019,Middle East,swine-mature_breeding,def,0.40,kg/1000kg/day
2019,Middle East,swine-mature_hp_breeding,def,0.41,kg/1000kg/day
2019,Middle East,swine-mature_lp_breeding,def,0.37,kg/1000kg/day
2019,ASI,swine-mature_breeding,def,0.37,kg/1000kg/day
2019,ASI,swine-mature_hp_breeding,def,0.32,kg/1000kg/day
2019,ASI,swine-mature_lp_breeding,def,0.43,kg/1000kg/day
2019,Indian Subcontinent,swine-mature_breeding,def,0.43,kg/1000kg/day
2019,Indian Subcontinent,swine-mature_hp_breeding,def,0.37,kg/1000kg/day
2019,Indian Subcontinent,swine-mature_lp_breeding,def,0.47,kg/1000kg/day
2019,Northern America,poultry-chicken,def,1.45,kg/1000kg/day
2019,Western Europe,poultry-chicken,def,0.99,kg/1000kg/day
2019,Eastern Europe,poultry-chicken,def,0.96,kg/1000kg/day
2019,AUS,poultry-chicken,def,1.42,kg/1000kg/day
2019,Latin America,poultry-chicken,def,1.20,kg/1000kg/day
2019,Latin America,poultry-chicken_hp,def,1.13,kg/1000kg/day
2019,Latin America,poultry-chicken_lp,def,2.14,kg/1000kg/day
2019,AFR,poultry-chicken,def,1.29,kg/1000kg/day
2019,AFR,poultry-chicken_hp,def,1.16,kg/1000kg/day
2019,AFR,poultry-chicken_lp,def,1.44,kg/1000kg/day
2019,Middle East,poultry-chicken,def,1.29,kg/1000kg/day
2019,Middle East,poultry-chicken_hp,def,1.27,kg/1000kg/day
2019,Middle East,poultry-chicken_lp,def,1.79,kg/1000kg/day
2019,ASI,poultry-chicken,def,1.10,kg/1000kg/day
2019,ASI,poultry-chicken_hp,def,1.10,kg/1000kg/day
2019,ASI,poultry-chicken_lp,def,1.52,kg/1000kg/day
2019,Indian Subcontinent,poultry-chicken,def,1.62,kg/1000kg/day
2019,Indian Subcontinent,poultry-chicken_hp,def,1.48,kg/1000kg/day
2019,Indian Subcontinent,poultry-chicken_lp,def,1.83,kg/1000kg/day
2019,Northern America,poultry-chicken_hen,def,1.13,kg/1000kg/day
2019,Western Europe,poultry-chicken_hen,def,0.87,kg/1000kg/day
2019,Eastern Europe,poultry-chicken_hen,def,0.81,kg/1000kg/day
2019,AUS,poultry-chicken_hen,def,1.04,kg/1000kg/day
2019,Latin America,poultry-chicken_hen,def,1.17,kg/1000kg/day
2019,Latin America,poultry-chicken_hp_hen,def,1.02,kg/1000kg/day
2019,Latin America,poultry-chicken_lp_hen,def,2.01,kg/1000kg/day
2019,AFR,poultry-chicken_hen,def,1.20,kg/1000kg/day
2019,AFR,poultry-chicken_hp_hen,def,0.99,kg/1000kg/day
2019,AFR,poultry-chicken_lp_hen,def,1.34,kg/1000kg/day
2019,Middle East,poultry-chicken_hen,def,1.11,kg/1000kg/day
2019,Middle East,poultry-chicken_hp_hen,def,1.06,kg/1000kg/day
2019,Middle East,poultry-chicken_lp_hen,def,1.70,kg/1000kg/day
2019,ASI,poultry-chicken_hen,def,1.00,kg/1000kg/day
2019,ASI,poultry-chicken_hp_hen,def,0.89,kg/1000kg/day
2019,ASI,poultry-chicken_lp_hen,def,1.50,kg/1000kg/day
2019,Indian Subcontinent,poultry-chicken_hen,def,1.65,kg/1000kg/day
2019,Indian Subcontinent,poultry-chicken_hp_hen,def,1.60,kg/1000kg/day
2019,Indian Subcontinent,poultry-chicken_lp_hen,def,1.70,kg/1000kg/day
2019,Northern America,poultry-chicken_pullet,def,0.77,kg/1000kg/day
2019,Western Europe,poultry-chicken_pullet,def,0.58,kg/1000kg/day
2019,Eastern Europe,poultry-chicken_pullet,def,0.58,kg/1000kg/day
2019,AUS,poultry-chicken_pullet,def,0.76,kg/1000kg/day
2019,Latin America,poultry-chicken_pullet,def,0.95,kg/1000kg/day
2019,Latin America,poultry-chicken_hp_pullet,def,0.68,kg/1000kg/day
2019,Latin America,poultry-chicken_lp_pullet,def,2.50,kg/1000kg/day
2019,AFR,poultry-chicken_pullet,def,1.29,kg/1000kg/day
2019,AFR,poultry-chicken_hp_pullet,def,0.70,kg/1000kg/day
2019,AFR,poultry-chicken_lp_pullet,def,1.72,kg/1000kg/day
2019,Middle East,poultry-chicken_pullet,def,0.85,kg/1000kg/day
2019,Middle East,poultry-chicken_hp_pullet,def,0.74,kg/1000kg/day
2019,Middle East,poultry-chicken_lp_pullet,def,2.03,kg/1000kg/day
2019,ASI,poultry-chicken_pullet,def,0.83,kg/1000kg/day
2019,ASI,poultry-chicken_hp_pullet,def,0.60,kg/1000kg/day
2019,ASI,poultry-chicken_lp_pullet,def,1.91,kg/1000kg/day
2019,Indian Subcontinent,poultry-chicken_pullet,def,1.63,kg/1000kg/day
2019,Indian Subcontinent,poultry-chicken_hp_pullet,def,0.98,kg/1000kg/day
2019,Indian Subcontinent,poultry-chicken_lp_pullet,def,2.20,kg/1000kg/day
2019,Northern America,poultry-chicken_broiler,def,1.59,kg/1000kg/day
2019,Western Europe,poultry-chicken_broiler,def,1.14,kg/1000kg/day
2019,Eastern Europe,poultry-chicken_broiler,def,1.12,kg/1000kg/day
2019,AUS,poultry-chicken_broiler,def,1.59,kg/1000kg/day
2019,Latin America,poultry-chicken_broiler,def,1.23,kg/1000kg/day
2019,Latin America,poultry-chicken_hp_broiler,def,1.21,kg/1000kg/day
2019,Latin America,poultry-chicken_lp_broiler,def,2.39,kg/1000kg/day
2019,AFR,poultry-chicken_broiler,def,1.40,kg/1000kg/day
2019,AFR,poultry-chicken_hp_broiler,def,1.34,kg/1000kg/day
2019,AFR,poultry-chicken_lp_broiler,def,1.58,kg/1000kg/day
2019,Middle East,poultry-chicken_broiler,def,1.43,kg/1000kg/day
2019,Middle East,poultry-chicken_hp_broiler,def,1.42,kg/1000kg/day
2019,Middle East,poultry-chicken_lp_broiler,def,1.95,kg/1000kg/day
2019,ASI,poultry-chicken_broiler,def,1.35,kg/1000kg/day
2019,ASI,poultry-chicken_hp_broiler,def,1.31,kg/1000kg/day
2019,ASI,poultry-chicken_lp_broiler,def,1.84,kg/1000kg/day
2019,Indian Subcontinent,poultry-chicken_broiler,def,1.58,kg/1000kg/day
2019,Indian Subcontinent,poultry-chicken_hp_broiler,def,1.47,kg/1000kg/day
2019,Indian Subcontinent,poultry-chicken_lp_broiler,def,2.11,kg/1000kg/day
2019,Northern America,poultry-turkey,def,0.74,kg/1000kg/day
2019,Western Europe,poultry-turkey,def,0.74,kg/1000kg/day
2019,Eastern Europe,poultry-turkey,def,0.74,kg/1000kg/day
2019,AUS,poultry-turkey,def,0.74,kg/1000kg/day
2019,Latin America,poultry-turkey,def,0.74,kg/1000kg/day
2019,Latin America,poultry-turkey_hp,def,0.74,kg/1000kg/day
2019,Latin America,poultry-turkey_lp,def,0.74,kg/1000kg/day
2019,AFR,poultry-turkey,def,0.74,kg/1000kg/day
2019,AFR,poultry-turkey_hp,def,0.74,kg/1000kg/day
2019,AFR,poultry-turkey_lp,def,0.74,kg/1000kg/day
2019,Middle East,poultry-turkey,def,0.74,kg/1000kg/day
2019,Middle East,poultry-turkey_hp,def,0.74,kg/1000kg/day
2019,Middle East,poultry-turkey_lp,def,0.74,kg/1000kg/day
2019,ASI,poultry-turkey,def,0.74,kg/1000kg/day
2019,ASI,poultry-turkey_hp,def,0.74,kg/1000kg/day
2019,ASI,poultry-turkey_lp,def,0.74,kg/1000kg/day
2019,Indian Subcontinent,poultry-turkey,def,0.74,kg/1000kg/day
2019,Indian Subcontinent,poultry-turkey_hp,def,0.74,kg/1000kg/day
2019,Indian Subcontinent,poultry-turkey_lp,def,0.74,kg/1000kg/day
2019,Northern America,poultry-duck,def,0.83,kg/1000kg/day
2019,Western Europe,poultry-duck,def,0.83,kg/1000kg/day
2019,Eastern Europe,poultry-duck,def,0.83,kg/1000kg/day
2019,AUS,poultry-duck,def,0.83,kg/1000kg/day
2019,Latin America,poultry-duck,def,0.83,kg/1000kg/day
2019,AFR,poultry-duck,def,0.83,kg/1000kg/day
2019,Middle East,poultry-duck,def,0.83,kg/1000kg/day
2019,ASI,poultry-duck,def,0.83,kg/1000kg/day
2019,Indian Subcontinent,poultry-duck,def,0.83,kg/1000kg/day
2019,Northern America,poultry-duck_meat,def,0.83,kg/1000kg/day
2019,Western Europe,poultry-duck_meat,def,0.83,kg/1000kg/day
2019,Eastern Europe,poultry-duck_meat,def,0.83,kg/1000kg/day
2019,AUS,poultry-duck_meat,def,0.83,kg/1000kg/day
2019,Latin America,poultry-duck_meat,def,0.83,kg/1000kg/day
2019,AFR,poultry-duck_meat,def,0.83,kg/1000kg/day
2019,Middle East,poultry-duck_meat,def,0.83,kg/1000kg/day
2019,ASI,poultry-duck_meat,def,0.83,kg/1000kg/day
2019,Indian Subcontinent,poultry-duck_meat,def,0.83,kg/1000kg/day
2019,Northern America,poultry-duck_breeding,def,0.83,kg/1000kg/day
2019,Western Europe,poultry-duck_breeding,def,0.83,kg/1000kg/day
2019,Eastern Europe,poultry-duck_breeding,def,0.83,kg/1000kg/day
2019,AUS,poultry-duck_breeding,def,0.83,kg/1000kg/day
2019,Latin America,poultry-duck_breeding,def,0.83,kg/1000kg/day
2019,AFR,poultry-duck_breeding,def,0.83,kg/1000kg/day
2019,Middle East,poultry-duck_breeding,def,0.83,kg/1000kg/day
2019,ASI,poultry-duck_breeding,def,0.83,kg/1000kg/day
2019,Indian Subcontinent,poultry-duck_breeding,def,0.83,kg/1000kg/day
2019,Northern America,sheep-mature,def,0.35,kg/1000kg/day
2019,Western Europe,sheep-mature,def,0.36,kg/1000kg/day
2019,Eastern Europe,sheep-mature,def,0.36,kg/1000kg/day
2019,AUS,sheep-mature,def,0.43,kg/1000kg/day
2019,Latin America,sheep-mature,def,0.32,kg/1000kg/day
2019,AFR,sheep-mature,def,0.32,kg/1000kg/day
2019,Middle East,sheep-mature,def,0.32,kg/1000kg/day
2019,ASI,sheep-mature,def,0.32,kg/1000kg/day
2019,Indian Subcontinent,sheep-mature,def,0.32,kg/1000kg/day
2019,Northern America,sheep-growing,def,0.35,kg/1000kg/day
2019,Western Europe,sheep-growing,def,0.36,kg/1000kg/day
2019,Eastern Europe,sheep-growing,def,0.36,kg/1000kg/day
2019,AUS,sheep-growing,def,0.43,kg/1000kg/day
2019,Latin America,sheep-growing,def,0.32,kg/1000kg/day
2019,AFR,sheep-growing,def,0.32,kg/1000kg/day
2019,Middle East,sheep-growing,def,0.32,kg/1000kg/day
2019,ASI,sheep-growing,def,0.32,kg/1000kg/day
2019,Indian Subcontinent,sheep-growing,def,0.32,kg/1000kg/day
2019,Northern America,goat,def,0.46,kg/1000kg/day
2019,Western Europe,goat,def,0.46,kg/1000kg/day
2019,Eastern Europe,goat,def,0.44,kg/1000kg/day
2019,AUS,goat,def,0.42,kg/1000kg/day
2019,Latin America,goat,def,0.34,kg/1000kg/day
2019,AFR,goat,def,0.34,kg/1000kg/day
2019,Middle East,goat,def,0.34,kg/1000kg/day
2019,ASI,goat,def,0.34,kg/1000kg/day
2019,Indian Subcontinent,goat,def,0.34,kg/1000kg/day
2019,Northern America,horse,def,0.30,kg/1000kg/day
2019,Western Europe,horse,def,0.26,kg/1000kg/day
2019,Eastern Europe,horse,def,0.30,kg/1000kg/day
2019,AUS,horse,def,0.30,kg/1000kg/day
2019,Latin America,horse,def,0.46,kg/1000kg/day
2019,AFR,horse,def,0.46,kg/1000kg/day
2019,Middle East,horse,def,0.46,kg/1000kg/day
2019,ASI,horse,def,0.46,kg/1000kg/day
2019,Indian Subcontinent,horse,def,0.46,kg/1000kg/day
2019,Northern America,mule-ass,def,0.30,kg/1000kg/day
2019,Western Europe,mule-ass,def,0.26,kg/1000kg/day
2019,Eastern Europe,mule-ass,def,0.30,kg/1000kg/day
2019,AUS,mule-ass,def,0.30,kg/1000kg/day
2019,Latin America,mule-ass,def,0.46,kg/1000kg/day
2019,AFR,mule-ass,def,0.46,kg/1000kg/day
2019,Middle East,mule-ass,def,0.46,kg/1000kg/day
2019,ASI,mule-ass,def,0.46,kg/1000kg/day
2019,Indian Subcontinent,mule-ass,def,0.46,kg/1000kg/day
2019,Northern America,camel,def,0.38,kg/1000kg/day
2019,Western Europe,camel,def,0.38,kg/1000kg/day
2019,Eastern Europe,camel,def,0.38,kg/1000kg/day
2019,AUS,camel,def,0.38,kg/1000kg/day
2019,Latin America,camel,def,0.46,kg/1000kg/day
2019,AFR,camel,def,0.46,kg/1000kg/day
2019,Middle East,camel,def,0.46,kg/1000kg/day
2019,ASI,camel,def,0.46,kg/1000kg/day
2019,Indian Subcontinent,camel,def,0.46,kg/1000kg/day
2019,Northern America,ostrich,def,0.36,kg/1000kg/day
2019,Western Europe,ostrich,def,0.36,kg/1000kg/day
2019,Eastern Europe,ostrich,def,0.36,kg/1000kg/day
2019,AUS,ostrich,def,0.36,kg/1000kg/day
2019,Latin America,ostrich,def,0.36,kg/1000kg/day
2019,AFR,ostrich,def,0.36,kg/1000kg/day
2019,Middle East,ostrich,def,0.36,kg/1000kg/day
2019,ASI,ostrich,def,0.36,kg/1000kg/day
2019,Indian Subcontinent,ostrich,def,0.36,kg/1000kg/day
2019,Northern America,deer,def,0.67,kg/1000kg/day
2019,Western Europe,deer,def,0.67,kg/1000kg/day
2019,Eastern Europe,deer,def,0.67,kg/1000kg/day
2019,AUS,deer,def,0.67,kg/1000kg/day
2019,Latin America,deer,def,0.67,kg/1000kg/day
2019,AFR,deer,def,0.67,kg/1000kg/day
2019,Middle East,deer,def,0.67,kg/1000kg/day
2019,ASI,deer,def,0.67,kg/1000kg/day
2019,Indian Subcontinent,deer,def,0.67,kg/1000kg/day
2019,Northern America,reindeer,def,0.23,kg/1000kg/day
2019,Western Europe,reindeer,def,0.23,kg/1000kg/day
2019,Eastern Europe,reindeer,def,0.23,kg/1000kg/day
2019,AUS,reindeer,def,0.23,kg/1000kg/day
2019,Latin America,reindeer,def,0.23,kg/1000kg/day
2019,AFR,reindeer,def,0.23,kg/1000kg/day
2019,Middle East,reindeer,def,0.23,kg/1000kg/day
2019,ASI,reindeer,def,0.23,kg/1000kg/day
2019,Indian Subcontinent,reindeer,def,0.23,kg/1000kg/day
2019,Northern America,cattle-dairy,min,0.295,kg/1000kg/day
2019,Western Europe,cattle-dairy,min,0.270,kg/1000kg/day
2019,Eastern Europe,cattle-dairy,min,0.210,kg/1000kg/day
2019,AUS,cattle-dairy,min,0.360,kg/1000kg/day
2019,Latin America,cattle-dairy,min,0.195,kg/1000kg/day
2019,Latin America,cattle-dairy_hp,min,0.300,kg/1000kg/day
2019,Latin America,cattle-dairy_lp,min,0.140,kg/1000kg/day
2019,AFR,cattle-dairy,min,0.220,kg/1000kg/day
2019,AFR,cattle-dairy_hp,min,0.205,kg/1000kg/day
2019,AFR,cattle-dairy_lp,min,0.225,kg/1000kg/day
2019,Middle East,cattle-dairy,min,0.250,kg/1000kg/day
2019,Middle East,cattle-dairy_hp,min,0.245,kg/1000kg/day
2019,Middle East,cattle-dairy_lp,min,0.255,kg/1000kg/day
2019,ASI,cattle-dairy,min,0.220,kg/1000kg/day
2019,ASI,cattle-dairy_hp,min,0.275,kg/1000kg/day
2019,ASI,cattle-dairy_lp,min,0.205,kg/1000kg/day
2019,Indian Subcontinent,cattle-dairy,min,0.325,kg/1000kg/day
2019,Indian Subcontinent,cattle-dairy_hp,min,0.255,kg/1000kg/day
2019,Indian Subcontinent,cattle-dairy_lp,min,0.350,kg/1000kg/day
2019,Northern America,cattle-other,min,0.200,kg/1000kg/day
2019,Western Europe,cattle-other,min,0.210,kg/1000kg/day
2019,Eastern Europe,cattle-other,min,0.235,kg/1000kg/day
2019,AUS,cattle-other,min,0.230,kg/1000kg/day
2019,Latin America,cattle-other,min,0.155,kg/1000kg/day
2019,Latin America,cattle-other_hp,min,0.180,kg/1000kg/day
2019,Latin America,cattle-other_lp,min,0.145,kg/1000kg/day
2019,AFR,cattle-other,min,0.225,kg/1000kg/day
2019,AFR,cattle-other_hp,min,0.210,kg/1000kg/day
2019,AFR,cattle-other_lp,min,0.220,kg/1000kg/day
2019,Middle East,cattle-other,min,0.280,kg/1000kg/day
2019,Middle East,cattle-other_hp,min,0.255,kg/1000kg/day
2019,Middle East,cattle-other_lp,min,0.295,kg/1000kg/day
2019,ASI,cattle-other,min,0.190,kg/1000kg/day
2019,ASI,cattle-other_hp,min,0.180,kg/1000kg/day
2019,ASI,cattle-other_lp,min,0.195,kg/1000kg/day
2019,Indian Subcontinent,cattle-other,min,0.220,kg/1000kg/day
2019,Indian Subcontinent,cattle-other_hp,min,0.320,kg/1000kg/day
2019,Indian Subcontinent,cattle-other_lp,min,0.205,kg/1000kg/day
2019,Western Europe,buffalo,min,0.225,kg/1000kg/day
2019,Eastern Europe,buffalo,min,0.175,kg/1000kg/day
2019,Latin America,buffalo,min,0.205,kg/1000kg/day
2019,Latin America,buffalo_hp,min,0.205,kg/1000kg/day
2019,Latin America,buffalo_lp,min,0.205,kg/1000kg/day
2019,AFR,buffalo,min,0.210,kg/1000kg/day
2019,AFR,buffalo_hp,min,0.210,kg/1000kg/day
2019,AFR,buffalo_lp,min,0.210,kg/1000kg/day
2019,Middle East,buffalo,min,0.195,kg/1000kg/day
2019,Middle East,buffalo_hp,min,0.195,kg/1000kg/day
2019,Middle East,buffalo_lp,min,0.195,kg/1000kg/day
2019,ASI,buffalo,min,0.220,kg/1000kg/day
2019,ASI,buffalo_hp,min,0.220,kg/1000kg/day
2019,ASI,buffalo_lp,min,0.220,kg/1000kg/day
2019,Indian Subcontinent,buffalo,min,0.290,kg/1000kg/day
2019,Indian Subcontinent,buffalo_hp,min,0.290,kg/1000kg/day
2019,Indian Subcontinent,buffalo_lp,min,0.290,kg/1000kg/day
2019,Northern America,swine-growing,min,0.195,kg/1000kg/day
2019,Western Europe,swine-growing,min,0.325,kg/1000kg/day
2019,Eastern Europe,swine-growing,min,0.315,kg/1000kg/day
2019,AUS,swine-growing,min,0.270,kg/1000kg/day
2019,Latin America,swine-growing,min,0.295,kg/1000kg/day
2019,Latin America,swine-growing_hp,min,0.275,kg/1000kg/day
2019,Latin America,swine-growing_lp,min,0.335,kg/1000kg/day
2019,AFR,swine-growing,min,0.220,kg/1000kg/day
2019,AFR,swine-growing_hp,min,0.165,kg/1000kg/day
2019,AFR,swine-growing_lp,min,0.245,kg/1000kg/day
2019,Middle East,swine-growing,min,0.330,kg/1000kg/day
2019,Middle East,swine-growing_hp,min,0.335,kg/1000kg/day
2019,Middle East,swine-growing_lp,min,0.280,kg/1000kg/day
2019,ASI,swine-growing,min,0.305,kg/1000kg/day
2019,ASI,swine-growing_hp,min,0.270,kg/1000kg/day
2019,ASI,swine-growing_lp,min,0.335,kg/1000kg/day
2019,Indian Subcontinent,swine-growing,min,0.340,kg/1000kg/day
2019,Indian Subcontinent,swine-growing_hp,min,0.315,kg/1000kg/day
2019,Indian Subcontinent,swine-growing_lp,min,0.355,kg/1000kg/day
2019,Northern America,swine-mature,min,0.195,kg/1000kg/day
2019,Western Europe,swine-mature,min,0.325,kg/1000kg/day
2019,Eastern Europe,swine-mature,min,0.315,kg/1000kg/day
2019,AUS,swine-mature,min,0.270,kg/1000kg/day
2019,Latin America,swine-mature,min,0.295,kg/1000kg/day
2019,Latin America,swine-mature_hp,min,0.275,kg/1000kg/day
2019,Latin America,swine-mature_lp,min,0.335,kg/1000kg/day
2019,AFR,swine-mature,min,0.220,kg/1000kg/day
2019,AFR,swine-mature_hp,min,0.165,kg/1000kg/day
2019,AFR,swine-mature_lp,min,0.245,kg/1000kg/day
2019,Middle East,swine-mature,min,0.330,kg/1000kg/day
2019,Middle East,swine-mature_hp,min,0.335,kg/1000kg/day
2019,Middle East,swine-mature_lp,min,0.280,kg/1000kg/day
2019,ASI,swine-mature,min,0.305,kg/1000kg/day
2019,ASI,swine-mature_hp,min,0.270,kg/1000kg/day
2019,ASI,swine-mature_lp,min,0.335,kg/1000kg/day
2019,Indian Subcontinent,swine-mature,min,0.340,kg/1000kg/day
2019,Indian Subcontinent,swine-mature_hp,min,0.315,kg/1000kg/day
2019,Indian Subcontinent,swine-mature_lp,min,0.355,kg/1000kg/day
2019,Northern America,swine-mature_breeding,min,0.120,kg/1000kg/day
2019,Western Europe,swine-mature_breeding,min,0.190,kg/1000kg/day
2019,Eastern Europe,swine-mature_breeding,min,0.180,kg/1000kg/day
2019,AUS,swine-mature_breeding,min,0.155,kg/1000kg/day
2019,Latin America,swine-mature_breeding,min,0.175,kg/1000kg/day
2019,Latin America,swine-mature_hp_breeding,min,0.160,kg/1000kg/day
2019,Latin America,swine-mature_lp_breeding,min,0.215,kg/1000kg/day
2019,AFR,swine-mature_breeding,min,0.145,kg/1000kg/day
2019,AFR,swine-mature_hp_breeding,min,0.105,kg/1000kg/day
2019,AFR,swine-mature_lp_breeding,min,0.175,kg/1000kg/day
2019,Middle East,swine-mature_breeding,min,0.200,kg/1000kg/day
2019,Middle East,swine-mature_hp_breeding,min,0.205,kg/1000kg/day
2019,Middle East,swine-mature_lp_breeding,min,0.185,kg/1000kg/day
2019,ASI,swine-mature_breeding,min,0.185,kg/1000kg/day
2019,ASI,swine-mature_hp_breeding,min,0.160,kg/1000kg/day
2019,ASI,swine-mature_lp_breeding,min,0.215,kg/1000kg/day
2019,Indian Subcontinent,swine-mature_breeding,min,0.215,kg/1000kg/day
2019,Indian Subcontinent,swine-mature_hp_breeding,min,0.185,kg/1000kg/day
2019,Indian Subcontinent,swine-mature_lp_breeding,min,0.235,kg/1000kg/day
2019,Northern America,poultry-chicken,min,0.725,kg/1000kg/day
2019,Western Europe,poultry-chicken,min,0.495,kg/1000kg/day
2019,Eastern Europe,poultry-chicken,min,0.480,kg/1000kg/day
2019,AUS,poultry-chicken,min,0.710,kg/1000kg/day
2019,Latin America,poultry-chicken,min,0.600,kg/1000kg/day
2019,Latin America,poultry-chicken_hp,min,0.565,kg/1000kg/day
2019,Latin America,poultry-chicken_lp,min,1.070,kg/1000kg/day
2019,AFR,poultry-chicken,min,0.645,kg/1000kg/day
2019,AFR,poultry-chicken_hp,min,0.580,kg/1000kg/day
2019,AFR,poultry-chicken_lp,min,0.720,kg/1000kg/day
2019,Middle East,poultry-chicken,min,0.645,kg/1000kg/day
2019,Middle East,poultry-chicken_hp,min,0.635,kg/1000kg/day
2019,Middle East,poultry-chicken_lp,min,0.895,kg/1000kg/day
2019,ASI,poultry-chicken,min,0.550,kg/1000kg/day
2019,ASI,poultry-chicken_hp,min,0.550,kg/1000kg/day
2019,ASI,poultry-chicken_lp,min,0.760,kg/1000kg/day
2019,Indian Subcontinent,poultry-chicken,min,0.810,kg/1000kg/day
2019,Indian Subcontinent,poultry-chicken_hp,min,0.740,kg/1000kg/day
2019,Indian Subcontinent,poultry-chicken_lp,min,0.915,kg/1000kg/day
2019,Northern America,poultry-chicken_hen,min,0.565,kg/1000kg/day
2019,Western Europe,poultry-chicken_hen,min,0.435,kg/1000kg/day
2019,Eastern Europe,poultry-chicken_hen,min,0.405,kg/1000kg/day
2019,AUS,poultry-chicken_hen,min,0.520,kg/1000kg/day
2019,Latin America,poultry-chicken_hen,min,0.585,kg/1000kg/day
2019,Latin America,poultry-chicken_hp_hen,min,0.510,kg/1000kg/day
2019,Latin America,poultry-chicken_lp_hen,min,1.005,kg/1000kg/day
2019,AFR,poultry-chicken_hen,min,0.600,kg/1000kg/day
2019,AFR,poultry-chicken_hp_hen,min,0.495,kg/1000kg/day
2019,AFR,poultry-chicken_lp_hen,min,0.670,kg/1000kg/day
2019,Middle East,poultry-chicken_hen,min,0.555,kg/1000kg/day
2019,Middle East,poultry-chicken_hp_hen,min,0.530,kg/1000kg/day
2019,Middle East,poultry-chicken_lp_hen,min,0.850,kg/1000kg/day
2019,ASI,poultry-chicken_hen,min,0.500,kg/1000kg/day
2019,ASI,poultry-chicken_hp_hen,min,0.445,kg/1000kg/day
2019,ASI,poultry-chicken_lp_hen,min,0.750,kg/1000kg/day
2019,Indian Subcontinent,poultry-chicken_hen,min,0.825,kg/1000kg/day
2019,Indian Subcontinent,poultry-chicken_hp_hen,min,0.800,kg/1000kg/day
2019,Indian Subcontinent,poultry-chicken_lp_hen,min,0.850,kg/1000kg/day
2019,Northern America,poultry-chicken_pullet,min,0.385,kg/1000kg/day
2019,Western Europe,poultry-chicken_pullet,min,0.290,kg/1000kg/day
2019,Eastern Europe,poultry-chicken_pullet,min,0.290,kg/1000kg/day
2019,AUS,poultry-chicken_pullet,min,0.380,kg/1000kg/day
2019,Latin America,poultry-chicken_pullet,min,0.475,kg/1000kg/day
2019,Latin America,poultry-chicken_hp_pullet,min,0.340,kg/1000kg/day
2019,Latin America,poultry-chicken_lp_pullet,min,1.250,kg/1000kg/day
2019,AFR,poultry-chicken_pullet,min,0.645,kg/1000kg/day
2019,AFR,poultry-chicken_hp_pullet,min,0.350,kg/1000kg/day
2019,AFR,poultry-chicken_lp_pullet,min,0.860,kg/1000kg/day
2019,Middle East,poultry-chicken_pullet,min,0.425,kg/1000kg/day
2019,Middle East,poultry-chicken_hp_pullet,min,0.370,kg/1000kg/day
2019,Middle East,poultry-chicken_lp_pullet,min,1.015,kg/1000kg/day
2019,ASI,poultry-chicken_pullet,min,0.415,kg/1000kg/day
2019,ASI,poultry-chicken_hp_pullet,min,0.300,kg/1000kg/day
2019,ASI,poultry-chicken_lp_pullet,min,0.955,kg/1000kg/day
2019,Indian Subcontinent,poultry-chicken_pullet,min,0.815,kg/1000kg/day
2019,Indian Subcontinent,poultry-chicken_hp_pullet,min,0.490,kg/1000kg/day
2019,Indian Subcontinent,poultry-chicken_lp_pullet,min,1.100,kg/1000kg/day
2019,Northern America,poultry-chicken_broiler,min,0.795,kg/1000kg/day
2019,Western Europe,poultry-chicken_broiler,min,0.570,kg/1000kg/day
2019,Eastern Europe,poultry-chicken_broiler,min,0.560,kg/1000kg/day
2019,AUS,poultry-chicken_broiler,min,0.795,kg/1000kg/day
2019,Latin America,poultry-chicken_broiler,min,0.615,kg/1000kg/day
2019,Latin America,poultry-chicken_hp_broiler,min,0.605,kg/1000kg/day
2019,Latin America,poultry-chicken_lp_broiler,min,1.195,kg/1000kg/day
2019,AFR,poultry-chicken_broiler,min,0.700,kg/1000kg/day
2019,AFR,poultry-chicken_hp_broiler,min,0.670,kg/1000kg/day
2019,AFR,poultry-chicken_lp_broiler,min,0.790,kg/1000kg/day
2019,Middle East,poultry-chicken_broiler,min,0.715,kg/1000kg/day
2019,Middle East,poultry-chicken_hp_broiler,min,0.710,kg/1000kg/day
2019,Middle East,poultry-chicken_lp_broiler,min,0.975,kg/1000kg/day
2019,ASI,poultry-chicken_broiler,min,0.675,kg/1000kg/day
2019,ASI,poultry-chicken_hp_broiler,min,0.655,kg/1000kg/day
2019,ASI,poultry-chicken_lp_broiler,min,0.920,kg/1000kg/day
2019,Indian Subcontinent,poultry-chicken_broiler,min,0.790,kg/1000kg/day
2019,Indian Subcontinent,poultry-chicken_hp_broiler,min,0.735,kg/1000kg/day
2019,Indian Subcontinent,poultry-chicken_lp_broiler,min,1.055,kg/1000kg/day
2019,Northern America,poultry-turkey,min,0.370,kg/1000kg/day
2019,Western Europe,poultry-turkey,min,0.370,kg/1000kg/day
2019,Eastern Europe,poultry-turkey,min,0.370,kg/1000kg/day
2019,AUS,poultry-turkey,min,0.370,kg/1000kg/day
2019,Latin America,poultry-turkey,min,0.370,kg/1000kg/day
2019,Latin America,poultry-turkey_hp,min,0.370,kg/1000kg/day
2019,Latin America,poultry-turkey_lp,min,0.370,kg/1000kg/day
2019,AFR,poultry-turkey,min,0.370,kg/1000kg/day
2019,AFR,poultry-turkey_hp,min,0.370,kg/1000kg/day
2019,AFR,poultry-turkey_lp,min,0.370,kg/1000kg/day
2019,Middle East,poultry-turkey,min,0.370,kg/1000kg/day
2019,Middle East,poultry-turkey_hp,min,0.370,kg/1000kg/day
2019,Middle East,poultry-turkey_lp,min,0.370,kg/1000kg/day
2019,ASI,poultry-turkey,min,0.370,kg/1000kg/day
2019,ASI,poultry-turkey_hp,min,0.370,kg/1000kg/day
2019,ASI,poultry-turkey_lp,min,0.370,kg/1000kg/day
2019,Indian Subcontinent,poultry-turkey,min,0.370,kg/1000kg/day
2019,Indian Subcontinent,poultry-turkey_hp,min,0.370,kg/1000kg/day
2019,Indian Subcontinent,poultry-turkey_lp,min,0.370,kg/1000kg/day
2019,Northern America,poultry-duck,min,0.415,kg/1000kg/day
2019,Western Europe,poultry-duck,min,0.415,kg/1000kg/day
2019,Eastern Europe,poultry-duck,min,0.415,kg/1000kg/day
2019,AUS,poultry-duck,min,0.415,kg/1000kg/day
2019,Latin America,poultry-duck,min,0.415,kg/1000kg/day
2019,AFR,poultry-duck,min,0.415,kg/1000kg/day
2019,Middle East,poultry-duck,min,0.415,kg/1000kg/day
2019,ASI,poultry-duck,min,0.415,kg/1000kg/day
2019,Indian Subcontinent,poultry-duck,min,0.415,kg/1000kg/day
2019,Northern America,poultry-duck_meat,min,0.415,kg/1000kg/day
2019,Western Europe,poultry-duck_meat,min,0.415,kg/1000kg/day
2019,Eastern Europe,poultry-duck_meat,min,0.415,kg/1000kg/day
2019,AUS,poultry-duck_meat,min,0.415,kg/1000kg/day
2019,Latin America,poultry-duck_meat,min,0.415,kg/1000kg/day
2019,AFR,poultry-duck_meat,min,0.415,kg/1000kg/day
2019,Middle East,poultry-duck_meat,min,0.415,kg/1000kg/day
2019,ASI,poultry-duck_meat,min,0.415,kg/1000kg/day
2019,Indian Subcontinent,poultry-duck_meat,min,0.415,kg/1000kg/day
2019,Northern America,poultry-duck_breeding,min,0.415,kg/1000kg/day
2019,Western Europe,poultry-duck_breeding,min,0.415,kg/1000kg/day
2019,Eastern Europe,poultry-duck_breeding,min,0.415,kg/1000kg/day
2019,AUS,poultry-duck_breeding,min,0.415,kg/1000kg/day
2019,Latin America,poultry-duck_breeding,min,0.415,kg/1000kg/day
2019,AFR,poultry-duck_breeding,min,0.415,kg/1000kg/day
2019,Middle East,poultry-duck_breeding,min,0.415,kg/1000kg/day
2019,ASI,poultry-duck_breeding,min,0.415,kg/1000kg/day
2019,Indian Subcontinent,poultry-duck_breeding,min,0.415,kg/1000kg/day
2019,Northern America,sheep-mature,min,0.175,kg/1000kg/day
2019,Western Europe,sheep-mature,min,0.180,kg/1000kg/day
2019,Eastern Europe,sheep-mature,min,0.180,kg/1000kg/day
2019,AUS,sheep-mature,min,0.215,kg/1000kg/day
2019,Latin America,sheep-mature,min,0.160,kg/1000kg/day
2019,AFR,sheep-mature,min,0.160,kg/1000kg/day
2019,Middle East,sheep-mature,min,0.160,kg/1000kg/day
2019,ASI,sheep-mature,min,0.160,kg/1000kg/day
2019,Indian Subcontinent,sheep-mature,min,0.160,kg/1000kg/day
2019,Northern America,sheep-growing,min,0.175,kg/1000kg/day
2019,Western Europe,sheep-growing,min,0.180,kg/1000kg/day
2019,Eastern Europe,sheep-growing,min,0.180,kg/1000kg/day
2019,AUS,sheep-growing,min,0.215,kg/1000kg/day
2019,Latin America,sheep-growing,min,0.160,kg/1000kg/day
2019,AFR,sheep-growing,min,0.160,kg/1000kg/day
2019,Middle East,sheep-growing,min,0.160,kg/1000kg/day
2019,ASI,sheep-growing,min,0.160,kg/1000kg/day
2019,Indian Subcontinent,sheep-growing,min,0.160,kg/1000kg/day
2019,Northern America,goat,min,0.230,kg/1000kg/day
2019,Western Europe,goat,min,0.230,kg/1000kg/day
2019,Eastern Europe,goat,min,0.220,kg/1000kg/day
2019,AUS,goat,min,0.210,kg/1000kg/day
2019,Latin America,goat,min,0.170,kg/1000kg/day
2019,AFR,goat,min,0.170,kg/1000kg/day
2019,Middle East,goat,min,0.170,kg/1000kg/day
2019,ASI,goat,min,0.170,kg/1000kg/day
2019,Indian Subcontinent,goat,min,0.170,kg/1000kg/day
2019,Northern America,horse,min,0.150,kg/1000kg/day
2019,Western Europe,horse,min,0.130,kg/1000kg/day
2019,Eastern Europe,horse,min,0.150,kg/1000kg/day
2019,AUS,horse,min,0.150,kg/1000kg/day
2019,Latin America,horse,min,0.230,kg/1000kg/day
2019,AFR,horse,min,0.230,kg/1000kg/day
2019,Middle East,horse,min,0.230,kg/1000kg/day
2019,ASI,horse,min,0.230,kg/1000kg/day
2019,Indian Subcontinent,horse,min,0.230,kg/1000kg/day
2019,Northern America,mule-ass,min,0.150,kg/1000kg/day
2019,Western Europe,mule-ass,min,0.130,kg/1000kg/day
2019,Eastern Europe,mule-ass,min,0.150,kg/1000kg/day
2019,AUS,mule-ass,min,0.150,kg/1000kg/day
2019,Latin America,mule-ass,min,0.230,kg/1000kg/day
2019,AFR,mule-ass,min,0.230,kg/1000kg/day
2019,Middle East,mule-ass,min,0.230,kg/1000kg/day
2019,ASI,mule-ass,min,0.230,kg/1000kg/day
2019,Indian Subcontinent,mule-ass,min,0.230,kg/1000kg/day
2019,Northern America,camel,min,0.190,kg/1000kg/day
2019,Western Europe,camel,min,0.190,kg/1000kg/day
2019,Eastern Europe,camel,min,0.190,kg/1000kg/day
2019,AUS,camel,min,0.190,kg/1000kg/day
2019,Latin America,camel,min,0.230,kg/1000kg/day
2019,AFR,camel,min,0.230,kg/1000kg/day
2019,Middle East,camel,min,0.230,kg/1000kg/day
2019,ASI,camel,min,0.230,kg/1000kg/day
2019,Indian Subcontinent,camel,min,0.230,kg/1000kg/day
2019,Northern America,ostrich,min,0.180,kg/1000kg/day
2019,Western Europe,ostrich,min,0.180,kg/1000kg/day
2019,Eastern Europe,ostrich,min,0.180,kg/1000kg/day
2019,AUS,ostrich,min,0.180,kg/1000kg/day
2019,Latin America,ostrich,min,0.180,kg/1000kg/day
2019,AFR,ostrich,min,0.180,kg/1000kg/day
2019,Middle East,ostrich,min,0.180,kg/1000kg/day
2019,ASI,ostrich,min,0.180,kg/1000kg/day
2019,Indian Subcontinent,ostrich,min,0.180,kg/1000kg/day
2019,Northern America,deer,min,0.335,kg/1000kg/day
2019,Western Europe,deer,min,0.335,kg/1000kg/day
2019,Eastern Europe,deer,min,0.335,kg/1000kg/day
2019,AUS,deer,min,0.335,kg/1000kg/day
2019,Latin America,deer,min,0.335,kg/1000kg/day
2019,AFR,deer,min,0.335,kg/1000kg/day
2019,Middle East,deer,min,0.335,kg/1000kg/day
2019,ASI,deer,min,0.335,kg/1000kg/day
2019,Indian Subcontinent,deer,min,0.335,kg/1000kg/day
2019,Northern America,reindeer,min,0.115,kg/1000kg/day
2019,Western Europe,reindeer,min,0.115,kg/1000kg/day
2019,Eastern Europe,reindeer,min,0.115,kg/1000kg/day
2019,AUS,reindeer,min,0.115,kg/1000kg/day
2019,Latin America,reindeer,min,0.115,kg/1000kg/day
2019,AFR,reindeer,min,0.115,kg/1000kg/day
2019,Middle East,reindeer,min,0.115,kg/1000kg/day
2019,ASI,reindeer,min,0.115,kg/1000kg/day
2019,Indian Subcontinent,reindeer,min,0.115,kg/1000kg/day
2019,Northern America,cattle-dairy,max,0.885,kg/1000kg/day
2019,Western Europe,cattle-dairy,max,0.810,kg/1000kg/day
2019,Eastern Europe,cattle-dairy,max,0.630,kg/1000kg/day
2019,AUS,cattle-dairy,max,1.080,kg/1000kg/day
2019,Latin America,cattle-dairy,max,0.585,kg/1000kg/day
2019,Latin America,cattle-dairy_hp,max,0.900,kg/1000kg/day
2019,Latin America,cattle-dairy_lp,max,0.420,kg/1000kg/day
2019,AFR,cattle-dairy,max,0.660,kg/1000kg/day
2019,AFR,cattle-dairy_hp,max,0.615,kg/1000kg/day
2019,AFR,cattle-dairy_lp,max,0.675,kg/1000kg/day
2019,Middle East,cattle-dairy,max,0.750,kg/1000kg/day
2019,Middle East,cattle-dairy_hp,max,0.735,kg/1000kg/day
2019,Middle East,cattle-dairy_lp,max,0.765,kg/1000kg/day
2019,ASI,cattle-dairy,max,0.660,kg/1000kg/day
2019,ASI,cattle-dairy_hp,max,0.825,kg/1000kg/day
2019,ASI,cattle-dairy_lp,max,0.615,kg/1000kg/day
2019,Indian Subcontinent,cattle-dairy,max,0.975,kg/1000kg/day
2019,Indian Subcontinent,cattle-dairy_hp,max,0.765,kg/1000kg/day
2019,Indian Subcontinent,cattle-dairy_lp,max,1.050,kg/1000kg/day
2019,Northern America,cattle-other,max,0.600,kg/1000kg/day
2019,Western Europe,cattle-other,max,0.630,kg/1000kg/day
2019,Eastern Europe,cattle-other,max,0.705,kg/1000kg/day
2019,AUS,cattle-other,max,0.690,kg/1000kg/day
2019,Latin America,cattle-other,max,0.465,kg/1000kg/day
2019,Latin America,cattle-other_hp,max,0.540,kg/1000kg/day
2019,Latin America,cattle-other_lp,max,0.435,kg/1000kg/day
2019,AFR,cattle-other,max,0.675,kg/1000kg/day
2019,AFR,cattle-other_hp,max,0.630,kg/1000kg/day
2019,AFR,cattle-other_lp,max,0.660,kg/1000kg/day
2019,Middle East,cattle-other,max,0.840,kg/1000kg/day
2019,Middle East,cattle-other_hp,max,0.765,kg/1000kg/day
2019,Middle East,cattle-other_lp,max,0.885,kg/1000kg/day
2019,ASI,cattle-other,max,0.570,kg/1000kg/day
2019,ASI,cattle-other_hp,max,0.540,kg/1000kg/day
2019,ASI,cattle-other_lp,max,0.585,kg/1000kg/day
2019,Indian Subcontinent,cattle-other,max,0.660,kg/1000kg/day
2019,Indian Subcontinent,cattle-other_hp,max,0.960,kg/1000kg/day
2019,Indian Subcontinent,cattle-other_lp,max,0.615,kg/1000kg/day
2019,Western Europe,buffalo,max,0.675,kg/1000kg/day
2019,Eastern Europe,buffalo,max,0.525,kg/1000kg/day
2019,Latin America,buffalo,max,0.615,kg/1000kg/day
2019,Latin America,buffalo_hp,max,0.615,kg/1000kg/day
2019,Latin America,buffalo_lp,max,0.615,kg/1000kg/day
2019,AFR,buffalo,max,0.630,kg/1000kg/day
2019,AFR,buffalo_hp,max,0.630,kg/1000kg/day
2019,AFR,buffalo_lp,max,0.630,kg/1000kg/day
2019,Middle East,buffalo,max,0.585,kg/1000kg/day
2019,Middle East,buffalo_hp,max,0.585,kg/1000kg/day
2019,Middle East,buffalo_lp,max,0.585,kg/1000kg/day
2019,ASI,buffalo,max,0.660,kg/1000kg/day
2019,ASI,buffalo_hp,max,0.660,kg/1000kg/day
2019,ASI,buffalo_lp,max,0.660,kg/1000kg/day
2019,Indian Subcontinent,buffalo,max,0.870,kg/1000kg/day
2019,Indian Subcontinent,buffalo_hp,max,0.870,kg/1000kg/day
2019,Indian Subcontinent,buffalo_lp,max,0.870,kg/1000kg/day
2019,Northern America,swine-growing,max,0.585,kg/1000kg/day
2019,Western Europe,swine-growing,max,0.975,kg/1000kg/day
2019,Eastern Europe,swine-growing,max,0.945,kg/1000kg/day
2019,AUS,swine-growing,max,0.810,kg/1000kg/day
2019,Latin America,swine-growing,max,0.885,kg/1000kg/day
2019,Latin America,swine-growing_hp,max,0.825,kg/1000kg/day
2019,Latin America,swine-growing_lp,max,1.005,kg/1000kg/day
2019,AFR,swine-growing,max,0.660,kg/1000kg/day
2019,AFR,swine-growing_hp,max,0.495,kg/1000kg/day
2019,AFR,swine-growing_lp,max,0.735,kg/1000kg/day
2019,Middle East,swine-growing,max,0.990,kg/1000kg/day
2019,Middle East,swine-growing_hp,max,1.005,kg/1000kg/day
2019,Middle East,swine-growing_lp,max,0.840,kg/1000kg/day
2019,ASI,swine-growing,max,0.915,kg/1000kg/day
2019,ASI,swine-growing_hp,max,0.810,kg/1000kg/day
2019,ASI,swine-growing_lp,max,1.005,kg/1000kg/day
2019,Indian Subcontinent,swine-growing,max,1.020,kg/1000kg/day
2019,Indian Subcontinent,swine-growing_hp,max,0.945,kg/1000kg/day
2019,Indian Subcontinent,swine-growing_lp,max,1.065,kg/1000kg/day
2019,Northern America,swine-mature,max,0.585,kg/1000kg/day
2019,Western Europe,swine-mature,max,0.975,kg/1000kg/day
2019,Eastern Europe,swine-mature,max,0.945,kg/1000kg/day
2019,AUS,swine-mature,max,0.810,kg/1000kg/day
2019,Latin America,swine-mature,max,0.885,kg/1000kg/day
2019,Latin America,swine-mature_hp,max,0.825,kg/1000kg/day
2019,Latin America,swine-mature_lp,max,1.005,kg/1000kg/day
2019,AFR,swine-mature,max,0.660,kg/1000kg/day
2019,AFR,swine-mature_hp,max,0.495,kg/1000kg/day
2019,AFR,swine-mature_lp,max,0.735,kg/1000kg/day
2019,Middle East,swine-mature,max,0.990,kg/1000kg/day
2019,Middle East,swine-mature_hp,max,1.005,kg/1000kg/day
2019,Middle East,swine-mature_lp,max,0.840,kg/1000kg/day
2019,ASI,swine-mature,max,0.915,kg/1000kg/day
2019,ASI,swine-mature_hp,max,0.810,kg/1000kg/day
2019,ASI,swine-mature_lp,max,1.005,kg/1000kg/day
2019,Indian Subcontinent,swine-mature,max,1.020,kg/1000kg/day
2019,Indian Subcontinent,swine-mature_hp,max,0.945,kg/1000kg/day
2019,Indian Subcontinent,swine-mature_lp,max,1.065,kg/1000kg/day
2019,Northern America,swine-mature_breeding,max,0.360,kg/1000kg/day
2019,Western Europe,swine-mature_breeding,max,0.570,kg/1000kg/day
2019,Eastern Europe,swine-mature_breeding,max,0.540,kg/1000kg/day
2019,AUS,swine-mature_breeding,max,0.465,kg/1000kg/day
2019,Latin America,swine-mature_breeding,max,0.525,kg/1000kg/day
2019,Latin America,swine-mature_hp_breeding,max,0.480,kg/1000kg/day
2019,Latin America,swine-mature_lp_breeding,max,0.645,kg/1000kg/day
2019,AFR,swine-mature_breeding,max,0.435,kg/1000kg/day
2019,AFR,swine-mature_hp_breeding,max,0.315,kg/1000kg/day
2019,AFR,swine-mature_lp_breeding,max,0.525,kg/1000kg/day
2019,Middle East,swine-mature_breeding,max,0.600,kg/1000kg/day
2019,Middle East,swine-mature_hp_breeding,max,0.615,kg/1000kg/day
2019,Middle East,swine-mature_lp_breeding,max,0.555,kg/1000kg/day
2019,ASI,swine-mature_breeding,max,0.555,kg/1000kg/day
2019,ASI,swine-mature_hp_breeding,max,0.480,kg/1000kg/day
2019,ASI,swine-mature_lp_breeding,max,0.645,kg/1000kg/day
2019,Indian Subcontinent,swine-mature_breeding,max,0.645,kg/1000kg/day
2019,Indian Subcontinent,swine-mature_hp_breeding,max,0.555,kg/1000kg/day
2019,Indian Subcontinent,swine-mature_lp_breeding,max,0.705,kg/1000kg/day
2019,Northern America,poultry-chicken,max,2.175,kg/1000kg/day
2019,Western Europe,poultry-chicken,max,1.485,kg/1000kg/day
2019,Eastern Europe,poultry-chicken,max,1.440,kg/1000kg/day
2019,AUS,poultry-chicken,max,2.130,kg/1000kg/day
2019,Latin America,poultry-chicken,max,1.800,kg/1000kg/day
2019,Latin America,poultry-chicken_hp,max,1.695,kg/1000kg/day
2019,Latin America,poultry-chicken_lp,max,3.210,kg/1000kg/day
2019,AFR,poultry-chicken,max,1.935,kg/1000kg/day
2019,AFR,poultry-chicken_hp,max,1.740,kg/1000kg/day
2019,AFR,poultry-chicken_lp,max,2.160,kg/1000kg/day
2019,Middle East,poultry-chicken,max,1.935,kg/1000kg/day
2019,Middle East,poultry-chicken_hp,max,1.905,kg/1000kg/day
2019,Middle East,poultry-chicken_lp,max,2.685,kg/1000kg/day
2019,ASI,poultry-chicken,max,1.650,kg/1000kg/day
2019,ASI,poultry-chicken_hp,max,1.650,kg/1000kg/day
2019,ASI,poultry-chicken_lp,max,2.280,kg/1000kg/day
2019,Indian Subcontinent,poultry-chicken,max,2.430,kg/1000kg/day
2019,Indian Subcontinent,poultry-chicken_hp,max,2.220,kg/1000kg/day
2019,Indian Subcontinent,poultry-chicken_lp,max,2.745,kg/1000kg/day
2019,Northern America,poultry-chicken_hen,max,1.695,kg/1000kg/day
2019,Western Europe,poultry-chicken_hen,max,1.305,kg/1000kg/day
2019,Eastern Europe,poultry-chicken_hen,max,1.215,kg/1000kg/day
2019,AUS,poultry-chicken_hen,max,1.560,kg/1000kg/day
2019,Latin America,poultry-chicken_hen,max,1.755,kg/1000kg/day
2019,Latin America,poultry-chicken_hp_hen,max,1.530,kg/1000kg/day
2019,Latin America,poultry-chicken_lp_hen,max,3.015,kg/1000kg/day
2019,AFR,poultry-chicken_hen,max,1.800,kg/1000kg/day
2019,AFR,poultry-chicken_hp_hen,max,1.485,kg/1000kg/day
2019,AFR,poultry-chicken_lp_hen,max,2.010,kg/1000kg/day
2019,Middle East,poultry-chicken_hen,max,1.665,kg/1000kg/day
2019,Middle East,poultry-chicken_hp_hen,max,1.590,kg/1000kg/day
2019,Middle East,poultry-chicken_lp_hen,max,2.550,kg/1000kg/day
2019,ASI,poultry-chicken_hen,max,1.500,kg/1000kg/day
2019,ASI,poultry-chicken_hp_hen,max,1.335,kg/1000kg/day
2019,ASI,poultry-chicken_lp_hen,max,2.250,kg/1000kg/day
2019,Indian Subcontinent,poultry-chicken_hen,max,2.475,kg/1000kg/day
2019,Indian Subcontinent,poultry-chicken_hp_hen,max,2.400,kg/1000kg/day
2019,Indian Subcontinent,poultry-chicken_lp_hen,max,2.550,kg/1000kg/day
2019,Northern America,poultry-chicken_pullet,max,1.155,kg/1000kg/day
2019,Western Europe,poultry-chicken_pullet,max,0.870,kg/1000kg/day
2019,Eastern Europe,poultry-chicken_pullet,max,0.870,kg/1000kg/day
2019,AUS,poultry-chicken_pullet,max,1.140,kg/1000kg/day
2019,Latin America,poultry-chicken_pullet,max,1.425,kg/1000kg/day
2019,Latin America,poultry-chicken_hp_pullet,max,1.020,kg/1000kg/day
2019,Latin America,poultry-chicken_lp_pullet,max,3.750,kg/1000kg/day
2019,AFR,poultry-chicken_pullet,max,1.935,kg/1000kg/day
2019,AFR,poultry-chicken_hp_pullet,max,1.050,kg/1000kg/day
2019,AFR,poultry-chicken_lp_pullet,max,2.580,kg/1000kg/day
2019,Middle East,poultry-chicken_pullet,max,1.275,kg/1000kg/day
2019,Middle East,poultry-chicken_hp_pullet,max,1.110,kg/1000kg/day
2019,Middle East,poultry-chicken_lp_pullet,max,3.045,kg/1000kg/day
2019,ASI,poultry-chicken_pullet,max,1.245,kg/1000kg/day
2019,ASI,poultry-chicken_hp_pullet,max,0.900,kg/1000kg/day
2019,ASI,poultry-chicken_lp_pullet,max,2.865,kg/1000kg/day
2019,Indian Subcontinent,poultry-chicken_pullet,max,2.445,kg/1000kg/day
2019,Indian Subcontinent,poultry-chicken_hp_pullet,max,1.470,kg/1000kg/day
2019,Indian Subcontinent,poultry-chicken_lp_pullet,max,3.300,kg/1000kg/day
2019,Northern America,poultry-chicken_broiler,max,2.385,kg/1000kg/day
2019,Western Europe,poultry-chicken_broiler,max,1.710,kg/1000kg/day
2019,Eastern Europe,poultry-chicken_broiler,max,1.680,kg/1000kg/day
2019,AUS,poultry-chicken_broiler,max,2.385,kg/1000kg/day
2019,Latin America,poultry-chicken_broiler,max,1.845,kg/1000kg/day
2019,Latin America,poultry-chicken_hp_broiler,max,1.815,kg/1000kg/day
2019,Latin America,poultry-chicken_lp_broiler,max,3.585,kg/1000kg/day
2019,AFR,poultry-chicken_broiler,max,2.100,kg/1000kg/day
2019,AFR,poultry-chicken_hp_broiler,max,2.010,kg/1000kg/day
2019,AFR,poultry-chicken_lp_broiler,max,2.370,kg/1000kg/day
2019,Middle East,poultry-chicken_broiler,max,2.145,kg/1000kg/day
2019,Middle East,poultry-chicken_hp_broiler,max,2.130,kg/1000kg/day
2019,Middle East,poultry-chicken_lp_broiler,max,2.925,kg/1000kg/day
2019,ASI,poultry-chicken_broiler,max,2.025,kg/1000kg/day
2019,ASI,poultry-chicken_hp_broiler,max,1.965,kg/1000kg/day
2019,ASI,poultry-chicken_lp_broiler,max,2.760,kg/1000kg/day
2019,Indian Subcontinent,poultry-chicken_broiler,max,2.370,kg/1000kg/day
2019,Indian Subcontinent,poultry-chicken_hp_broiler,max,2.205,kg/1000kg/day
2019,Indian Subcontinent,poultry-chicken_lp_broiler,max,3.165,kg/1000kg/day
2019,Northern America,poultry-turkey,max,1.110,kg/1000kg/day
2019,Western Europe,poultry-turkey,max,1.110,kg/1000kg/day
2019,Eastern Europe,poultry-turkey,max,1.110,kg/1000kg/day
2019,AUS,poultry-turkey,max,1.110,kg/1000kg/day
2019,Latin America,poultry-turkey,max,1.110,kg/1000kg/day
2019,Latin America,poultry-turkey_hp,max,1.110,kg/1000kg/day
2019,Latin America,poultry-turkey_lp,max,1.110,kg/1000kg/day
2019,AFR,poultry-turkey,max,1.110,kg/1000kg/day
2019,AFR,poultry-turkey_hp,max,1.110,kg/1000kg/day
2019,AFR,poultry-turkey_lp,max,1.110,kg/1000kg/day
2019,Middle East,poultry-turkey,max,1.110,kg/1000kg/day
2019,Middle East,poultry-turkey_hp,max,1.110,kg/1000kg/day
2019,Middle East,poultry-turkey_lp,max,1.110,kg/1000kg/day
2019,ASI,poultry-turkey,max,1.110,kg/1000kg/day
2019,ASI,poultry-turkey_hp,max,1.110,kg/1000kg/day
2019,ASI,poultry-turkey_lp,max,1.110,kg/1000kg/day
2019,Indian Subcontinent,poultry-turkey,max,1.110,kg/1000kg/day
2019,Indian Subcontinent,poultry-turkey_hp,max,1.110,kg/1000kg/day
2019,Indian Subcontinent,poultry-turkey_lp,max,1.110,kg/1000kg/day
2019,Northern America,poultry-duck,max,1.245,kg/1000kg/day
2019,Western Europe,poultry-duck,max,1.245,kg/1000kg/day
2019,Eastern Europe,poultry-duck,max,1.245,kg/1000kg/day
2019,AUS,poultry-duck,max,1.245,kg/1000kg/day
2019,Latin America,poultry-duck,max,1.245,kg/1000kg/day
2019,AFR,poultry-duck,max,1.245,kg/1000kg/day
2019,Middle East,poultry-duck,max,1.245,kg/1000kg/day
2019,ASI,poultry-duck,max,1.245,kg/1000kg/day
2019,Indian Subcontinent,poultry-duck,max,1.245,kg/1000kg/day
2019,Northern America,poultry-duck_meat,max,1.245,kg/1000kg/day
2019,Western Europe,poultry-duck_meat,max,1.245,kg/1000kg/day
2019,Eastern Europe,poultry-duck_meat,max,1.245,kg/1000kg/day
2019,AUS,poultry-duck_meat,max,1.245,kg/1000kg/day
2019,Latin America,poultry-duck_meat,max,1.245,kg/1000kg/day
2019,AFR,poultry-duck_meat,max,1.245,kg/1000kg/day
2019,Middle East,poultry-duck_meat,max,1.245,kg/1000kg/day
2019,ASI,poultry-duck_meat,max,1.245,kg/1000kg/day
2019,Indian Subcontinent,poultry-duck_meat,max,1.245,kg/1000kg/day
2019,Northern America,poultry-duck_breeding,max,1.245,kg/1000kg/day
2019,Western Europe,poultry-duck_breeding,max,1.245,kg/1000kg/day
2019,Eastern Europe,poultry-duck_breeding,max,1.245,kg/1000kg/day
2019,AUS,poultry-duck_breeding,max,1.245,kg/1000kg/day
2019,Latin America,poultry-duck_breeding,max,1.245,kg/1000kg/day
2019,AFR,poultry-duck_breeding,max,1.245,kg/1000kg/day
2019,Middle East,poultry-duck_breeding,max,1.245,kg/1000kg/day
2019,ASI,poultry-duck_breeding,max,1.245,kg/1000kg/day
2019,Indian Subcontinent,poultry-duck_breeding,max,1.245,kg/1000kg/day
2019,Northern America,sheep-mature,max,0.525,kg/1000kg/day
2019,Western Europe,sheep-mature,max,0.540,kg/1000kg/day
2019,Eastern Europe,sheep-mature,max,0.540,kg/1000kg/day
2019,AUS,sheep-mature,max,0.645,kg/1000kg/day
2019,Latin America,sheep-mature,max,0.480,kg/1000kg/day
2019,AFR,sheep-mature,max,0.480,kg/1000kg/day
2019,Middle East,sheep-mature,max,0.480,kg/1000kg/day
2019,ASI,sheep-mature,max,0.480,kg/1000kg/day
2019,Indian Subcontinent,sheep-mature,max,0.480,kg/1000kg/day
2019,Northern America,sheep-growing,max,0.525,kg/1000kg/day
2019,Western Europe,sheep-growing,max,0.540,kg/1000kg/day
2019,Eastern Europe,sheep-growing,max,0.540,kg/1000kg/day
2019,AUS,sheep-growing,max,0.645,kg/1000kg/day
2019,Latin America,sheep-growing,max,0.480,kg/1000kg/day
2019,AFR,sheep-growing,max,0.480,kg/1000kg/day
2019,Middle East,sheep-growing,max,0.480,kg/1000kg/day
2019,ASI,sheep-growing,max,0.480,kg/1000kg/day
2019,Indian Subcontinent,sheep-growing,max,0.480,kg/1000kg/day
2019,Northern America,goat,max,0.690,kg/1000kg/day
2019,Western Europe,goat,max,0.690,kg/1000kg/day
2019,Eastern Europe,goat,max,0.660,kg/1000kg/day
2019,AUS,goat,max,0.630,kg/1000kg/day
2019,Latin America,goat,max,0.510,kg/1000kg/day
2019,AFR,goat,max,0.510,kg/1000kg/day
2019,Middle East,goat,max,0.510,kg/1000kg/day
2019,ASI,goat,max,0.510,kg/1000kg/day
2019,Indian Subcontinent,goat,max,0.510,kg/1000kg/day
2019,Northern America,horse,max,0.450,kg/1000kg/day
2019,Western Europe,horse,max,0.390,kg/1000kg/day
2019,Eastern Europe,horse,max,0.450,kg/1000kg/day
2019,AUS,horse,max,0.450,kg/1000kg/day
2019,Latin America,horse,max,0.690,kg/1000kg/day
2019,AFR,horse,max,0.690,kg/1000kg/day
2019,Middle East,horse,max,0.690,kg/1000kg/day
2019,ASI,horse,max,0.690,kg/1000kg/day
2019,Indian Subcontinent,horse,max,0.690,kg/1000kg/day
2019,Northern America,mule-ass,max,0.450,kg/1000kg/day
2019,Western Europe,mule-ass,max,0.390,kg/1000kg/day
2019,Eastern Europe,mule-ass,max,0.450,kg/1000kg/day
2019,AUS,mule-ass,max,0.450,kg/1000kg/day
2019,Latin America,mule-ass,max,0.690,kg/1000kg/day
2019,AFR,mule-ass,max,0.690,kg/1000kg/day
2019,Middle East,mule-ass,max,0.690,kg/1000kg/day
2019,ASI,mule-ass,max,0.690,kg/1000kg/day
2019,Indian Subcontinent,mule-ass,max,0.690,kg/1000kg/day
2019,Northern America,camel,max,0.570,kg/1000kg/day
2019,Western Europe,camel,max,0.570,kg/1000kg/day
2019,Eastern Europe,camel,max,0.570,kg/1000kg/day
2019,AUS,camel,max,0.570,kg/1000kg/day
2019,Latin America,camel,max,0.690,kg/1000kg/day
2019,AFR,camel,max,0.690,kg/1000kg/day
2019,Middle East,camel,max,0.690,kg/1000kg/day
2019,ASI,camel,max,0.690,kg/1000kg/day
2019,Indian Subcontinent,camel,max,0.690,kg/1000kg/day
2019,Northern America,ostrich,max,0.540,kg/1000kg/day
2019,Western Europe,ostrich,max,0.540,kg/1000kg/day
2019,Eastern Europe,ostrich,max,0.540,kg/1000kg/day
2019,AUS,ostrich,max,0.540,kg/1000kg/day
2019,Latin America,ostrich,max,0.540,kg/1000kg/day
2019,AFR,ostrich,max,0.540,kg/1000kg/day
2019,Middle East,ostrich,max,0.540,kg/1000kg/day
2019,ASI,ostrich,max,0.540,kg/1000kg/day
2019,Indian Subcontinent,ostrich,max,0.540,kg/1000kg/day
2019,Northern America,deer,max,1.005,kg/1000kg/day
2019,Western Europe,deer,max,1.005,kg/1000kg/day
2019,Eastern Europe,deer,max,1.005,kg/1000kg/day
2019,AUS,deer,max,1.005,kg/1000kg/day
2019,Latin America,deer,max,1.005,kg/1000kg/day
2019,AFR,deer,max,1.005,kg/1000kg/day
2019,Middle East,deer,max,1.005,kg/1000kg/day
2019,ASI,deer,max,1.005,kg/1000kg/day
2019,Indian Subcontinent,deer,max,1.005,kg/1000kg/day
2019,Northern America,reindeer,max,0.345,kg/1000kg/day
2019,Western Europe,reindeer,max,0.345,kg/1000kg/day
2019,Eastern Europe,reindeer,max,0.345,kg/1000kg/day
2019,AUS,reindeer,max,0.345,kg/1000kg/day
2019,Latin America,reindeer,max,0.345,kg/1000kg/day
2019,AFR,reindeer,max,0.345,kg/1000kg/day
2019,Middle East,reindeer,max,0.345,kg/1000kg/day
2019,ASI,reindeer,max,0.345,kg/1000kg/day
2019,Indian Subcontinent,reindeer,max,0.345,kg/1000kg/day
2019,Northern America,cattle-dairy,abs_min,0.0,kg/1000kg/day
2019,Western Europe,cattle-dairy,abs_min,0.0,kg/1000kg/day
2019,Eastern Europe,cattle-dairy,abs_min,0.0,kg/1000kg/day
2019,AUS,cattle-dairy,abs_min,0.0,kg/1000kg/day
2019,Latin America,cattle-dairy,abs_min,0.0,kg/1000kg/day
2019,Latin America,cattle-dairy_hp,abs_min,0.0,kg/1000kg/day
2019,Latin America,cattle-dairy_lp,abs_min,0.0,kg/1000kg/day
2019,AFR,cattle-dairy,abs_min,0.0,kg/1000kg/day
2019,AFR,cattle-dairy_hp,abs_min,0.0,kg/1000kg/day
2019,AFR,cattle-dairy_lp,abs_min,0.0,kg/1000kg/day
2019,Middle East,cattle-dairy,abs_min,0.0,kg/1000kg/day
2019,Middle East,cattle-dairy_hp,abs_min,0.0,kg/1000kg/day
2019,Middle East,cattle-dairy_lp,abs_min,0.0,kg/1000kg/day
2019,ASI,cattle-dairy,abs_min,0.0,kg/1000kg/day
2019,ASI,cattle-dairy_hp,abs_min,0.0,kg/1000kg/day
2019,ASI,cattle-dairy_lp,abs_min,0.0,kg/1000kg/day
2019,Indian Subcontinent,cattle-dairy,abs_min,0.0,kg/1000kg/day
2019,Indian Subcontinent,cattle-dairy_hp,abs_min,0.0,kg/1000kg/day
2019,Indian Subcontinent,cattle-dairy_lp,abs_min,0.0,kg/1000kg/day
2019,Northern America,cattle-other,abs_min,0.0,kg/1000kg/day
2019,Western Europe,cattle-other,abs_min,0.0,kg/1000kg/day
2019,Eastern Europe,cattle-other,abs_min,0.0,kg/1000kg/day
2019,AUS,cattle-other,abs_min,0.0,kg/1000kg/day
2019,Latin America,cattle-other,abs_min,0.0,kg/1000kg/day
2019,Latin America,cattle-other_hp,abs_min,0.0,kg/1000kg/day
2019,Latin America,cattle-other_lp,abs_min,0.0,kg/1000kg/day
2019,AFR,cattle-other,abs_min,0.0,kg/1000kg/day
2019,AFR,cattle-other_hp,abs_min,0.0,kg/1000kg/day
2019,AFR,cattle-other_lp,abs_min,0.0,kg/1000kg/day
2019,Middle East,cattle-other,abs_min,0.0,kg/1000kg/day
2019,Middle East,cattle-other_hp,abs_min,0.0,kg/1000kg/day
2019,Middle East,cattle-other_lp,abs_min,0.0,kg/1000kg/day
2019,ASI,cattle-other,abs_min,0.0,kg/1000kg/day
2019,ASI,cattle-other_hp,abs_min,0.0,kg/1000kg/day
2019,ASI,cattle-other_lp,abs_min,0.0,kg/1000kg/day
2019,Indian Subcontinent,cattle-other,abs_min,0.0,kg/1000kg/day
2019,Indian Subcontinent,cattle-other_hp,abs_min,0.0,kg/1000kg/day
2019,Indian Subcontinent,cattle-other_lp,abs_min,0.0,kg/1000kg/day
2019,Western Europe,buffalo,abs_min,0.0,kg/1000kg/day
2019,Eastern Europe,buffalo,abs_min,0.0,kg/1000kg/day
2019,Latin America,buffalo,abs_min,0.0,kg/1000kg/day
2019,Latin America,buffalo_hp,abs_min,0.0,kg/1000kg/day
2019,Latin America,buffalo_lp,abs_min,0.0,kg/1000kg/day
2019,AFR,buffalo,abs_min,0.0,kg/1000kg/day
2019,AFR,buffalo_hp,abs_min,0.0,kg/1000kg/day
2019,AFR,buffalo_lp,abs_min,0.0,kg/1000kg/day
2019,Middle East,buffalo,abs_min,0.0,kg/1000kg/day
2019,Middle East,buffalo_hp,abs_min,0.0,kg/1000kg/day
2019,Middle East,buffalo_lp,abs_min,0.0,kg/1000kg/day
2019,ASI,buffalo,abs_min,0.0,kg/1000kg/day
2019,ASI,buffalo_hp,abs_min,0.0,kg/1000kg/day
2019,ASI,buffalo_lp,abs_min,0.0,kg/1000kg/day
2019,Indian Subcontinent,buffalo,abs_min,0.0,kg/1000kg/day
2019,Indian Subcontinent,buffalo_hp,abs_min,0.0,kg/1000kg/day
2019,Indian Subcontinent,buffalo_lp,abs_min,0.0,kg/1000kg/day
2019,Northern America,swine-growing,abs_min,0.0,kg/1000kg/day
2019,Western Europe,swine-growing,abs_min,0.0,kg/1000kg/day
2019,Eastern Europe,swine-growing,abs_min,0.0,kg/1000kg/day
2019,AUS,swine-growing,abs_min,0.0,kg/1000kg/day
2019,Latin America,swine-growing,abs_min,0.0,kg/1000kg/day
2019,Latin America,swine-growing_hp,abs_min,0.0,kg/1000kg/day
2019,Latin America,swine-growing_lp,abs_min,0.0,kg/1000kg/day
2019,AFR,swine-growing,abs_min,0.0,kg/1000kg/day
2019,AFR,swine-growing_hp,abs_min,0.0,kg/1000kg/day
2019,AFR,swine-growing_lp,abs_min,0.0,kg/1000kg/day
2019,Middle East,swine-growing,abs_min,0.0,kg/1000kg/day
2019,Middle East,swine-growing_hp,abs_min,0.0,kg/1000kg/day
2019,Middle East,swine-growing_lp,abs_min,0.0,kg/1000kg/day
2019,ASI,swine-growing,abs_min,0.0,kg/1000kg/day
2019,ASI,swine-growing_hp,abs_min,0.0,kg/1000kg/day
2019,ASI,swine-growing_lp,abs_min,0.0,kg/1000kg/day
2019,Indian Subcontinent,swine-growing,abs_min,0.0,kg/1000kg/day
2019,Indian Subcontinent,swine-growing_hp,abs_min,0.0,kg/1000kg/day
2019,Indian Subcontinent,swine-growing_lp,abs_min,0.0,kg/1000kg/day
2019,Northern America,swine-mature,abs_min,0.0,kg/1000kg/day
2019,Western Europe,swine-mature,abs_min,0.0,kg/1000kg/day
2019,Eastern Europe,swine-mature,abs_min,0.0,kg/1000kg/day
2019,AUS,swine-mature,abs_min,0.0,kg/1000kg/day
2019,Latin America,swine-mature,abs_min,0.0,kg/1000kg/day
2019,Latin America,swine-mature_hp,abs_min,0.0,kg/1000kg/day
2019,Latin America,swine-mature_lp,abs_min,0.0,kg/1000kg/day
2019,AFR,swine-mature,abs_min,0.0,kg/1000kg/day
2019,AFR,swine-mature_hp,abs_min,0.0,kg/1000kg/day
2019,AFR,swine-mature_lp,abs_min,0.0,kg/1000kg/day
2019,Middle East,swine-mature,abs_min,0.0,kg/1000kg/day
2019,Middle East,swine-mature_hp,abs_min,0.0,kg/1000kg/day
2019,Middle East,swine-mature_lp,abs_min,0.0,kg/1000kg/day
2019,ASI,swine-mature,abs_min,0.0,kg/1000kg/day
2019,ASI,swine-mature_hp,abs_min,0.0,kg/1000kg/day
2019,ASI,swine-mature_lp,abs_min,0.0,kg/1000kg/day
2019,Indian Subcontinent,swine-mature,abs_min,0.0,kg/1000kg/day
2019,Indian Subcontinent,swine-mature_hp,abs_min,0.0,kg/1000kg/day
2019,Indian Subcontinent,swine-mature_lp,abs_min,0.0,kg/1000kg/day
2019,Northern America,swine-mature_breeding,abs_min,0.0,kg/1000kg/day
2019,Western Europe,swine-mature_breeding,abs_min,0.0,kg/1000kg/day
2019,Eastern Europe,swine-mature_breeding,abs_min,0.0,kg/1000kg/day
2019,AUS,swine-mature_breeding,abs_min,0.0,kg/1000kg/day
2019,Latin America,swine-mature_breeding,abs_min,0.0,kg/1000kg/day
2019,Latin America,swine-mature_hp_breeding,abs_min,0.0,kg/1000kg/day
2019,Latin America,swine-mature_lp_breeding,abs_min,0.0,kg/1000kg/day
2019,AFR,swine-mature_breeding,abs_min,0.0,kg/1000kg/day
2019,AFR,swine-mature_hp_breeding,abs_min,0.0,kg/1000kg/day
2019,AFR,swine-mature_lp_breeding,abs_min,0.0,kg/1000kg/day
2019,Middle East,swine-mature_breeding,abs_min,0.0,kg/1000kg/day
2019,Middle East,swine-mature_hp_breeding,abs_min,0.0,kg/1000kg/day
2019,Middle East,swine-mature_lp_breeding,abs_min,0.0,kg/1000kg/day
2019,ASI,swine-mature_breeding,abs_min,0.0,kg/1000kg/day
2019,ASI,swine-mature_hp_breeding,abs_min,0.0,kg/1000kg/day
2019,ASI,swine-mature_lp_breeding,abs_min,0.0,kg/1000kg/day
2019,Indian Subcontinent,swine-mature_breeding,abs_min,0.0,kg/1000kg/day
2019,Indian Subcontinent,swine-mature_hp_breeding,abs_min,0.0,kg/1000kg/day
2019,Indian Subcontinent,swine-mature_lp_breeding,abs_min,0.0,kg/1000kg/day
2019,Northern America,poultry-chicken,abs_min,0.0,kg/1000kg/day
2019,Western Europe,poultry-chicken,abs_min,0.0,kg/1000kg/day
2019,Eastern Europe,poultry-chicken,abs_min,0.0,kg/1000kg/day
2019,AUS,poultry-chicken,abs_min,0.0,kg/1000kg/day
2019,Latin America,poultry-chicken,abs_min,0.0,kg/1000kg/day
2019,Latin America,poultry-chicken_hp,abs_min,0.0,kg/1000kg/day
2019,Latin America,poultry-chicken_lp,abs_min,0.0,kg/1000kg/day
2019,AFR,poultry-chicken,abs_min,0.0,kg/1000kg/day
2019,AFR,poultry-chicken_hp,abs_min,0.0,kg/1000kg/day
2019,AFR,poultry-chicken_lp,abs_min,0.0,kg/1000kg/day
2019,Middle East,poultry-chicken,abs_min,0.0,kg/1000kg/day
2019,Middle East,poultry-chicken_hp,abs_min,0.0,kg/1000kg/day
2019,Middle East,poultry-chicken_lp,abs_min,0.0,kg/1000kg/day
2019,ASI,poultry-chicken,abs_min,0.0,kg/1000kg/day
2019,ASI,poultry-chicken_hp,abs_min,0.0,kg/1000kg/day
2019,ASI,poultry-chicken_lp,abs_min,0.0,kg/1000kg/day
2019,Indian Subcontinent,poultry-chicken,abs_min,0.0,kg/1000kg/day
2019,Indian Subcontinent,poultry-chicken_hp,abs_min,0.0,kg/1000kg/day
2019,Indian Subcontinent,poultry-chicken_lp,abs_min,0.0,kg/1000kg/day
2019,Northern America,poultry-chicken_hen,abs_min,0.0,kg/1000kg/day
2019,Western Europe,poultry-chicken_hen,abs_min,0.0,kg/1000kg/day
2019,Eastern Europe,poultry-chicken_hen,abs_min,0.0,kg/1000kg/day
2019,AUS,poultry-chicken_hen,abs_min,0.0,kg/1000kg/day
2019,Latin America,poultry-chicken_hen,abs_min,0.0,kg/1000kg/day
2019,Latin America,poultry-chicken_hp_hen,abs_min,0.0,kg/1000kg/day
2019,Latin America,poultry-chicken_lp_hen,abs_min,0.0,kg/1000kg/day
2019,AFR,poultry-chicken_hen,abs_min,0.0,kg/1000kg/day
2019,AFR,poultry-chicken_hp_hen,abs_min,0.0,kg/1000kg/day
2019,AFR,poultry-chicken_lp_hen,abs_min,0.0,kg/1000kg/day
2019,Middle East,poultry-chicken_hen,abs_min,0.0,kg/1000kg/day
2019,Middle East,poultry-chicken_hp_hen,abs_min,0.0,kg/1000kg/day
2019,Middle East,poultry-chicken_lp_hen,abs_min,0.0,kg/1000kg/day
2019,ASI,poultry-chicken_hen,abs_min,0.0,kg/1000kg/day
2019,ASI,poultry-chicken_hp_hen,abs_min,0.0,kg/1000kg/day
2019,ASI,poultry-chicken_lp_hen,abs_min,0.0,kg/1000kg/day
2019,Indian Subcontinent,poultry-chicken_hen,abs_min,0.0,kg/1000kg/day
2019,Indian Subcontinent,poultry-chicken_hp_hen,abs_min,0.0,kg/1000kg/day
2019,Indian Subcontinent,poultry-chicken_lp_hen,abs_min,0.0,kg/1000kg/day
2019,Northern America,poultry-chicken_pullet,abs_min,0.0,kg/1000kg/day
2019,Western Europe,poultry-chicken_pullet,abs_min,0.0,kg/1000kg/day
2019,Eastern Europe,poultry-chicken_pullet,abs_min,0.0,kg/1000kg/day
2019,AUS,poultry-chicken_pullet,abs_min,0.0,kg/1000kg/day
2019,Latin America,poultry-chicken_pullet,abs_min,0.0,kg/1000kg/day
2019,Latin America,poultry-chicken_hp_pullet,abs_min,0.0,kg/1000kg/day
2019,Latin America,poultry-chicken_lp_pullet,abs_min,0.0,kg/1000kg/day
2019,AFR,poultry-chicken_pullet,abs_min,0.0,kg/1000kg/day
2019,AFR,poultry-chicken_hp_pullet,abs_min,0.0,kg/1000kg/day
2019,AFR,poultry-chicken_lp_pullet,abs_min,0.0,kg/1000kg/day
2019,Middle East,poultry-chicken_pullet,abs_min,0.0,kg/1000kg/day
2019,Middle East,poultry-chicken_hp_pullet,abs_min,0.0,kg/1000kg/day
2019,Middle East,poultry-chicken_lp_pullet,abs_min,0.0,kg/1000kg/day
2019,ASI,poultry-chicken_pullet,abs_min,0.0,kg/1000kg/day
2019,ASI,poultry-chicken_hp_pullet,abs_min,0.0,kg/1000kg/day
2019,ASI,poultry-chicken_lp_pullet,abs_min,0.0,kg/1000kg/day
2019,Indian Subcontinent,poultry-chicken_pullet,abs_min,0.0,kg/1000kg/day
2019,Indian Subcontinent,poultry-chicken_hp_pullet,abs_min,0.0,kg/1000kg/day
2019,Indian Subcontinent,poultry-chicken_lp_pullet,abs_min,0.0,kg/1000kg/day
2019,Northern America,poultry-chicken_broiler,abs_min,0.0,kg/1000kg/day
2019,Western Europe,poultry-chicken_broiler,abs_min,0.0,kg/1000kg/day
2019,Eastern Europe,poultry-chicken_broiler,abs_min,0.0,kg/1000kg/day
2019,AUS,poultry-chicken_broiler,abs_min,0.0,kg/1000kg/day
2019,Latin America,poultry-chicken_broiler,abs_min,0.0,kg/1000kg/day
2019,Latin America,poultry-chicken_hp_broiler,abs_min,0.0,kg/1000kg/day
2019,Latin America,poultry-chicken_lp_broiler,abs_min,0.0,kg/1000kg/day
2019,AFR,poultry-chicken_broiler,abs_min,0.0,kg/1000kg/day
2019,AFR,poultry-chicken_hp_broiler,abs_min,0.0,kg/1000kg/day
2019,AFR,poultry-chicken_lp_broiler,abs_min,0.0,kg/1000kg/day
2019,Middle East,poultry-chicken_broiler,abs_min,0.0,kg/1000kg/day
2019,Middle East,poultry-chicken_hp_broiler,abs_min,0.0,kg/1000kg/day
2019,Middle East,poultry-chicken_lp_broiler,abs_min,0.0,kg/1000kg/day
2019,ASI,poultry-chicken_broiler,abs_min,0.0,kg/1000kg/day
2019,ASI,poultry-chicken_hp_broiler,abs_min,0.0,kg/1000kg/day
2019,ASI,poultry-chicken_lp_broiler,abs_min,0.0,kg/1000kg/day
2019,Indian Subcontinent,poultry-chicken_broiler,abs_min,0.0,kg/1000kg/day
2019,Indian Subcontinent,poultry-chicken_hp_broiler,abs_min,0.0,kg/1000kg/day
2019,Indian Subcontinent,poultry-chicken_lp_broiler,abs_min,0.0,kg/1000kg/day
2019,Northern America,poultry-turkey,abs_min,0.0,kg/1000kg/day
2019,Western Europe,poultry-turkey,abs_min,0.0,kg/1000kg/day
2019,Eastern Europe,poultry-turkey,abs_min,0.0,kg/1000kg/day
2019,AUS,poultry-turkey,abs_min,0.0,kg/1000kg/day
2019,Latin America,poultry-turkey,abs_min,0.0,kg/1000kg/day
2019,Latin America,poultry-turkey_hp,abs_min,0.0,kg/1000kg/day
2019,Latin America,poultry-turkey_lp,abs_min,0.0,kg/1000kg/day
2019,AFR,poultry-turkey,abs_min,0.0,kg/1000kg/day
2019,AFR,poultry-turkey_hp,abs_min,0.0,kg/1000kg/day
2019,AFR,poultry-turkey_lp,abs_min,0.0,kg/1000kg/day
2019,Middle East,poultry-turkey,abs_min,0.0,kg/1000kg/day
2019,Middle East,poultry-turkey_hp,abs_min,0.0,kg/1000kg/day
2019,Middle East,poultry-turkey_lp,abs_min,0.0,kg/1000kg/day
2019,ASI,poultry-turkey,abs_min,0.0,kg/1000kg/day
2019,ASI,poultry-turkey_hp,abs_min,0.0,kg/1000kg/day
2019,ASI,poultry-turkey_lp,abs_min,0.0,kg/1000kg/day
2019,Indian Subcontinent,poultry-turkey,abs_min,0.0,kg/1000kg/day
2019,Indian Subcontinent,poultry-turkey_hp,abs_min,0.0,kg/1000kg/day
2019,Indian Subcontinent,poultry-turkey_lp,abs_min,0.0,kg/1000kg/day
2019,Northern America,poultry-duck,abs_min,0.0,kg/1000kg/day
2019,Western Europe,poultry-duck,abs_min,0.0,kg/1000kg/day
2019,Eastern Europe,poultry-duck,abs_min,0.0,kg/1000kg/day
2019,AUS,poultry-duck,abs_min,0.0,kg/1000kg/day
2019,Latin America,poultry-duck,abs_min,0.0,kg/1000kg/day
2019,AFR,poultry-duck,abs_min,0.0,kg/1000kg/day
2019,Middle East,poultry-duck,abs_min,0.0,kg/1000kg/day
2019,ASI,poultry-duck,abs_min,0.0,kg/1000kg/day
2019,Indian Subcontinent,poultry-duck,abs_min,0.0,kg/1000kg/day
2019,Northern America,poultry-duck_meat,abs_min,0.0,kg/1000kg/day
2019,Western Europe,poultry-duck_meat,abs_min,0.0,kg/1000kg/day
2019,Eastern Europe,poultry-duck_meat,abs_min,0.0,kg/1000kg/day
2019,AUS,poultry-duck_meat,abs_min,0.0,kg/1000kg/day
2019,Latin America,poultry-duck_meat,abs_min,0.0,kg/1000kg/day
2019,AFR,poultry-duck_meat,abs_min,0.0,kg/1000kg/day
2019,Middle East,poultry-duck_meat,abs_min,0.0,kg/1000kg/day
2019,ASI,poultry-duck_meat,abs_min,0.0,kg/1000kg/day
2019,Indian Subcontinent,poultry-duck_meat,abs_min,0.0,kg/1000kg/day
2019,Northern America,poultry-duck_breeding,abs_min,0.0,kg/1000kg/day
2019,Western Europe,poultry-duck_breeding,abs_min,0.0,kg/1000kg/day
2019,Eastern Europe,poultry-duck_breeding,abs_min,0.0,kg/1000kg/day
2019,AUS,poultry-duck_breeding,abs_min,0.0,kg/1000kg/day
2019,Latin America,poultry-duck_breeding,abs_min,0.0,kg/1000kg/day
2019,AFR,poultry-duck_breeding,abs_min,0.0,kg/1000kg/day
2019,Middle East,poultry-duck_breeding,abs_min,0.0,kg/1000kg/day
2019,ASI,poultry-duck_breeding,abs_min,0.0,kg/1000kg/day
2019,Indian Subcontinent,poultry-duck_breeding,abs_min,0.0,kg/1000kg/day
2019,Northern America,sheep-mature,abs_min,0.0,kg/1000kg/day
2019,Western Europe,sheep-mature,abs_min,0.0,kg/1000kg/day
2019,Eastern Europe,sheep-mature,abs_min,0.0,kg/1000kg/day
2019,AUS,sheep-mature,abs_min,0.0,kg/1000kg/day
2019,Latin America,sheep-mature,abs_min,0.0,kg/1000kg/day
2019,AFR,sheep-mature,abs_min,0.0,kg/1000kg/day
2019,Middle East,sheep-mature,abs_min,0.0,kg/1000kg/day
2019,ASI,sheep-mature,abs_min,0.0,kg/1000kg/day
2019,Indian Subcontinent,sheep-mature,abs_min,0.0,kg/1000kg/day
2019,Northern America,sheep-growing,abs_min,0.0,kg/1000kg/day
2019,Western Europe,sheep-growing,abs_min,0.0,kg/1000kg/day
2019,Eastern Europe,sheep-growing,abs_min,0.0,kg/1000kg/day
2019,AUS,sheep-growing,abs_min,0.0,kg/1000kg/day
2019,Latin America,sheep-growing,abs_min,0.0,kg/1000kg/day
2019,AFR,sheep-growing,abs_min,0.0,kg/1000kg/day
2019,Middle East,sheep-growing,abs_min,0.0,kg/1000kg/day
2019,ASI,sheep-growing,abs_min,0.0,kg/1000kg/day
2019,Indian Subcontinent,sheep-growing,abs_min,0.0,kg/1000kg/day
2019,Northern America,goat,abs_min,0.0,kg/1000kg/day
2019,Western Europe,goat,abs_min,0.0,kg/1000kg/day
2019,Eastern Europe,goat,abs_min,0.0,kg/1000kg/day
2019,AUS,goat,abs_min,0.0,kg/1000kg/day
2019,Latin America,goat,abs_min,0.0,kg/1000kg/day
2019,AFR,goat,abs_min,0.0,kg/1000kg/day
2019,Middle East,goat,abs_min,0.0,kg/1000kg/day
2019,ASI,goat,abs_min,0.0,kg/1000kg/day
2019,Indian Subcontinent,goat,abs_min,0.0,kg/1000kg/day
2019,Northern America,horse,abs_min,0.0,kg/1000kg/day
2019,Western Europe,horse,abs_min,0.0,kg/1000kg/day
2019,Eastern Europe,horse,abs_min,0.0,kg/1000kg/day
2019,AUS,horse,abs_min,0.0,kg/1000kg/day
2019,Latin America,horse,abs_min,0.0,kg/1000kg/day
2019,AFR,horse,abs_min,0.0,kg/1000kg/day
2019,Middle East,horse,abs_min,0.0,kg/1000kg/day
2019,ASI,horse,abs_min,0.0,kg/1000kg/day
2019,Indian Subcontinent,horse,abs_min,0.0,kg/1000kg/day
2019,Northern America,mule-ass,abs_min,0.0,kg/1000kg/day
2019,Western Europe,mule-ass,abs_min,0.0,kg/1000kg/day
2019,Eastern Europe,mule-ass,abs_min,0.0,kg/1000kg/day
2019,AUS,mule-ass,abs_min,0.0,kg/1000kg/day
2019,Latin America,mule-ass,abs_min,0.0,kg/1000kg/day
2019,AFR,mule-ass,abs_min,0.0,kg/1000kg/day
2019,Middle East,mule-ass,abs_min,0.0,kg/1000kg/day
2019,ASI,mule-ass,abs_min,0.0,kg/1000kg/day
2019,Indian Subcontinent,mule-ass,abs_min,0.0,kg/1000kg/day
2019,Northern America,camel,abs_min,0.0,kg/1000kg/day
2019,Western Europe,camel,abs_min,0.0,kg/1000kg/day
2019,Eastern Europe,camel,abs_min,0.0,kg/1000kg/day
2019,AUS,camel,abs_min,0.0,kg/1000kg/day
2019,Latin America,camel,abs_min,0.0,kg/1000kg/day
2019,AFR,camel,abs_min,0.0,kg/1000kg/day
2019,Middle East,camel,abs_min,0.0,kg/1000kg/day
2019,ASI,camel,abs_min,0.0,kg/1000kg/day
2019,Indian Subcontinent,camel,abs_min,0.0,kg/1000kg/day
2019,Northern America,ostrich,abs_min,0.0,kg/1000kg/day
2019,Western Europe,ostrich,abs_min,0.0,kg/1000kg/day
2019,Eastern Europe,ostrich,abs_min,0.0,kg/1000kg/day
2019,AUS,ostrich,abs_min,0.0,kg/1000kg/day
2019,Latin America,ostrich,abs_min,0.0,kg/1000kg/day
2019,AFR,ostrich,abs_min,0.0,kg/1000kg/day
2019,Middle East,ostrich,abs_min,0.0,kg/1000kg/day
2019,ASI,ostrich,abs_min,0.0,kg/1000kg/day
2019,Indian Subcontinent,ostrich,abs_min,0.0,kg/1000kg/day
2019,Northern America,deer,abs_min,0.0,kg/1000kg/day
2019,Western Europe,deer,abs_min,0.0,kg/1000kg/day
2019,Eastern Europe,deer,abs_min,0.0,kg/1000kg/day
2019,AUS,deer,abs_min,0.0,kg/1000kg/day
2019,Latin America,deer,abs_min,0.0,kg/1000kg/day
2019,AFR,deer,abs_min,0.0,kg/1000kg/day
2019,Middle East,deer,abs_min,0.0,kg/1000kg/day
2019,ASI,deer,abs_min,0.0,kg/1000kg/day
2019,Indian Subcontinent,deer,abs_min,0.0,kg/1000kg/day
2019,Northern America,reindeer,abs_min,0.0,kg/1000kg/day
2019,Western Europe,reindeer,abs_min,0.0,kg/1000kg/day
2019,Eastern Europe,reindeer,abs_min,0.0,kg/1000kg/day
2019,AUS,reindeer,abs_min,0.0,kg/1000kg/day
2019,Latin America,reindeer,abs_min,0.0,kg/1000kg/day
2019,AFR,reindeer,abs_min,0.0,kg/1000kg/day
2019,Middle East,reindeer,abs_min,0.0,kg/1000kg/day
2019,ASI,reindeer,abs_min,0.0,kg/1000kg/day
2019,Indian Subcontinent,reindeer,abs_min,0.0,kg/1000kg/day
2019,Northern America,cattle-dairy,abs_max,inf,kg/1000kg/day
2019,Western Europe,cattle-dairy,abs_max,inf,kg/1000kg/day
2019,Eastern Europe,cattle-dairy,abs_max,inf,kg/1000kg/day
2019,AUS,cattle-dairy,abs_max,inf,kg/1000kg/day
2019,Latin America,cattle-dairy,abs_max,inf,kg/1000kg/day
2019,Latin America,cattle-dairy_hp,abs_max,inf,kg/1000kg/day
2019,Latin America,cattle-dairy_lp,abs_max,inf,kg/1000kg/day
2019,AFR,cattle-dairy,abs_max,inf,kg/1000kg/day
2019,AFR,cattle-dairy_hp,abs_max,inf,kg/1000kg/day
2019,AFR,cattle-dairy_lp,abs_max,inf,kg/1000kg/day
2019,Middle East,cattle-dairy,abs_max,inf,kg/1000kg/day
2019,Middle East,cattle-dairy_hp,abs_max,inf,kg/1000kg/day
2019,Middle East,cattle-dairy_lp,abs_max,inf,kg/1000kg/day
2019,ASI,cattle-dairy,abs_max,inf,kg/1000kg/day
2019,ASI,cattle-dairy_hp,abs_max,inf,kg/1000kg/day
2019,ASI,cattle-dairy_lp,abs_max,inf,kg/1000kg/day
2019,Indian Subcontinent,cattle-dairy,abs_max,inf,kg/1000kg/day
2019,Indian Subcontinent,cattle-dairy_hp,abs_max,inf,kg/1000kg/day
2019,Indian Subcontinent,cattle-dairy_lp,abs_max,inf,kg/1000kg/day
2019,Northern America,cattle-other,abs_max,inf,kg/1000kg/day
2019,Western Europe,cattle-other,abs_max,inf,kg/1000kg/day
2019,Eastern Europe,cattle-other,abs_max,inf,kg/1000kg/day
2019,AUS,cattle-other,abs_max,inf,kg/1000kg/day
2019,Latin America,cattle-other,abs_max,inf,kg/1000kg/day
2019,Latin America,cattle-other_hp,abs_max,inf,kg/1000kg/day
2019,Latin America,cattle-other_lp,abs_max,inf,kg/1000kg/day
2019,AFR,cattle-other,abs_max,inf,kg/1000kg/day
2019,AFR,cattle-other_hp,abs_max,inf,kg/1000kg/day
2019,AFR,cattle-other_lp,abs_max,inf,kg/1000kg/day
2019,Middle East,cattle-other,abs_max,inf,kg/1000kg/day
2019,Middle East,cattle-other_hp,abs_max,inf,kg/1000kg/day
2019,Middle East,cattle-other_lp,abs_max,inf,kg/1000kg/day
2019,ASI,cattle-other,abs_max,inf,kg/1000kg/day
2019,ASI,cattle-other_hp,abs_max,inf,kg/1000kg/day
2019,ASI,cattle-other_lp,abs_max,inf,kg/1000kg/day
2019,Indian Subcontinent,cattle-other,abs_max,inf,kg/1000kg/day
2019,Indian Subcontinent,cattle-other_hp,abs_max,inf,kg/1000kg/day
2019,Indian Subcontinent,cattle-other_lp,abs_max,inf,kg/1000kg/day
2019,Western Europe,buffalo,abs_max,inf,kg/1000kg/day
2019,Eastern Europe,buffalo,abs_max,inf,kg/1000kg/day
2019,Latin America,buffalo,abs_max,inf,kg/1000kg/day
2019,Latin America,buffalo_hp,abs_max,inf,kg/1000kg/day
2019,Latin America,buffalo_lp,abs_max,inf,kg/1000kg/day
2019,AFR,buffalo,abs_max,inf,kg/1000kg/day
2019,AFR,buffalo_hp,abs_max,inf,kg/1000kg/day
2019,AFR,buffalo_lp,abs_max,inf,kg/1000kg/day
2019,Middle East,buffalo,abs_max,inf,kg/1000kg/day
2019,Middle East,buffalo_hp,abs_max,inf,kg/1000kg/day
2019,Middle East,buffalo_lp,abs_max,inf,kg/1000kg/day
2019,ASI,buffalo,abs_max,inf,kg/1000kg/day
2019,ASI,buffalo_hp,abs_max,inf,kg/1000kg/day
2019,ASI,buffalo_lp,abs_max,inf,kg/1000kg/day
2019,Indian Subcontinent,buffalo,abs_max,inf,kg/1000kg/day
2019,Indian Subcontinent,buffalo_hp,abs_max,inf,kg/1000kg/day
2019,Indian Subcontinent,buffalo_lp,abs_max,inf,kg/1000kg/day
2019,Northern America,swine-growing,abs_max,inf,kg/1000kg/day
2019,Western Europe,swine-growing,abs_max,inf,kg/1000kg/day
2019,Eastern Europe,swine-growing,abs_max,inf,kg/1000kg/day
2019,AUS,swine-growing,abs_max,inf,kg/1000kg/day
2019,Latin America,swine-growing,abs_max,inf,kg/1000kg/day
2019,Latin America,swine-growing_hp,abs_max,inf,kg/1000kg/day
2019,Latin America,swine-growing_lp,abs_max,inf,kg/1000kg/day
2019,AFR,swine-growing,abs_max,inf,kg/1000kg/day
2019,AFR,swine-growing_hp,abs_max,inf,kg/1000kg/day
2019,AFR,swine-growing_lp,abs_max,inf,kg/1000kg/day
2019,Middle East,swine-growing,abs_max,inf,kg/1000kg/day
2019,Middle East,swine-growing_hp,abs_max,inf,kg/1000kg/day
2019,Middle East,swine-growing_lp,abs_max,inf,kg/1000kg/day
2019,ASI,swine-growing,abs_max,inf,kg/1000kg/day
2019,ASI,swine-growing_hp,abs_max,inf,kg/1000kg/day
2019,ASI,swine-growing_lp,abs_max,inf,kg/1000kg/day
2019,Indian Subcontinent,swine-growing,abs_max,inf,kg/1000kg/day
2019,Indian Subcontinent,swine-growing_hp,abs_max,inf,kg/1000kg/day
2019,Indian Subcontinent,swine-growing_lp,abs_max,inf,kg/1000kg/day
2019,Northern America,swine-mature,abs_max,inf,kg/1000kg/day
2019,Western Europe,swine-mature,abs_max,inf,kg/1000kg/day
2019,Eastern Europe,swine-mature,abs_max,inf,kg/1000kg/day
2019,AUS,swine-mature,abs_max,inf,kg/1000kg/day
2019,Latin America,swine-mature,abs_max,inf,kg/1000kg/day
2019,Latin America,swine-mature_hp,abs_max,inf,kg/1000kg/day
2019,Latin America,swine-mature_lp,abs_max,inf,kg/1000kg/day
2019,AFR,swine-mature,abs_max,inf,kg/1000kg/day
2019,AFR,swine-mature_hp,abs_max,inf,kg/1000kg/day
2019,AFR,swine-mature_lp,abs_max,inf,kg/1000kg/day
2019,Middle East,swine-mature,abs_max,inf,kg/1000kg/day
2019,Middle East,swine-mature_hp,abs_max,inf,kg/1000kg/day
2019,Middle East,swine-mature_lp,abs_max,inf,kg/1000kg/day
2019,ASI,swine-mature,abs_max,inf,kg/1000kg/day
2019,ASI,swine-mature_hp,abs_max,inf,kg/1000kg/day
2019,ASI,swine-mature_lp,abs_max,inf,kg/1000kg/day
2019,Indian Subcontinent,swine-mature,abs_max,inf,kg/1000kg/day
2019,Indian Subcontinent,swine-mature_hp,abs_max,inf,kg/1000kg/day
2019,Indian Subcontinent,swine-mature_lp,abs_max,inf,kg/1000kg/day
2019,Northern America,swine-mature_breeding,abs_max,inf,kg/1000kg/day
2019,Western Europe,swine-mature_breeding,abs_max,inf,kg/1000kg/day
2019,Eastern Europe,swine-mature_breeding,abs_max,inf,kg/1000kg/day
2019,AUS,swine-mature_breeding,abs_max,inf,kg/1000kg/day
2019,Latin America,swine-mature_breeding,abs_max,inf,kg/1000kg/day
2019,Latin America,swine-mature_hp_breeding,abs_max,inf,kg/1000kg/day
2019,Latin America,swine-mature_lp_breeding,abs_max,inf,kg/1000kg/day
2019,AFR,swine-mature_breeding,abs_max,inf,kg/1000kg/day
2019,AFR,swine-mature_hp_breeding,abs_max,inf,kg/1000kg/day
2019,AFR,swine-mature_lp_breeding,abs_max,inf,kg/1000kg/day
2019,Middle East,swine-mature_breeding,abs_max,inf,kg/1000kg/day
2019,Middle East,swine-mature_hp_breeding,abs_max,inf,kg/1000kg/day
2019,Middle East,swine-mature_lp_breeding,abs_max,inf,kg/1000kg/day
2019,ASI,swine-mature_breeding,abs_max,inf,kg/1000kg/day
2019,ASI,swine-mature_hp_breeding,abs_max,inf,kg/1000kg/day
2019,ASI,swine-mature_lp_breeding,abs_max,inf,kg/1000kg/day
2019,Indian Subcontinent,swine-mature_breeding,abs_max,inf,kg/1000kg/day
2019,Indian Subcontinent,swine-mature_hp_breeding,abs_max,inf,kg/1000kg/day
2019,Indian Subcontinent,swine-mature_lp_breeding,abs_max,inf,kg/1000kg/day
2019,Northern America,poultry-chicken,abs_max,inf,kg/1000kg/day
2019,Western Europe,poultry-chicken,abs_max,inf,kg/1000kg/day
2019,Eastern Europe,poultry-chicken,abs_max,inf,kg/1000kg/day
2019,AUS,poultry-chicken,abs_max,inf,kg/1000kg/day
2019,Latin America,poultry-chicken,abs_max,inf,kg/1000kg/day
2019,Latin America,poultry-chicken_hp,abs_max,inf,kg/1000kg/day
2019,Latin America,poultry-chicken_lp,abs_max,inf,kg/1000kg/day
2019,AFR,poultry-chicken,abs_max,inf,kg/1000kg/day
2019,AFR,poultry-chicken_hp,abs_max,inf,kg/1000kg/day
2019,AFR,poultry-chicken_lp,abs_max,inf,kg/1000kg/day
2019,Middle East,poultry-chicken,abs_max,inf,kg/1000kg/day
2019,Middle East,poultry-chicken_hp,abs_max,inf,kg/1000kg/day
2019,Middle East,poultry-chicken_lp,abs_max,inf,kg/1000kg/day
2019,ASI,poultry-chicken,abs_max,inf,kg/1000kg/day
2019,ASI,poultry-chicken_hp,abs_max,inf,kg/1000kg/day
2019,ASI,poultry-chicken_lp,abs_max,inf,kg/1000kg/day
2019,Indian Subcontinent,poultry-chicken,abs_max,inf,kg/1000kg/day
2019,Indian Subcontinent,poultry-chicken_hp,abs_max,inf,kg/1000kg/day
2019,Indian Subcontinent,poultry-chicken_lp,abs_max,inf,kg/1000kg/day
2019,Northern America,poultry-chicken_hen,abs_max,inf,kg/1000kg/day
2019,Western Europe,poultry-chicken_hen,abs_max,inf,kg/1000kg/day
2019,Eastern Europe,poultry-chicken_hen,abs_max,inf,kg/1000kg/day
2019,AUS,poultry-chicken_hen,abs_max,inf,kg/1000kg/day
2019,Latin America,poultry-chicken_hen,abs_max,inf,kg/1000kg/day
2019,Latin America,poultry-chicken_hp_hen,abs_max,inf,kg/1000kg/day
2019,Latin America,poultry-chicken_lp_hen,abs_max,inf,kg/1000kg/day
2019,AFR,poultry-chicken_hen,abs_max,inf,kg/1000kg/day
2019,AFR,poultry-chicken_hp_hen,abs_max,inf,kg/1000kg/day
2019,AFR,poultry-chicken_lp_hen,abs_max,inf,kg/1000kg/day
2019,Middle East,poultry-chicken_hen,abs_max,inf,kg/1000kg/day
2019,Middle East,poultry-chicken_hp_hen,abs_max,inf,kg/1000kg/day
2019,Middle East,poultry-chicken_lp_hen,abs_max,inf,kg/1000kg/day
2019,ASI,poultry-chicken_hen,abs_max,inf,kg/1000kg/day
2019,ASI,poultry-chicken_hp_hen,abs_max,inf,kg/1000kg/day
2019,ASI,poultry-chicken_lp_hen,abs_max,inf,kg/1000kg/day
2019,Indian Subcontinent,poultry-chicken_hen,abs_max,inf,kg/1000kg/day
2019,Indian Subcontinent,poultry-chicken_hp_hen,abs_max,inf,kg/1000kg/day
2019,Indian Subcontinent,poultry-chicken_lp_hen,abs_max,inf,kg/1000kg/day
2019,Northern America,poultry-chicken_pullet,abs_max,inf,kg/1000kg/day
2019,Western Europe,poultry-chicken_pullet,abs_max,inf,kg/1000kg/day
2019,Eastern Europe,poultry-chicken_pullet,abs_max,inf,kg/1000kg/day
2019,AUS,poultry-chicken_pullet,abs_max,inf,kg/1000kg/day
2019,Latin America,poultry-chicken_pullet,abs_max,inf,kg/1000kg/day
2019,Latin America,poultry-chicken_hp_pullet,abs_max,inf,kg/1000kg/day
2019,Latin America,poultry-chicken_lp_pullet,abs_max,inf,kg/1000kg/day
2019,AFR,poultry-chicken_pullet,abs_max,inf,kg/1000kg/day
2019,AFR,poultry-chicken_hp_pullet,abs_max,inf,kg/1000kg/day
2019,AFR,poultry-chicken_lp_pullet,abs_max,inf,kg/1000kg/day
2019,Middle East,poultry-chicken_pullet,abs_max,inf,kg/1000kg/day
2019,Middle East,poultry-chicken_hp_pullet,abs_max,inf,kg/1000kg/day
2019,Middle East,poultry-chicken_lp_pullet,abs_max,inf,kg/1000kg/day
2019,ASI,poultry-chicken_pullet,abs_max,inf,kg/1000kg/day
2019,ASI,poultry-chicken_hp_pullet,abs_max,inf,kg/1000kg/day
2019,ASI,poultry-chicken_lp_pullet,abs_max,inf,kg/1000kg/day
2019,Indian Subcontinent,poultry-chicken_pullet,abs_max,inf,kg/1000kg/day
2019,Indian Subcontinent,poultry-chicken_hp_pullet,abs_max,inf,kg/1000kg/day
2019,Indian Subcontinent,poultry-chicken_lp_pullet,abs_max,inf,kg/1000kg/day
2019,Northern America,poultry-chicken_broiler,abs_max,inf,kg/1000kg/day
2019,Western Europe,poultry-chicken_broiler,abs_max,inf,kg/1000kg/day
2019,Eastern Europe,poultry-chicken_broiler,abs_max,inf,kg/1000kg/day
2019,AUS,poultry-chicken_broiler,abs_max,inf,kg/1000kg/day
2019,Latin America,poultry-chicken_broiler,abs_max,inf,kg/1000kg/day
2019,Latin America,poultry-chicken_hp_broiler,abs_max,inf,kg/1000kg/day
2019,Latin America,poultry-chicken_lp_broiler,abs_max,inf,kg/1000kg/day
2019,AFR,poultry-chicken_broiler,abs_max,inf,kg/1000kg/day
2019,AFR,poultry-chicken_hp_broiler,abs_max,inf,kg/1000kg/day
2019,AFR,poultry-chicken_lp_broiler,abs_max,inf,kg/1000kg/day
2019,Middle East,poultry-chicken_broiler,abs_max,inf,kg/1000kg/day
2019,Middle East,poultry-chicken_hp_broiler,abs_max,inf,kg/1000kg/day
2019,Middle East,poultry-chicken_lp_broiler,abs_max,inf,kg/1000kg/day
2019,ASI,poultry-chicken_broiler,abs_max,inf,kg/1000kg/day
2019,ASI,poultry-chicken_hp_broiler,abs_max,inf,kg/1000kg/day
2019,ASI,poultry-chicken_lp_broiler,abs_max,inf,kg/1000kg/day
2019,Indian Subcontinent,poultry-chicken_broiler,abs_max,inf,kg/1000kg/day
2019,Indian Subcontinent,poultry-chicken_hp_broiler,abs_max,inf,kg/1000kg/day
2019,Indian Subcontinent,poultry-chicken_lp_broiler,abs_max,inf,kg/1000kg/day
2019,Northern America,poultry-turkey,abs_max,inf,kg/1000kg/day
2019,Western Europe,poultry-turkey,abs_max,inf,kg/1000kg/day
2019,Eastern Europe,poultry-turkey,abs_max,inf,kg/1000kg/day
2019,AUS,poultry-turkey,abs_max,inf,kg/1000kg/day
2019,Latin America,poultry-turkey,abs_max,inf,kg/1000kg/day
2019,Latin America,poultry-turkey_hp,abs_max,inf,kg/1000kg/day
2019,Latin America,poultry-turkey_lp,abs_max,inf,kg/1000kg/day
2019,AFR,poultry-turkey,abs_max,inf,kg/1000kg/day
2019,AFR,poultry-turkey_hp,abs_max,inf,kg/1000kg/day
2019,AFR,poultry-turkey_lp,abs_max,inf,kg/1000kg/day
2019,Middle East,poultry-turkey,abs_max,inf,kg/1000kg/day
2019,Middle East,poultry-turkey_hp,abs_max,inf,kg/1000kg/day
2019,Middle East,poultry-turkey_lp,abs_max,inf,kg/1000kg/day
2019,ASI,poultry-turkey,abs_max,inf,kg/1000kg/day
2019,ASI,poultry-turkey_hp,abs_max,inf,kg/1000kg/day
2019,ASI,poultry-turkey_lp,abs_max,inf,kg/1000kg/day
2019,Indian Subcontinent,poultry-turkey,abs_max,inf,kg/1000kg/day
2019,Indian Subcontinent,poultry-turkey_hp,abs_max,inf,kg/1000kg/day
2019,Indian Subcontinent,poultry-turkey_lp,abs_max,inf,kg/1000kg/day
2019,Northern America,poultry-duck,abs_max,inf,kg/1000kg/day
2019,Western Europe,poultry-duck,abs_max,inf,kg/1000kg/day
2019,Eastern Europe,poultry-duck,abs_max,inf,kg/1000kg/day
2019,AUS,poultry-duck,abs_max,inf,kg/1000kg/day
2019,Latin America,poultry-duck,abs_max,inf,kg/1000kg/day
2019,AFR,poultry-duck,abs_max,inf,kg/1000kg/day
2019,Middle East,poultry-duck,abs_max,inf,kg/1000kg/day
2019,ASI,poultry-duck,abs_max,inf,kg/1000kg/day
2019,Indian Subcontinent,poultry-duck,abs_max,inf,kg/1000kg/day
2019,Northern America,poultry-duck_meat,abs_max,inf,kg/1000kg/day
2019,Western Europe,poultry-duck_meat,abs_max,inf,kg/1000kg/day
2019,Eastern Europe,poultry-duck_meat,abs_max,inf,kg/1000kg/day
2019,AUS,poultry-duck_meat,abs_max,inf,kg/1000kg/day
2019,Latin America,poultry-duck_meat,abs_max,inf,kg/1000kg/day
2019,AFR,poultry-duck_meat,abs_max,inf,kg/1000kg/day
2019,Middle East,poultry-duck_meat,abs_max,inf,kg/1000kg/day
2019,ASI,poultry-duck_meat,abs_max,inf,kg/1000kg/day
2019,Indian Subcontinent,poultry-duck_meat,abs_max,inf,kg/1000kg/day
2019,Northern America,poultry-duck_breeding,abs_max,inf,kg/1000kg/day
2019,Western Europe,poultry-duck_breeding,abs_max,inf,kg/1000kg/day
2019,Eastern Europe,poultry-duck_breeding,abs_max,inf,kg/1000kg/day
2019,AUS,poultry-duck_breeding,abs_max,inf,kg/1000kg/day
2019,Latin America,poultry-duck_breeding,abs_max,inf,kg/1000kg/day
2019,AFR,poultry-duck_breeding,abs_max,inf,kg/1000kg/day
2019,Middle East,poultry-duck_breeding,abs_max,inf,kg/1000kg/day
2019,ASI,poultry-duck_breeding,abs_max,inf,kg/1000kg/day
2019,Indian Subcontinent,poultry-duck_breeding,abs_max,inf,kg/1000kg/day
2019,Northern America,sheep-mature,abs_max,inf,kg/1000kg/day
2019,Western Europe,sheep-mature,abs_max,inf,kg/1000kg/day
2019,Eastern Europe,sheep-mature,abs_max,inf,kg/1000kg/day
2019,AUS,sheep-mature,abs_max,inf,kg/1000kg/day
2019,Latin America,sheep-mature,abs_max,inf,kg/1000kg/day
2019,AFR,sheep-mature,abs_max,inf,kg/1000kg/day
2019,Middle East,sheep-mature,abs_max,inf,kg/1000kg/day
2019,ASI,sheep-mature,abs_max,inf,kg/1000kg/day
2019,Indian Subcontinent,sheep-mature,abs_max,inf,kg/1000kg/day
2019,Northern America,sheep-growing,abs_max,inf,kg/1000kg/day
2019,Western Europe,sheep-growing,abs_max,inf,kg/1000kg/day
2019,Eastern Europe,sheep-growing,abs_max,inf,kg/1000kg/day
2019,AUS,sheep-growing,abs_max,inf,kg/1000kg/day
2019,Latin America,sheep-growing,abs_max,inf,kg/1000kg/day
2019,AFR,sheep-growing,abs_max,inf,kg/1000kg/day
2019,Middle East,sheep-growing,abs_max,inf,kg/1000kg/day
2019,ASI,sheep-growing,abs_max,inf,kg/1000kg/day
2019,Indian Subcontinent,sheep-growing,abs_max,inf,kg/1000kg/day
2019,Northern America,goat,abs_max,inf,kg/1000kg/day
2019,Western Europe,goat,abs_max,inf,kg/1000kg/day
2019,Eastern Europe,goat,abs_max,inf,kg/1000kg/day
2019,AUS,goat,abs_max,inf,kg/1000kg/day
2019,Latin America,goat,abs_max,inf,kg/1000kg/day
2019,AFR,goat,abs_max,inf,kg/1000kg/day
2019,Middle East,goat,abs_max,inf,kg/1000kg/day
2019,ASI,goat,abs_max,inf,kg/1000kg/day
2019,Indian Subcontinent,goat,abs_max,inf,kg/1000kg/day
2019,Northern America,horse,abs_max,inf,kg/1000kg/day
2019,Western Europe,horse,abs_max,inf,kg/1000kg/day
2019,Eastern Europe,horse,abs_max,inf,kg/1000kg/day
2019,AUS,horse,abs_max,inf,kg/1000kg/day
2019,Latin America,horse,abs_max,inf,kg/1000kg/day
2019,AFR,horse,abs_max,inf,kg/1000kg/day
2019,Middle East,horse,abs_max,inf,kg/1000kg/day
2019,ASI,horse,abs_max,inf,kg/1000kg/day
2019,Indian Subcontinent,horse,abs_max,inf,kg/1000kg/day
2019,Northern America,mule-ass,abs_max,inf,kg/1000kg/day
2019,Western Europe,mule-ass,abs_max,inf,kg/1000kg/day
2019,Eastern Europe,mule-ass,abs_max,inf,kg/1000kg/day
2019,AUS,mule-ass,abs_max,inf,kg/1000kg/day
2019,Latin America,mule-ass,abs_max,inf,kg/1000kg/day
2019,AFR,mule-ass,abs_max,inf,kg/1000kg/day
2019,Middle East,mule-ass,abs_max,inf,kg/1000kg/day
2019,ASI,mule-ass,abs_max,inf,kg/1000kg/day
2019,Indian Subcontinent,mule-ass,abs_max,inf,kg/1000kg/day
2019,Northern America,camel,abs_max,inf,kg/1000kg/day
2019,Western Europe,camel,abs_max,inf,kg/1000kg/day
2019,Eastern Europe,camel,abs_max,inf,kg/1000kg/day
2019,AUS,camel,abs_max,inf,kg/1000kg/day
2019,Latin America,camel,abs_max,inf,kg/1000kg/day
2019,AFR,camel,abs_max,inf,kg/1000kg/day
2019,Middle East,camel,abs_max,inf,kg/1000kg/day
2019,ASI,camel,abs_max,inf,kg/1000kg/day
2019,Indian Subcontinent,camel,abs_max,inf,kg/1000kg/day
2019,Northern America,ostrich,abs_max,inf,kg/1000kg/day
2019,Western Europe,ostrich,abs_max,inf,kg/1000kg/day
2019,Eastern Europe,ostrich,abs_max,inf,kg/1000kg/day
2019,AUS,ostrich,abs_max,inf,kg/1000kg/day
2019,Latin America,ostrich,abs_max,inf,kg/1000kg/day
2019,AFR,ostrich,abs_max,inf,kg/1000kg/day
2019,Middle East,ostrich,abs_max,inf,kg/1000kg/day
2019,ASI,ostrich,abs_max,inf,kg/1000kg/day
2019,Indian Subcontinent,ostrich,abs_max,inf,kg/1000kg/day
2019,Northern America,deer,abs_max,inf,kg/1000kg/day
2019,Western Europe,deer,abs_max,inf,kg/1000kg/day
2019,Eastern Europe,deer,abs_max,inf,kg/1000kg/day
2019,AUS,deer,abs_max,inf,kg/1000kg/day
2019,Latin America,deer,abs_max,inf,kg/1000kg/day
2019,AFR,deer,abs_max,inf,kg/1000kg/day
2019,Middle East,deer,abs_max,inf,kg/1000kg/day
2019,ASI,deer,abs_max,inf,kg/1000kg/day
2019,Indian Subcontinent,deer,abs_max,inf,kg/1000kg/day
2019,Northern America,reindeer,abs_max,inf,kg/1000kg/day
2019,Western Europe,reindeer,abs_max,inf,kg/1000kg/day
2019,Eastern Europe,reindeer,abs_max,inf,kg/1000kg/day
2019,AUS,reindeer,abs_max,inf,kg/1000kg/day
2019,Latin America,reindeer,abs_max,inf,kg/1000kg/day
2019,AFR,reindeer,abs_max,inf,kg/1000kg/day
2019,Middle East,reindeer,abs_max,inf,kg/1000kg/day
2019,ASI,reindeer,abs_max,inf,kg/1000kg/day
2019,Indian Subcontinent,reindeer,abs_max,inf,kg/1000kg/day