year,region,income_class,wwatertreat_category,property,value,unit
2006,NG,rural,septic-tank,def,0.02,m3/m3
2006,NG,rural,latrine,def,0.28,m3/m3
2006,NG,rural,other,def,0.04,m3/m3
2006,NG,rural,sewer,def,0.1,m3/m3
2006,NG,rural,none,def,0.56,m3/m3
2006,NG,urban-high,septic-tank,def,0.32,m3/m3
2006,NG,urban-high,latrine,def,0.31,m3/m3
2006,NG,urban-high,other,def,0.0,m3/m3
2006,NG,urban-high,sewer,def,0.37,m3/m3
2006,NG,urban-high,none,def,0.0,m3/m3
2006,NG,urban-low,septic-tank,def,0.17,m3/m3
2006,NG,urban-low,latrine,def,0.24,m3/m3
2006,NG,urban-low,other,def,0.05,m3/m3
2006,NG,urban-low,sewer,def,0.34,m3/m3
2006,NG,urban-low,none,def,0.2,m3/m3
2006,EG,rural,septic-tank,def,0.02,m3/m3
2006,EG,rural,latrine,def,0.28,m3/m3
2006,EG,rural,other,def,0.04,m3/m3
2006,EG,rural,sewer,def,0.1,m3/m3
2006,EG,rural,none,def,0.56,m3/m3
2006,EG,urban-high,septic-tank,def,0.15,m3/m3
2006,EG,urban-high,latrine,def,0.05,m3/m3
2006,EG,urban-high,other,def,0.1,m3/m3
2006,EG,urban-high,sewer,def,0.7,m3/m3
2006,EG,urban-high,none,def,0.0,m3/m3
2006,EG,urban-low,septic-tank,def,0.17,m3/m3
2006,EG,urban-low,latrine,def,0.24,m3/m3
2006,EG,urban-low,other,def,0.05,m3/m3
2006,EG,urban-low,sewer,def,0.34,m3/m3
2006,EG,urban-low,none,def,0.2,m3/m3
2006,KE,rural,septic-tank,def,0.02,m3/m3
2006,KE,rural,latrine,def,0.28,m3/m3
2006,KE,rural,other,def,0.04,m3/m3
2006,KE,rural,sewer,def,0.1,m3/m3
2006,KE,rural,none,def,0.56,m3/m3
2006,KE,urban-high,septic-tank,def,0.32,m3/m3
2006,KE,urban-high,latrine,def,0.31,m3/m3
2006,KE,urban-high,other,def,0.0,m3/m3
2006,KE,urban-high,sewer,def,0.37,m3/m3
2006,KE,urban-high,none,def,0.0,m3/m3
2006,KE,urban-low,septic-tank,def,0.17,m3/m3
2006,KE,urban-low,latrine,def,0.24,m3/m3
2006,KE,urban-low,other,def,0.05,m3/m3
2006,KE,urban-low,sewer,def,0.34,m3/m3
2006,KE,urban-low,none,def,0.2,m3/m3
2006,ZA,rural,septic-tank,def,0.1,m3/m3
2006,ZA,rural,latrine,def,0.28,m3/m3
2006,ZA,rural,other,def,0.04,m3/m3
2006,ZA,rural,sewer,def,0.1,m3/m3
2006,ZA,rural,none,def,0.48,m3/m3
2006,ZA,urban-high,septic-tank,def,0.15,m3/m3
2006,ZA,urban-high,latrine,def,0.15,m3/m3
2006,ZA,urban-high,other,def,0.0,m3/m3
2006,ZA,urban-high,sewer,def,0.7,m3/m3
2006,ZA,urban-high,none,def,0.0,m3/m3
2006,ZA,urban-low,septic-tank,def,0.17,m3/m3
2006,ZA,urban-low,latrine,def,0.24,m3/m3
2006,ZA,urban-low,other,def,0.05,m3/m3
2006,ZA,urban-low,sewer,def,0.34,m3/m3
2006,ZA,urban-low,none,def,0.2,m3/m3
2006,CN,rural,septic-tank,def,0.0,m3/m3
2006,CN,rural,latrine,def,0.47,m3/m3
2006,CN,rural,other,def,0.5,m3/m3
2006,CN,rural,sewer,def,0.0,m3/m3
2006,CN,rural,none,def,0.03,m3/m3
2006,CN,urban-high,septic-tank,def,0.18,m3/m3
2006,CN,urban-high,latrine,def,0.08,m3/m3
2006,CN,urban-high,other,def,0.07,m3/m3
2006,CN,urban-high,sewer,def,0.67,m3/m3
2006,CN,urban-high,none,def,0.0,m3/m3
2006,CN,urban-low,septic-tank,def,0.14,m3/m3
2006,CN,urban-low,latrine,def,0.1,m3/m3
2006,CN,urban-low,other,def,0.03,m3/m3
2006,CN,urban-low,sewer,def,0.68,m3/m3
2006,CN,urban-low,none,def,0.05,m3/m3
2006,IN,rural,septic-tank,def,0.0,m3/m3
2006,IN,rural,latrine,def,0.47,m3/m3
2006,IN,rural,other,def,0.1,m3/m3
2006,IN,rural,sewer,def,0.1,m3/m3
2006,IN,rural,none,def,0.33,m3/m3
2006,IN,urban-high,septic-tank,def,0.18,m3/m3
2006,IN,urban-high,latrine,def,0.08,m3/m3
2006,IN,urban-high,other,def,0.07,m3/m3
2006,IN,urban-high,sewer,def,0.67,m3/m3
2006,IN,urban-high,none,def,0.0,m3/m3
2006,IN,urban-low,septic-tank,def,0.14,m3/m3
2006,IN,urban-low,latrine,def,0.1,m3/m3
2006,IN,urban-low,other,def,0.03,m3/m3
2006,IN,urban-low,sewer,def,0.53,m3/m3
2006,IN,urban-low,none,def,0.2,m3/m3
2006,ID,rural,septic-tank,def,0.0,m3/m3
2006,ID,rural,latrine,def,0.47,m3/m3
2006,ID,rural,other,def,0.0,m3/m3
2006,ID,rural,sewer,def,0.1,m3/m3
2006,ID,rural,none,def,0.43,m3/m3
2006,ID,urban-high,septic-tank,def,0.18,m3/m3
2006,ID,urban-high,latrine,def,0.08,m3/m3
2006,ID,urban-high,other,def,0.0,m3/m3
2006,ID,urban-high,sewer,def,0.74,m3/m3
2006,ID,urban-high,none,def,0.0,m3/m3
2006,ID,urban-low,septic-tank,def,0.14,m3/m3
2006,ID,urban-low,latrine,def,0.1,m3/m3
2006,ID,urban-low,other,def,0.03,m3/m3
2006,ID,urban-low,sewer,def,0.53,m3/m3
2006,ID,urban-low,none,def,0.2,m3/m3
2006,PK,rural,septic-tank,def,0.0,m3/m3
2006,PK,rural,latrine,def,0.47,m3/m3
2006,PK,rural,other,def,0.0,m3/m3
2006,PK,rural,sewer,def,0.1,m3/m3
2006,PK,rural,none,def,0.43,m3/m3
2006,PK,urban-high,septic-tank,def,0.18,m3/m3
2006,PK,urban-high,latrine,def,0.08,m3/m3
2006,PK,urban-high,other,def,0.0,m3/m3
2006,PK,urban-high,sewer,def,0.74,m3/m3
2006,PK,urban-high,none,def,0.0,m3/m3
2006,PK,urban-low,septic-tank,def,0.14,m3/m3
2006,PK,urban-low,latrine,def,0.1,m3/m3
2006,PK,urban-low,other,def,0.03,m3/m3
2006,PK,urban-low,sewer,def,0.53,m3/m3
2006,PK,urban-low,none,def,0.2,m3/m3
2006,BD,rural,septic-tank,def,0.0,m3/m3
2006,BD,rural,latrine,def,0.47,m3/m3
2006,BD,rural,other,def,0.0,m3/m3
2006,BD,rural,sewer,def,0.1,m3/m3
2006,BD,rural,none,def,0.43,m3/m3
2006,BD,urban-high,septic-tank,def,0.18,m3/m3
2006,BD,urban-high,latrine,def,0.08,m3/m3
2006,BD,urban-high,other,def,0.0,m3/m3
2006,BD,urban-high,sewer,def,0.74,m3/m3
2006,BD,urban-high,none,def,0.0,m3/m3
2006,BD,urban-low,septic-tank,def,0.14,m3/m3
2006,BD,urban-low,latrine,def,0.1,m3/m3
2006,BD,urban-low,other,def,0.03,m3/m3
2006,BD,urban-low,sewer,def,0.53,m3/m3
2006,BD,urban-low,none,def,0.2,m3/m3
2006,JP,rural,septic-tank,def,0.2,m3/m3
2006,JP,rural,latrine,def,0.0,m3/m3
2006,JP,rural,other,def,0.5,m3/m3
2006,JP,rural,sewer,def,0.3,m3/m3
2006,JP,rural,none,def,0.0,m3/m3
2006,JP,urban-high,septic-tank,def,0.0,m3/m3
2006,JP,urban-high,latrine,def,0.0,m3/m3
2006,JP,urban-high,other,def,0.1,m3/m3
2006,JP,urban-high,sewer,def,0.9,m3/m3
2006,JP,urban-high,none,def,0.0,m3/m3
2006,JP,urban-low,septic-tank,def,0.1,m3/m3
2006,JP,urban-low,latrine,def,0.0,m3/m3
2006,JP,urban-low,other,def,0.0,m3/m3
2006,JP,urban-low,sewer,def,0.9,m3/m3
2006,JP,urban-low,none,def,0.0,m3/m3
2006,RU,rural,septic-tank,def,0.3,m3/m3
2006,RU,rural,latrine,def,0.1,m3/m3
2006,RU,rural,other,def,0.0,m3/m3
2006,RU,rural,sewer,def,0.6,m3/m3
2006,RU,rural,none,def,0.0,m3/m3
2006,RU,urban-high,septic-tank,def,0.1,m3/m3
2006,RU,urban-high,latrine,def,0.0,m3/m3
2006,RU,urban-high,other,def,0.0,m3/m3
2006,RU,urban-high,sewer,def,0.9,m3/m3
2006,RU,urban-high,none,def,0.0,m3/m3
2006,DE,rural,septic-tank,def,0.2,m3/m3
2006,DE,rural,latrine,def,0.0,m3/m3
2006,DE,rural,other,def,0.0,m3/m3
2006,DE,rural,sewer,def,0.8,m3/m3
2006,DE,rural,none,def,0.0,m3/m3
2006,DE,urban-high,septic-tank,def,0.05,m3/m3
2006,DE,urban-high,latrine,def,0.0,m3/m3
2006,DE,urban-high,other,def,0.0,m3/m3
2006,DE,urban-high,sewer,def,0.95,m3/m3
2006,DE,urban-high,none,def,0.0,m3/m3
2006,GB,rural,septic-tank,def,0.11,m3/m3
2006,GB,rural,latrine,def,0.0,m3/m3
2006,GB,rural,other,def,0.0,m3/m3
2006,GB,rural,sewer,def,0.89,m3/m3
2006,GB,rural,none,def,0.0,m3/m3
2006,GB,urban-high,septic-tank,def,0.0,m3/m3
2006,GB,urban-high,latrine,def,0.0,m3/m3
2006,GB,urban-high,other,def,0.0,m3/m3
2006,GB,urban-high,sewer,def,1.0,m3/m3
2006,GB,urban-high,none,def,0.0,m3/m3
2006,FR,rural,septic-tank,def,0.37,m3/m3
2006,FR,rural,latrine,def,0.0,m3/m3
2006,FR,rural,other,def,0.0,m3/m3
2006,FR,rural,sewer,def,0.63,m3/m3
2006,FR,rural,none,def,0.0,m3/m3
2006,FR,urban-high,septic-tank,def,0.0,m3/m3
2006,FR,urban-high,latrine,def,0.0,m3/m3
2006,FR,urban-high,other,def,0.0,m3/m3
2006,FR,urban-high,sewer,def,1.0,m3/m3
2006,FR,urban-high,none,def,0.0,m3/m3
2006,IT,rural,septic-tank,def,0.42,m3/m3
2006,IT,rural,latrine,def,0.0,m3/m3
2006,IT,rural,other,def,0.0,m3/m3
2006,IT,rural,sewer,def,0.58,m3/m3
2006,IT,rural,none,def,0.0,m3/m3
2006,IT,urban-high,septic-tank,def,0.04,m3/m3
2006,IT,urban-high,latrine,def,0.0,m3/m3
2006,IT,urban-high,other,def,0.0,m3/m3
2006,IT,urban-high,sewer,def,0.96,m3/m3
2006,IT,urban-high,none,def,0.0,m3/m3
2006,US,rural,septic-tank,def,0.9,m3/m3
2006,US,rural,latrine,def,0.02,m3/m3
2006,US,rural,other,def,0.0,m3/m3
2006,US,rural,sewer,def,0.08,m3/m3
2006,US,rural,none,def,0.0,m3/m3
2006,US,urban-high,septic-tank,def,0.05,m3/m3
2006,US,urban-high,latrine,def,0.0,m3/m3
2006,US,urban-high,other,def,0.0,m3/m3
2006,US,urban-high,sewer,def,0.95,m3/m3
2006,US,urban-high,none,def,0.0,m3/m3
2006,CA,rural,septic-tank,def,0.9,m3/m3
2006,CA,rural,latrine,def,0.02,m3/m3
2006,CA,rural,other,def,0.0,m3/m3
2006,CA,rural,sewer,def,0.08,m3/m3
2006,CA,rural,none,def,0.0,m3/m3
2006,CA,urban-high,septic-tank,def,0.05,m3/m3
2006,CA,urban-high,latrine,def,0.0,m3/m3
2006,CA,urban-high,other,def,0.0,m3/m3
2006,CA,urban-high,sewer,def,0.95,m3/m3
2006,CA,urban-high,none,def,0.0,m3/m3
2006,BR,rural,septic-tank,def,0.0,m3/m3
2006,BR,rural,latrine,def,0.45,m3/m3
2006,BR,rural,other,def,0.0,m3/m3
2006,BR,rural,sewer,def,0.1,m3/m3
2006,BR,rural,none,def,0.45,m3/m3
2006,BR,urban-high,septic-tank,def,0.0,m3/m3
2006,BR,urban-high,latrine,def,0.2,m3/m3
2006,BR,urban-high,other,def,0.0,m3/m3
2006,BR,urban-high,sewer,def,0.8,m3/m3
2006,BR,urban-high,none,def,0.0,m3/m3
2006,BR,urban-low,septic-tank,def,0.0,m3/m3
2006,BR,urban-low,latrine,def,0.4,m3/m3
2006,BR,urban-low,other,def,0.0,m3/m3
2006,BR,urban-low,sewer,def,0.4,m3/m3
2006,BR,urban-low,none,def,0.2,m3/m3
2006,MX,rural,septic-tank,def,0.0,m3/m3
2006,MX,rural,latrine,def,0.45,m3/m3
2006,MX,rural,other,def,0.0,m3/m3
2006,MX,rural,sewer,def,0.1,m3/m3
2006,MX,rural,none,def,0.45,m3/m3
2006,MX,urban-high,septic-tank,def,0.0,m3/m3
2006,MX,urban-high,latrine,def,0.2,m3/m3
2006,MX,urban-high,other,def,0.0,m3/m3
2006,MX,urban-high,sewer,def,0.8,m3/m3
2006,MX,urban-high,none,def,0.0,m3/m3
2006,MX,urban-low,septic-tank,def,0.0,m3/m3
2006,MX,urban-low,latrine,def,0.4,m3/m3
2006,MX,urban-low,other,def,0.0,m3/m3
2006,MX,urban-low,sewer,def,0.4,m3/m3
2006,MX,urban-low,none,def,0.2,m3/m3
2006,AU,rural,septic-tank,def,0.9,m3/m3
2006,AU,rural,latrine,def,0.02,m3/m3
2006,AU,rural,other,def,0.0,m3/m3
2006,AU,rural,sewer,def,0.08,m3/m3
2006,AU,rural,none,def,0.0,m3/m3
2006,AU,urban-high,septic-tank,def,0.05,m3/m3
2006,AU,urban-high,latrine,def,0.0,m3/m3
2006,AU,urban-high,other,def,0.0,m3/m3
2006,AU,urban-high,sewer,def,0.95,m3/m3
2006,AU,urban-high,none,def,0.0,m3/m3
2006,NZ,rural,septic-tank,def,0.9,m3/m3
2006,NZ,rural,latrine,def,0.02,m3/m3
2006,NZ,rural,other,def,0.0,m3/m3
2006,NZ,rural,sewer,def,0.08,m3/m3
2006,NZ,rural,none,def,0.0,m3/m3
2006,NZ,urban-high,septic-tank,def,0.05,m3/m3
2006,NZ,urban-high,latrine,def,0.0,m3/m3
2006,NZ,urban-high,other,def,0.0,m3/m3
2006,NZ,urban-high,sewer,def,0.95,m3/m3
2006,NZ,urban-high,none,def,0.0,m3/m3
2006,NG,rural,septic-tank,min,0.0194,m3/m3
2006,NG,rural,latrine,min,0.2716,m3/m3
2006,NG,rural,other,min,0.0388,m3/m3
2006,NG,rural,sewer,min,0.097,m3/m3
2006,NG,rural,none,min,0.5432,m3/m3
2006,NG,urban-high,septic-tank,min,0.3104,m3/m3
2006,NG,urban-high,latrine,min,0.3007,m3/m3
2006,NG,urban-high,other,min,0.0,m3/m3
2006,NG,urban-high,sewer,min,0.3589,m3/m3
2006,NG,urban-high,none,min,0.0,m3/m3
2006,NG,urban-low,septic-tank,min,0.1649,m3/m3
2006,NG,urban-low,latrine,min,0.2328,m3/m3
2006,NG,urban-low,other,min,0.0485,m3/m3
2006,NG,urban-low,sewer,min,0.3298,m3/m3
2006,NG,urban-low,none,min,0.194,m3/m3
2006,EG,rural,septic-tank,min,0.0194,m3/m3
2006,EG,rural,latrine,min,0.2716,m3/m3
2006,EG,rural,other,min,0.0388,m3/m3
2006,EG,rural,sewer,min,0.097,m3/m3
2006,EG,rural,none,min,0.5432,m3/m3
2006,EG,urban-high,septic-tank,min,0.1455,m3/m3
2006,EG,urban-high,latrine,min,0.0485,m3/m3
2006,EG,urban-high,other,min,0.097,m3/m3
2006,EG,urban-high,sewer,min,0.679,m3/m3
2006,EG,urban-high,none,min,0.0,m3/m3
2006,EG,urban-low,septic-tank,min,0.1649,m3/m3
2006,EG,urban-low,latrine,min,0.2328,m3/m3
2006,EG,urban-low,other,min,0.0485,m3/m3
2006,EG,urban-low,sewer,min,0.3298,m3/m3
2006,EG,urban-low,none,min,0.194,m3/m3
2006,KE,rural,septic-tank,min,0.0194,m3/m3
2006,KE,rural,latrine,min,0.2716,m3/m3
2006,KE,rural,other,min,0.0388,m3/m3
2006,KE,rural,sewer,min,0.097,m3/m3
2006,KE,rural,none,min,0.5432,m3/m3
2006,KE,urban-high,septic-tank,min,0.3104,m3/m3
2006,KE,urban-high,latrine,min,0.3007,m3/m3
2006,KE,urban-high,other,min,0.0,m3/m3
2006,KE,urban-high,sewer,min,0.3589,m3/m3
2006,KE,urban-high,none,min,0.0,m3/m3
2006,KE,urban-low,septic-tank,min,0.1649,m3/m3
2006,KE,urban-low,latrine,min,0.2328,m3/m3
2006,KE,urban-low,other,min,0.0485,m3/m3
2006,KE,urban-low,sewer,min,0.3298,m3/m3
2006,KE,urban-low,none,min,0.194,m3/m3
2006,ZA,rural,septic-tank,min,0.097,m3/m3
2006,ZA,rural,latrine,min,0.2716,m3/m3
2006,ZA,rural,other,min,0.0388,m3/m3
2006,ZA,rural,sewer,min,0.097,m3/m3
2006,ZA,rural,none,min,0.4656,m3/m3
2006,ZA,urban-high,septic-tank,min,0.1455,m3/m3
2006,ZA,urban-high,latrine,min,0.1455,m3/m3
2006,ZA,urban-high,other,min,0.0,m3/m3
2006,ZA,urban-high,sewer,min,0.679,m3/m3
2006,ZA,urban-high,none,min,0.0,m3/m3
2006,ZA,urban-low,septic-tank,min,0.1649,m3/m3
2006,ZA,urban-low,latrine,min,0.2328,m3/m3
2006,ZA,urban-low,other,min,0.0485,m3/m3
2006,ZA,urban-low,sewer,min,0.3298,m3/m3
2006,ZA,urban-low,none,min,0.194,m3/m3
2006,CN,rural,septic-tank,min,0.0,m3/m3
2006,CN,rural,latrine,min,0.4559,m3/m3
2006,CN,rural,other,min,0.485,m3/m3
2006,CN,rural,sewer,min,0.0,m3/m3
2006,CN,rural,none,min,0.0291,m3/m3
2006,CN,urban-high,septic-tank,min,0.1746,m3/m3
2006,CN,urban-high,latrine,min,0.0776,m3/m3
2006,CN,urban-high,other,min,0.0679,m3/m3
2006,CN,urban-high,sewer,min,0.6499,m3/m3
2006,CN,urban-high,none,min,0.0,m3/m3
2006,CN,urban-low,septic-tank,min,0.1358,m3/m3
2006,CN,urban-low,latrine,min,0.097,m3/m3
2006,CN,urban-low,other,min,0.0291,m3/m3
2006,CN,urban-low,sewer,min,0.6596,m3/m3
2006,CN,urban-low,none,min,0.0485,m3/m3
2006,IN,rural,septic-tank,min,0.0,m3/m3
2006,IN,rural,latrine,min,0.4559,m3/m3
2006,IN,rural,other,min,0.097,m3/m3
2006,IN,rural,sewer,min,0.097,m3/m3
2006,IN,rural,none,min,0.3201,m3/m3
2006,IN,urban-high,septic-tank,min,0.1746,m3/m3
2006,IN,urban-high,latrine,min,0.0776,m3/m3
2006,IN,urban-high,other,min,0.0679,m3/m3
2006,IN,urban-high,sewer,min,0.6499,m3/m3
2006,IN,urban-high,none,min,0.0,m3/m3
2006,IN,urban-low,septic-tank,min,0.1358,m3/m3
2006,IN,urban-low,latrine,min,0.097,m3/m3
2006,IN,urban-low,other,min,0.0291,m3/m3
2006,IN,urban-low,sewer,min,0.5141,m3/m3
2006,IN,urban-low,none,min,0.194,m3/m3
2006,ID,rural,septic-tank,min,0.0,m3/m3
2006,ID,rural,latrine,min,0.4559,m3/m3
2006,ID,rural,other,min,0.0,m3/m3
2006,ID,rural,sewer,min,0.097,m3/m3
2006,ID,rural,none,min,0.4171,m3/m3
2006,ID,urban-high,septic-tank,min,0.1746,m3/m3
2006,ID,urban-high,latrine,min,0.0776,m3/m3
2006,ID,urban-high,other,min,0.0,m3/m3
2006,ID,urban-high,sewer,min,0.7178,m3/m3
2006,ID,urban-high,none,min,0.0,m3/m3
2006,ID,urban-low,septic-tank,min,0.1358,m3/m3
2006,ID,urban-low,latrine,min,0.097,m3/m3
2006,ID,urban-low,other,min,0.0291,m3/m3
2006,ID,urban-low,sewer,min,0.5141,m3/m3
2006,ID,urban-low,none,min,0.194,m3/m3
2006,PK,rural,septic-tank,min,0.0,m3/m3
2006,PK,rural,latrine,min,0.4559,m3/m3
2006,PK,rural,other,min,0.0,m3/m3
2006,PK,rural,sewer,min,0.097,m3/m3
2006,PK,rural,none,min,0.4171,m3/m3
2006,PK,urban-high,septic-tank,min,0.1746,m3/m3
2006,PK,urban-high,latrine,min,0.0776,m3/m3
2006,PK,urban-high,other,min,0.0,m3/m3
2006,PK,urban-high,sewer,min,0.7178,m3/m3
2006,PK,urban-high,none,min,0.0,m3/m3
2006,PK,urban-low,septic-tank,min,0.1358,m3/m3
2006,PK,urban-low,latrine,min,0.097,m3/m3
2006,PK,urban-low,other,min,0.0291,m3/m3
2006,PK,urban-low,sewer,min,0.5141,m3/m3
2006,PK,urban-low,none,min,0.194,m3/m3
2006,BD,rural,septic-tank,min,0.0,m3/m3
2006,BD,rural,latrine,min,0.4559,m3/m3
2006,BD,rural,other,min,0.0,m3/m3
2006,BD,rural,sewer,min,0.097,m3/m3
2006,BD,rural,none,min,0.4171,m3/m3
2006,BD,urban-high,septic-tank,min,0.1746,m3/m3
2006,BD,urban-high,latrine,min,0.0776,m3/m3
2006,BD,urban-high,other,min,0.0,m3/m3
2006,BD,urban-high,sewer,min,0.7178,m3/m3
2006,BD,urban-high,none,min,0.0,m3/m3
2006,BD,urban-low,septic-tank,min,0.1358,m3/m3
2006,BD,urban-low,latrine,min,0.097,m3/m3
2006,BD,urban-low,other,min,0.0291,m3/m3
2006,BD,urban-low,sewer,min,0.5141,m3/m3
2006,BD,urban-low,none,min,0.194,m3/m3
2006,JP,rural,septic-tank,min,0.194,m3/m3
2006,JP,rural,latrine,min,0.0,m3/m3
2006,JP,rural,other,min,0.485,m3/m3
2006,JP,rural,sewer,min,0.291,m3/m3
2006,JP,rural,none,min,0.0,m3/m3
2006,JP,urban-high,septic-tank,min,0.0,m3/m3
2006,JP,urban-high,latrine,min,0.0,m3/m3
2006,JP,urban-high,other,min,0.097,m3/m3
2006,JP,urban-high,sewer,min,0.873,m3/m3
2006,JP,urban-high,none,min,0.0,m3/m3
2006,JP,urban-low,septic-tank,min,0.097,m3/m3
2006,JP,urban-low,latrine,min,0.0,m3/m3
2006,JP,urban-low,other,min,0.0,m3/m3
2006,JP,urban-low,sewer,min,0.873,m3/m3
2006,JP,urban-low,none,min,0.0,m3/m3
2006,RU,rural,septic-tank,min,0.291,m3/m3
2006,RU,rural,latrine,min,0.097,m3/m3
2006,RU,rural,other,min,0.0,m3/m3
2006,RU,rural,sewer,min,0.582,m3/m3
2006,RU,rural,none,min,0.0,m3/m3
2006,RU,urban-high,septic-tank,min,0.097,m3/m3
2006,RU,urban-high,latrine,min,0.0,m3/m3
2006,RU,urban-high,other,min,0.0,m3/m3
2006,RU,urban-high,sewer,min,0.873,m3/m3
2006,RU,urban-high,none,min,0.0,m3/m3
2006,DE,rural,septic-tank,min,0.194,m3/m3
2006,DE,rural,latrine,min,0.0,m3/m3
2006,DE,rural,other,min,0.0,m3/m3
2006,DE,rural,sewer,min,0.776,m3/m3
2006,DE,rural,none,min,0.0,m3/m3
2006,DE,urban-high,septic-tank,min,0.0485,m3/m3
2006,DE,urban-high,latrine,min,0.0,m3/m3
2006,DE,urban-high,other,min,0.0,m3/m3
2006,DE,urban-high,sewer,min,0.9215,m3/m3
2006,DE,urban-high,none,min,0.0,m3/m3
2006,GB,rural,septic-tank,min,0.1067,m3/m3
2006,GB,rural,latrine,min,0.0,m3/m3
2006,GB,rural,other,min,0.0,m3/m3
2006,GB,rural,sewer,min,0.8633,m3/m3
2006,GB,rural,none,min,0.0,m3/m3
2006,GB,urban-high,septic-tank,min,0.0,m3/m3
2006,GB,urban-high,latrine,min,0.0,m3/m3
2006,GB,urban-high,other,min,0.0,m3/m3
2006,GB,urban-high,sewer,min,0.97,m3/m3
2006,GB,urban-high,none,min,0.0,m3/m3
2006,FR,rural,septic-tank,min,0.3589,m3/m3
2006,FR,rural,latrine,min,0.0,m3/m3
2006,FR,rural,other,min,0.0,m3/m3
2006,FR,rural,sewer,min,0.6111,m3/m3
2006,FR,rural,none,min,0.0,m3/m3
2006,FR,urban-high,septic-tank,min,0.0,m3/m3
2006,FR,urban-high,latrine,min,0.0,m3/m3
2006,FR,urban-high,other,min,0.0,m3/m3
2006,FR,urban-high,sewer,min,0.97,m3/m3
2006,FR,urban-high,none,min,0.0,m3/m3
2006,IT,rural,septic-tank,min,0.4074,m3/m3
2006,IT,rural,latrine,min,0.0,m3/m3
2006,IT,rural,other,min,0.0,m3/m3
2006,IT,rural,sewer,min,0.5626,m3/m3
2006,IT,rural,none,min,0.0,m3/m3
2006,IT,urban-high,septic-tank,min,0.0388,m3/m3
2006,IT,urban-high,latrine,min,0.0,m3/m3
2006,IT,urban-high,other,min,0.0,m3/m3
2006,IT,urban-high,sewer,min,0.9312,m3/m3
2006,IT,urban-high,none,min,0.0,m3/m3
2006,US,rural,septic-tank,min,0.873,m3/m3
2006,US,rural,latrine,min,0.0194,m3/m3
2006,US,rural,other,min,0.0,m3/m3
2006,US,rural,sewer,min,0.0776,m3/m3
2006,US,rural,none,min,0.0,m3/m3
2006,US,urban-high,septic-tank,min,0.0485,m3/m3
2006,US,urban-high,latrine,min,0.0,m3/m3
2006,US,urban-high,other,min,0.0,m3/m3
2006,US,urban-high,sewer,min,0.9215,m3/m3
2006,US,urban-high,none,min,0.0,m3/m3
2006,CA,rural,septic-tank,min,0.873,m3/m3
2006,CA,rural,latrine,min,0.0194,m3/m3
2006,CA,rural,other,min,0.0,m3/m3
2006,CA,rural,sewer,min,0.0776,m3/m3
2006,CA,rural,none,min,0.0,m3/m3
2006,CA,urban-high,septic-tank,min,0.0485,m3/m3
2006,CA,urban-high,latrine,min,0.0,m3/m3
2006,CA,urban-high,other,min,0.0,m3/m3
2006,CA,urban-high,sewer,min,0.9215,m3/m3
2006,CA,urban-high,none,min,0.0,m3/m3
2006,BR,rural,septic-tank,min,0.0,m3/m3
2006,BR,rural,latrine,min,0.4365,m3/m3
2006,BR,rural,other,min,0.0,m3/m3
2006,BR,rural,sewer,min,0.097,m3/m3
2006,BR,rural,none,min,0.4365,m3/m3
2006,BR,urban-high,septic-tank,min,0.0,m3/m3
2006,BR,urban-high,latrine,min,0.194,m3/m3
2006,BR,urban-high,other,min,0.0,m3/m3
2006,BR,urban-high,sewer,min,0.776,m3/m3
2006,BR,urban-high,none,min,0.0,m3/m3
2006,BR,urban-low,septic-tank,min,0.0,m3/m3
2006,BR,urban-low,latrine,min,0.388,m3/m3
2006,BR,urban-low,other,min,0.0,m3/m3
2006,BR,urban-low,sewer,min,0.388,m3/m3
2006,BR,urban-low,none,min,0.194,m3/m3
2006,MX,rural,septic-tank,min,0.0,m3/m3
2006,MX,rural,latrine,min,0.4365,m3/m3
2006,MX,rural,other,min,0.0,m3/m3
2006,MX,rural,sewer,min,0.097,m3/m3
2006,MX,rural,none,min,0.4365,m3/m3
2006,MX,urban-high,septic-tank,min,0.0,m3/m3
2006,MX,urban-high,latrine,min,0.194,m3/m3
2006,MX,urban-high,other,min,0.0,m3/m3
2006,MX,urban-high,sewer,min,0.776,m3/m3
2006,MX,urban-high,none,min,0.0,m3/m3
2006,MX,urban-low,septic-tank,min,0.0,m3/m3
2006,MX,urban-low,latrine,min,0.388,m3/m3
2006,MX,urban-low,other,min,0.0,m3/m3
2006,MX,urban-low,sewer,min,0.388,m3/m3
2006,MX,urban-low,none,min,0.194,m3/m3
2006,AU,rural,septic-tank,min,0.873,m3/m3
2006,AU,rural,latrine,min,0.0194,m3/m3
2006,AU,rural,other,min,0.0,m3/m3
2006,AU,rural,sewer,min,0.0776,m3/m3
2006,AU,rural,none,min,0.0,m3/m3
2006,AU,urban-high,septic-tank,min,0.0485,m3/m3
2006,AU,urban-high,latrine,min,0.0,m3/m3
2006,AU,urban-high,other,min,0.0,m3/m3
2006,AU,urban-high,sewer,min,0.9215,m3/m3
2006,AU,urban-high,none,min,0.0,m3/m3
2006,NZ,rural,septic-tank,min,0.873,m3/m3
2006,NZ,rural,latrine,min,0.0194,m3/m3
2006,NZ,rural,other,min,0.0,m3/m3
2006,NZ,rural,sewer,min,0.0776,m3/m3
2006,NZ,rural,none,min,0.0,m3/m3
2006,NZ,urban-high,septic-tank,min,0.0485,m3/m3
2006,NZ,urban-high,latrine,min,0.0,m3/m3
2006,NZ,urban-high,other,min,0.0,m3/m3
2006,NZ,urban-high,sewer,min,0.9215,m3/m3
2006,NZ,urban-high,none,min,0.0,m3/m3
2006,NG,rural,septic-tank,max,0.0206,m3/m3
2006,NG,rural,latrine,max,0.2884,m3/m3
2006,NG,rural,other,max,0.0412,m3/m3
2006,NG,rural,sewer,max,0.103,m3/m3
2006,NG,rural,none,max,0.5768,m3/m3
2006,NG,urban-high,septic-tank,max,0.3296,m3/m3
2006,NG,urban-high,latrine,max,0.3193,m3/m3
2006,NG,urban-high,other,max,0.0,m3/m3
2006,NG,urban-high,sewer,max,0.3811,m3/m3
2006,NG,urban-high,none,max,0.0,m3/m3
2006,NG,urban-low,septic-tank,max,0.1751,m3/m3
2006,NG,urban-low,latrine,max,0.2472,m3/m3
2006,NG,urban-low,other,max,0.0515,m3/m3
2006,NG,urban-low,sewer,max,0.3502,m3/m3
2006,NG,urban-low,none,max,0.206,m3/m3
2006,EG,rural,septic-tank,max,0.0206,m3/m3
2006,EG,rural,latrine,max,0.2884,m3/m3
2006,EG,rural,other,max,0.0412,m3/m3
2006,EG,rural,sewer,max,0.103,m3/m3
2006,EG,rural,none,max,0.5768,m3/m3
2006,EG,urban-high,septic-tank,max,0.1545,m3/m3
2006,EG,urban-high,latrine,max,0.0515,m3/m3
2006,EG,urban-high,other,max,0.103,m3/m3
2006,EG,urban-high,sewer,max,0.721,m3/m3
2006,EG,urban-high,none,max,0.0,m3/m3
2006,EG,urban-low,septic-tank,max,0.1751,m3/m3
2006,EG,urban-low,latrine,max,0.2472,m3/m3
2006,EG,urban-low,other,max,0.0515,m3/m3
2006,EG,urban-low,sewer,max,0.3502,m3/m3
2006,EG,urban-low,none,max,0.206,m3/m3
2006,KE,rural,septic-tank,max,0.0206,m3/m3
2006,KE,rural,latrine,max,0.2884,m3/m3
2006,KE,rural,other,max,0.0412,m3/m3
2006,KE,rural,sewer,max,0.103,m3/m3
2006,KE,rural,none,max,0.5768,m3/m3
2006,KE,urban-high,septic-tank,max,0.3296,m3/m3
2006,KE,urban-high,latrine,max,0.3193,m3/m3
2006,KE,urban-high,other,max,0.0,m3/m3
2006,KE,urban-high,sewer,max,0.3811,m3/m3
2006,KE,urban-high,none,max,0.0,m3/m3
2006,KE,urban-low,septic-tank,max,0.1751,m3/m3
2006,KE,urban-low,latrine,max,0.2472,m3/m3
2006,KE,urban-low,other,max,0.0515,m3/m3
2006,KE,urban-low,sewer,max,0.3502,m3/m3
2006,KE,urban-low,none,max,0.206,m3/m3
2006,ZA,rural,septic-tank,max,0.103,m3/m3
2006,ZA,rural,latrine,max,0.2884,m3/m3
2006,ZA,rural,other,max,0.0412,m3/m3
2006,ZA,rural,sewer,max,0.103,m3/m3
2006,ZA,rural,none,max,0.4944,m3/m3
2006,ZA,urban-high,septic-tank,max,0.1545,m3/m3
2006,ZA,urban-high,latrine,max,0.1545,m3/m3
2006,ZA,urban-high,other,max,0.0,m3/m3
2006,ZA,urban-high,sewer,max,0.721,m3/m3
2006,ZA,urban-high,none,max,0.0,m3/m3
2006,ZA,urban-low,septic-tank,max,0.1751,m3/m3
2006,ZA,urban-low,latrine,max,0.2472,m3/m3
2006,ZA,urban-low,other,max,0.0515,m3/m3
2006,ZA,urban-low,sewer,max,0.3502,m3/m3
2006,ZA,urban-low,none,max,0.206,m3/m3
2006,CN,rural,septic-tank,max,0.0,m3/m3
2006,CN,rural,latrine,max,0.4841,m3/m3
2006,CN,rural,other,max,0.515,m3/m3
2006,CN,rural,sewer,max,0.0,m3/m3
2006,CN,rural,none,max,0.0309,m3/m3
2006,CN,urban-high,septic-tank,max,0.1854,m3/m3
2006,CN,urban-high,latrine,max,0.0824,m3/m3
2006,CN,urban-high,other,max,0.0721,m3/m3
2006,CN,urban-high,sewer,max,0.6901,m3/m3
2006,CN,urban-high,none,max,0.0,m3/m3
2006,CN,urban-low,septic-tank,max,0.1442,m3/m3
2006,CN,urban-low,latrine,max,0.103,m3/m3
2006,CN,urban-low,other,max,0.0309,m3/m3
2006,CN,urban-low,sewer,max,0.7004,m3/m3
2006,CN,urban-low,none,max,0.0515,m3/m3
2006,IN,rural,septic-tank,max,0.0,m3/m3
2006,IN,rural,latrine,max,0.4841,m3/m3
2006,IN,rural,other,max,0.103,m3/m3
2006,IN,rural,sewer,max,0.103,m3/m3
2006,IN,rural,none,max,0.3399,m3/m3
2006,IN,urban-high,septic-tank,max,0.1854,m3/m3
2006,IN,urban-high,latrine,max,0.0824,m3/m3
2006,IN,urban-high,other,max,0.0721,m3/m3
2006,IN,urban-high,sewer,max,0.6901,m3/m3
2006,IN,urban-high,none,max,0.0,m3/m3
2006,IN,urban-low,septic-tank,max,0.1442,m3/m3
2006,IN,urban-low,latrine,max,0.103,m3/m3
2006,IN,urban-low,other,max,0.0309,m3/m3
2006,IN,urban-low,sewer,max,0.5459,m3/m3
2006,IN,urban-low,none,max,0.206,m3/m3
2006,ID,rural,septic-tank,max,0.0,m3/m3
2006,ID,rural,latrine,max,0.4841,m3/m3
2006,ID,rural,other,max,0.0,m3/m3
2006,ID,rural,sewer,max,0.103,m3/m3
2006,ID,rural,none,max,0.4429,m3/m3
2006,ID,urban-high,septic-tank,max,0.1854,m3/m3
2006,ID,urban-high,latrine,max,0.0824,m3/m3
2006,ID,urban-high,other,max,0.0,m3/m3
2006,ID,urban-high,sewer,max,0.7622,m3/m3
2006,ID,urban-high,none,max,0.0,m3/m3
2006,ID,urban-low,septic-tank,max,0.1442,m3/m3
2006,ID,urban-low,latrine,max,0.103,m3/m3
2006,ID,urban-low,other,max,0.0309,m3/m3
2006,ID,urban-low,sewer,max,0.5459,m3/m3
2006,ID,urban-low,none,max,0.206,m3/m3
2006,PK,rural,septic-tank,max,0.0,m3/m3
2006,PK,rural,latrine,max,0.4841,m3/m3
2006,PK,rural,other,max,0.0,m3/m3
2006,PK,rural,sewer,max,0.103,m3/m3
2006,PK,rural,none,max,0.4429,m3/m3
2006,PK,urban-high,septic-tank,max,0.1854,m3/m3
2006,PK,urban-high,latrine,max,0.0824,m3/m3
2006,PK,urban-high,other,max,0.0,m3/m3
2006,PK,urban-high,sewer,max,0.7622,m3/m3
2006,PK,urban-high,none,max,0.0,m3/m3
2006,PK,urban-low,septic-tank,max,0.1442,m3/m3
2006,PK,urban-low,latrine,max,0.103,m3/m3
2006,PK,urban-low,other,max,0.0309,m3/m3
2006,PK,urban-low,sewer,max,0.5459,m3/m3
2006,PK,urban-low,none,max,0.206,m3/m3
2006,BD,rural,septic-tank,max,0.0,m3/m3
2006,BD,rural,latrine,max,0.4841,m3/m3
2006,BD,rural,other,max,0.0,m3/m3
2006,BD,rural,sewer,max,0.103,m3/m3
2006,BD,rural,none,max,0.4429,m3/m3
2006,BD,urban-high,septic-tank,max,0.1854,m3/m3
2006,BD,urban-high,latrine,max,0.0824,m3/m3
2006,BD,urban-high,other,max,0.0,m3/m3
2006,BD,urban-high,sewer,max,0.7622,m3/m3
2006,BD,urban-high,none,max,0.0,m3/m3
2006,BD,urban-low,septic-tank,max,0.1442,m3/m3
2006,BD,urban-low,latrine,max,0.103,m3/m3
2006,BD,urban-low,other,max,0.0309,m3/m3
2006,BD,urban-low,sewer,max,0.5459,m3/m3
2006,BD,urban-low,none,max,0.206,m3/m3
2006,JP,rural,septic-tank,max,0.206,m3/m3
2006,JP,rural,latrine,max,0.0,m3/m3
2006,JP,rural,other,max,0.515,m3/m3
2006,JP,rural,sewer,max,0.309,m3/m3
2006,JP,rural,none,max,0.0,m3/m3
2006,JP,urban-high,septic-tank,max,0.0,m3/m3
2006,JP,urban-high,latrine,max,0.0,m3/m3
2006,JP,urban-high,other,max,0.103,m3/m3
2006,JP,urban-high,sewer,max,0.927,m3/m3
2006,JP,urban-high,none,max,0.0,m3/m3
2006,JP,urban-low,septic-tank,max,0.103,m3/m3
2006,JP,urban-low,latrine,max,0.0,m3/m3
2006,JP,urban-low,other,max,0.0,m3/m3
2006,JP,urban-low,sewer,max,0.927,m3/m3
2006,JP,urban-low,none,max,0.0,m3/m3
2006,RU,rural,septic-tank,max,0.309,m3/m3
2006,RU,rural,latrine,max,0.103,m3/m3
2006,RU,rural,other,max,0.0,m3/m3
2006,RU,rural,sewer,max,0.618,m3/m3
2006,RU,rural,none,max,0.0,m3/m3
2006,RU,urban-high,septic-tank,max,0.103,m3/m3
2006,RU,urban-high,latrine,max,0.0,m3/m3
2006,RU,urban-high,other,max,0.0,m3/m3
2006,RU,urban-high,sewer,max,0.927,m3/m3
2006,RU,urban-high,none,max,0.0,m3/m3
2006,DE,rural,septic-tank,max,0.206,m3/m3
2006,DE,rural,latrine,max,0.0,m3/m3
2006,DE,rural,other,max,0.0,m3/m3
2006,DE,rural,sewer,max,0.824,m3/m3
2006,DE,rural,none,max,0.0,m3/m3
2006,DE,urban-high,septic-tank,max,0.0515,m3/m3
2006,DE,urban-high,latrine,max,0.0,m3/m3
2006,DE,urban-high,other,max,0.0,m3/m3
2006,DE,urban-high,sewer,max,0.9785,m3/m3
2006,DE,urban-high,none,max,0.0,m3/m3
2006,GB,rural,septic-tank,max,0.1133,m3/m3
2006,GB,rural,latrine,max,0.0,m3/m3
2006,GB,rural,other,max,0.0,m3/m3
2006,GB,rural,sewer,max,0.9167,m3/m3
2006,GB,rural,none,max,0.0,m3/m3
2006,GB,urban-high,septic-tank,max,0.0,m3/m3
2006,GB,urban-high,latrine,max,0.0,m3/m3
2006,GB,urban-high,other,max,0.0,m3/m3
2006,GB,urban-high,sewer,max,1.03,m3/m3
2006,GB,urban-high,none,max,0.0,m3/m3
2006,FR,rural,septic-tank,max,0.3811,m3/m3
2006,FR,rural,latrine,max,0.0,m3/m3
2006,FR,rural,other,max,0.0,m3/m3
2006,FR,rural,sewer,max,0.6489,m3/m3
2006,FR,rural,none,max,0.0,m3/m3
2006,FR,urban-high,septic-tank,max,0.0,m3/m3
2006,FR,urban-high,latrine,max,0.0,m3/m3
2006,FR,urban-high,other,max,0.0,m3/m3
2006,FR,urban-high,sewer,max,1.03,m3/m3
2006,FR,urban-high,none,max,0.0,m3/m3
2006,IT,rural,septic-tank,max,0.4326,m3/m3
2006,IT,rural,latrine,max,0.0,m3/m3
2006,IT,rural,other,max,0.0,m3/m3
2006,IT,rural,sewer,max,0.5974,m3/m3
2006,IT,rural,none,max,0.0,m3/m3
2006,IT,urban-high,septic-tank,max,0.0412,m3/m3
2006,IT,urban-high,latrine,max,0.0,m3/m3
2006,IT,urban-high,other,max,0.0,m3/m3
2006,IT,urban-high,sewer,max,0.9888,m3/m3
2006,IT,urban-high,none,max,0.0,m3/m3
2006,US,rural,septic-tank,max,0.927,m3/m3
2006,US,rural,latrine,max,0.0206,m3/m3
2006,US,rural,other,max,0.0,m3/m3
2006,US,rural,sewer,max,0.0824,m3/m3
2006,US,rural,none,max,0.0,m3/m3
2006,US,urban-high,septic-tank,max,0.0515,m3/m3
2006,US,urban-high,latrine,max,0.0,m3/m3
2006,US,urban-high,other,max,0.0,m3/m3
2006,US,urban-high,sewer,max,0.9785,m3/m3
2006,US,urban-high,none,max,0.0,m3/m3
2006,CA,rural,septic-tank,max,0.927,m3/m3
2006,CA,rural,latrine,max,0.0206,m3/m3
2006,CA,rural,other,max,0.0,m3/m3
2006,CA,rural,sewer,max,0.0824,m3/m3
2006,CA,rural,none,max,0.0,m3/m3
2006,CA,urban-high,septic-tank,max,0.0515,m3/m3
2006,CA,urban-high,latrine,max,0.0,m3/m3
2006,CA,urban-high,other,max,0.0,m3/m3
2006,CA,urban-high,sewer,max,0.9785,m3/m3
2006,CA,urban-high,none,max,0.0,m3/m3
2006,BR,rural,septic-tank,max,0.0,m3/m3
2006,BR,rural,latrine,max,0.4635,m3/m3
2006,BR,rural,other,max,0.0,m3/m3
2006,BR,rural,sewer,max,0.103,m3/m3
2006,BR,rural,none,max,0.4635,m3/m3
2006,BR,urban-high,septic-tank,max,0.0,m3/m3
2006,BR,urban-high,latrine,max,0.206,m3/m3
2006,BR,urban-high,other,max,0.0,m3/m3
2006,BR,urban-high,sewer,max,0.824,m3/m3
2006,BR,urban-high,none,max,0.0,m3/m3
2006,BR,urban-low,septic-tank,max,0.0,m3/m3
2006,BR,urban-low,latrine,max,0.412,m3/m3
2006,BR,urban-low,other,max,0.0,m3/m3
2006,BR,urban-low,sewer,max,0.412,m3/m3
2006,BR,urban-low,none,max,0.206,m3/m3
2006,MX,rural,septic-tank,max,0.0,m3/m3
2006,MX,rural,latrine,max,0.4635,m3/m3
2006,MX,rural,other,max,0.0,m3/m3
2006,MX,rural,sewer,max,0.103,m3/m3
2006,MX,rural,none,max,0.4635,m3/m3
2006,MX,urban-high,septic-tank,max,0.0,m3/m3
2006,MX,urban-high,latrine,max,0.206,m3/m3
2006,MX,urban-high,other,max,0.0,m3/m3
2006,MX,urban-high,sewer,max,0.824,m3/m3
2006,MX,urban-high,none,max,0.0,m3/m3
2006,MX,urban-low,septic-tank,max,0.0,m3/m3
2006,MX,urban-low,latrine,max,0.412,m3/m3
2006,MX,urban-low,other,max,0.0,m3/m3
2006,MX,urban-low,sewer,max,0.412,m3/m3
2006,MX,urban-low,none,max,0.206,m3/m3
2006,AU,rural,septic-tank,max,0.927,m3/m3
2006,AU,rural,latrine,max,0.0206,m3/m3
2006,AU,rural,other,max,0.0,m3/m3
2006,AU,rural,sewer,max,0.0824,m3/m3
2006,AU,rural,none,max,0.0,m3/m3
2006,AU,urban-high,septic-tank,max,0.0515,m3/m3
2006,AU,urban-high,latrine,max,0.0,m3/m3
2006,AU,urban-high,other,max,0.0,m3/m3
2006,AU,urban-high,sewer,max,0.9785,m3/m3
2006,AU,urban-high,none,max,0.0,m3/m3
2006,NZ,rural,septic-tank,max,0.927,m3/m3
2006,NZ,rural,latrine,max,0.0206,m3/m3
2006,NZ,rural,other,max,0.0,m3/m3
2006,NZ,rural,sewer,max,0.0824,m3/m3
2006,NZ,rural,none,max,0.0,m3/m3
2006,NZ,urban-high,septic-tank,max,0.0515,m3/m3
2006,NZ,urban-high,latrine,max,0.0,m3/m3
2006,NZ,urban-high,other,max,0.0,m3/m3
2006,NZ,urban-high,sewer,max,0.9785,m3/m3
2006,NZ,urban-high,none,max,0.0,m3/m3
2006,NG,rural,septic-tank,abs_min,0.0,m3/m3
2006,NG,rural,latrine,abs_min,0.0,m3/m3
2006,NG,rural,other,abs_min,0.0,m3/m3
2006,NG,rural,sewer,abs_min,0.0,m3/m3
2006,NG,rural,none,abs_min,0.0,m3/m3
2006,NG,urban-high,septic-tank,abs_min,0.0,m3/m3
2006,NG,urban-high,latrine,abs_min,0.0,m3/m3
2006,NG,urban-high,other,abs_min,0.0,m3/m3
2006,NG,urban-high,sewer,abs_min,0.0,m3/m3
2006,NG,urban-high,none,abs_min,0.0,m3/m3
2006,NG,urban-low,septic-tank,abs_min,0.0,m3/m3
2006,NG,urban-low,latrine,abs_min,0.0,m3/m3
2006,NG,urban-low,other,abs_min,0.0,m3/m3
2006,NG,urban-low,sewer,abs_min,0.0,m3/m3
2006,NG,urban-low,none,abs_min,0.0,m3/m3
2006,EG,rural,septic-tank,abs_min,0.0,m3/m3
2006,EG,rural,latrine,abs_min,0.0,m3/m3
2006,EG,rural,other,abs_min,0.0,m3/m3
2006,EG,rural,sewer,abs_min,0.0,m3/m3
2006,EG,rural,none,abs_min,0.0,m3/m3
2006,EG,urban-high,septic-tank,abs_min,0.0,m3/m3
2006,EG,urban-high,latrine,abs_min,0.0,m3/m3
2006,EG,urban-high,other,abs_min,0.0,m3/m3
2006,EG,urban-high,sewer,abs_min,0.0,m3/m3
2006,EG,urban-high,none,abs_min,0.0,m3/m3
2006,EG,urban-low,septic-tank,abs_min,0.0,m3/m3
2006,EG,urban-low,latrine,abs_min,0.0,m3/m3
2006,EG,urban-low,other,abs_min,0.0,m3/m3
2006,EG,urban-low,sewer,abs_min,0.0,m3/m3
2006,EG,urban-low,none,abs_min,0.0,m3/m3
2006,KE,rural,septic-tank,abs_min,0.0,m3/m3
2006,KE,rural,latrine,abs_min,0.0,m3/m3
2006,KE,rural,other,abs_min,0.0,m3/m3
2006,KE,rural,sewer,abs_min,0.0,m3/m3
2006,KE,rural,none,abs_min,0.0,m3/m3
2006,KE,urban-high,septic-tank,abs_min,0.0,m3/m3
2006,KE,urban-high,latrine,abs_min,0.0,m3/m3
2006,KE,urban-high,other,abs_min,0.0,m3/m3
2006,KE,urban-high,sewer,abs_min,0.0,m3/m3
2006,KE,urban-high,none,abs_min,0.0,m3/m3
2006,KE,urban-low,septic-tank,abs_min,0.0,m3/m3
2006,KE,urban-low,latrine,abs_min,0.0,m3/m3
2006,KE,urban-low,other,abs_min,0.0,m3/m3
2006,KE,urban-low,sewer,abs_min,0.0,m3/m3
2006,KE,urban-low,none,abs_min,0.0,m3/m3
2006,ZA,rural,septic-tank,abs_min,0.0,m3/m3
2006,ZA,rural,latrine,abs_min,0.0,m3/m3
2006,ZA,rural,other,abs_min,0.0,m3/m3
2006,ZA,rural,sewer,abs_min,0.0,m3/m3
2006,ZA,rural,none,abs_min,0.0,m3/m3
2006,ZA,urban-high,septic-tank,abs_min,0.0,m3/m3
2006,ZA,urban-high,latrine,abs_min,0.0,m3/m3
2006,ZA,urban-high,other,abs_min,0.0,m3/m3
2006,ZA,urban-high,sewer,abs_min,0.0,m3/m3
2006,ZA,urban-high,none,abs_min,0.0,m3/m3
2006,ZA,urban-low,septic-tank,abs_min,0.0,m3/m3
2006,ZA,urban-low,latrine,abs_min,0.0,m3/m3
2006,ZA,urban-low,other,abs_min,0.0,m3/m3
2006,ZA,urban-low,sewer,abs_min,0.0,m3/m3
2006,ZA,urban-low,none,abs_min,0.0,m3/m3
2006,CN,rural,septic-tank,abs_min,0.0,m3/m3
2006,CN,rural,latrine,abs_min,0.0,m3/m3
2006,CN,rural,other,abs_min,0.0,m3/m3
2006,CN,rural,sewer,abs_min,0.0,m3/m3
2006,CN,rural,none,abs_min,0.0,m3/m3
2006,CN,urban-high,septic-tank,abs_min,0.0,m3/m3
2006,CN,urban-high,latrine,abs_min,0.0,m3/m3
2006,CN,urban-high,other,abs_min,0.0,m3/m3
2006,CN,urban-high,sewer,abs_min,0.0,m3/m3
2006,CN,urban-high,none,abs_min,0.0,m3/m3
2006,CN,urban-low,septic-tank,abs_min,0.0,m3/m3
2006,CN,urban-low,latrine,abs_min,0.0,m3/m3
2006,CN,urban-low,other,abs_min,0.0,m3/m3
2006,CN,urban-low,sewer,abs_min,0.0,m3/m3
2006,CN,urban-low,none,abs_min,0.0,m3/m3
2006,IN,rural,septic-tank,abs_min,0.0,m3/m3
2006,IN,rural,latrine,abs_min,0.0,m3/m3
2006,IN,rural,other,abs_min,0.0,m3/m3
2006,IN,rural,sewer,abs_min,0.0,m3/m3
2006,IN,rural,none,abs_min,0.0,m3/m3
2006,IN,urban-high,septic-tank,abs_min,0.0,m3/m3
2006,IN,urban-high,latrine,abs_min,0.0,m3/m3
2006,IN,urban-high,other,abs_min,0.0,m3/m3
2006,IN,urban-high,sewer,abs_min,0.0,m3/m3
2006,IN,urban-high,none,abs_min,0.0,m3/m3
2006,IN,urban-low,septic-tank,abs_min,0.0,m3/m3
2006,IN,urban-low,latrine,abs_min,0.0,m3/m3
2006,IN,urban-low,other,abs_min,0.0,m3/m3
2006,IN,urban-low,sewer,abs_min,0.0,m3/m3
2006,IN,urban-low,none,abs_min,0.0,m3/m3
2006,ID,rural,septic-tank,abs_min,0.0,m3/m3
2006,ID,rural,latrine,abs_min,0.0,m3/m3
2006,ID,rural,other,abs_min,0.0,m3/m3
2006,ID,rural,sewer,abs_min,0.0,m3/m3
2006,ID,rural,none,abs_min,0.0,m3/m3
2006,ID,urban-high,septic-tank,abs_min,0.0,m3/m3
2006,ID,urban-high,latrine,abs_min,0.0,m3/m3
2006,ID,urban-high,other,abs_min,0.0,m3/m3
2006,ID,urban-high,sewer,abs_min,0.0,m3/m3
2006,ID,urban-high,none,abs_min,0.0,m3/m3
2006,ID,urban-low,septic-tank,abs_min,0.0,m3/m3
2006,ID,urban-low,latrine,abs_min,0.0,m3/m3
2006,ID,urban-low,other,abs_min,0.0,m3/m3
2006,ID,urban-low,sewer,abs_min,0.0,m3/m3
2006,ID,urban-low,none,abs_min,0.0,m3/m3
2006,PK,rural,septic-tank,abs_min,0.0,m3/m3
2006,PK,rural,latrine,abs_min,0.0,m3/m3
2006,PK,rural,other,abs_min,0.0,m3/m3
2006,PK,rural,sewer,abs_min,0.0,m3/m3
2006,PK,rural,none,abs_min,0.0,m3/m3
2006,PK,urban-high,septic-tank,abs_min,0.0,m3/m3
2006,PK,urban-high,latrine,abs_min,0.0,m3/m3
2006,PK,urban-high,other,abs_min,0.0,m3/m3
2006,PK,urban-high,sewer,abs_min,0.0,m3/m3
2006,PK,urban-high,none,abs_min,0.0,m3/m3
2006,PK,urban-low,septic-tank,abs_min,0.0,m3/m3
2006,PK,urban-low,latrine,abs_min,0.0,m3/m3
2006,PK,urban-low,other,abs_min,0.0,m3/m3
2006,PK,urban-low,sewer,abs_min,0.0,m3/m3
2006,PK,urban-low,none,abs_min,0.0,m3/m3
2006,BD,rural,septic-tank,abs_min,0.0,m3/m3
2006,BD,rural,latrine,abs_min,0.0,m3/m3
2006,BD,rural,other,abs_min,0.0,m3/m3
2006,BD,rural,sewer,abs_min,0.0,m3/m3
2006,BD,rural,none,abs_min,0.0,m3/m3
2006,BD,urban-high,septic-tank,abs_min,0.0,m3/m3
2006,BD,urban-high,latrine,abs_min,0.0,m3/m3
2006,BD,urban-high,other,abs_min,0.0,m3/m3
2006,BD,urban-high,sewer,abs_min,0.0,m3/m3
2006,BD,urban-high,none,abs_min,0.0,m3/m3
2006,BD,urban-low,septic-tank,abs_min,0.0,m3/m3
2006,BD,urban-low,latrine,abs_min,0.0,m3/m3
2006,BD,urban-low,other,abs_min,0.0,m3/m3
2006,BD,urban-low,sewer,abs_min,0.0,m3/m3
2006,BD,urban-low,none,abs_min,0.0,m3/m3
2006,JP,rural,septic-tank,abs_min,0.0,m3/m3
2006,JP,rural,latrine,abs_min,0.0,m3/m3
2006,JP,rural,other,abs_min,0.0,m3/m3
2006,JP,rural,sewer,abs_min,0.0,m3/m3
2006,JP,rural,none,abs_min,0.0,m3/m3
2006,JP,urban-high,septic-tank,abs_min,0.0,m3/m3
2006,JP,urban-high,latrine,abs_min,0.0,m3/m3
2006,JP,urban-high,other,abs_min,0.0,m3/m3
2006,JP,urban-high,sewer,abs_min,0.0,m3/m3
2006,JP,urban-high,none,abs_min,0.0,m3/m3
2006,JP,urban-low,septic-tank,abs_min,0.0,m3/m3
2006,JP,urban-low,latrine,abs_min,0.0,m3/m3
2006,JP,urban-low,other,abs_min,0.0,m3/m3
2006,JP,urban-low,sewer,abs_min,0.0,m3/m3
2006,JP,urban-low,none,abs_min,0.0,m3/m3
2006,RU,rural,septic-tank,abs_min,0.0,m3/m3
2006,RU,rural,latrine,abs_min,0.0,m3/m3
2006,RU,rural,other,abs_min,0.0,m3/m3
2006,RU,rural,sewer,abs_min,0.0,m3/m3
2006,RU,rural,none,abs_min,0.0,m3/m3
2006,RU,urban-high,septic-tank,abs_min,0.0,m3/m3
2006,RU,urban-high,latrine,abs_min,0.0,m3/m3
2006,RU,urban-high,other,abs_min,0.0,m3/m3
2006,RU,urban-high,sewer,abs_min,0.0,m3/m3
2006,RU,urban-high,none,abs_min,0.0,m3/m3
2006,DE,rural,septic-tank,abs_min,0.0,m3/m3
2006,DE,rural,latrine,abs_min,0.0,m3/m3
2006,DE,rural,other,abs_min,0.0,m3/m3
2006,DE,rural,sewer,abs_min,0.0,m3/m3
2006,DE,rural,none,abs_min,0.0,m3/m3
2006,DE,urban-high,septic-tank,abs_min,0.0,m3/m3
2006,DE,urban-high,latrine,abs_min,0.0,m3/m3
2006,DE,urban-high,other,abs_min,0.0,m3/m3
2006,DE,urban-high,sewer,abs_min,0.0,m3/m3
2006,DE,urban-high,none,abs_min,0.0,m3/m3
2006,GB,rural,septic-tank,abs_min,0.0,m3/m3
2006,GB,rural,latrine,abs_min,0.0,m3/m3
2006,GB,rural,other,abs_min,0.0,m3/m3
2006,GB,rural,sewer,abs_min,0.0,m3/m3
2006,GB,rural,none,abs_min,0.0,m3/m3
2006,GB,urban-high,septic-tank,abs_min,0.0,m3/m3
2006,GB,urban-high,latrine,abs_min,0.0,m3/m3
2006,GB,urban-high,other,abs_min,0.0,m3/m3
2006,GB,urban-high,sewer,abs_min,0.0,m3/m3
2006,GB,urban-high,none,abs_min,0.0,m3/m3
2006,FR,rural,septic-tank,abs_min,0.0,m3/m3
2006,FR,rural,latrine,abs_min,0.0,m3/m3
2006,FR,rural,other,abs_min,0.0,m3/m3
2006,FR,rural,sewer,abs_min,0.0,m3/m3
2006,FR,rural,none,abs_min,0.0,m3/m3
2006,FR,urban-high,septic-tank,abs_min,0.0,m3/m3
2006,FR,urban-high,latrine,abs_min,0.0,m3/m3
2006,FR,urban-high,other,abs_min,0.0,m3/m3
2006,FR,urban-high,sewer,abs_min,0.0,m3/m3
2006,FR,urban-high,none,abs_min,0.0,m3/m3
2006,IT,rural,septic-tank,abs_min,0.0,m3/m3
2006,IT,rural,latrine,abs_min,0.0,m3/m3
2006,IT,rural,other,abs_min,0.0,m3/m3
2006,IT,rural,sewer,abs_min,0.0,m3/m3
2006,IT,rural,none,abs_min,0.0,m3/m3
2006,IT,urban-high,septic-tank,abs_min,0.0,m3/m3
2006,IT,urban-high,latrine,abs_min,0.0,m3/m3
2006,IT,urban-high,other,abs_min,0.0,m3/m3
2006,IT,urban-high,sewer,abs_min,0.0,m3/m3
2006,IT,urban-high,none,abs_min,0.0,m3/m3
2006,US,rural,septic-tank,abs_min,0.0,m3/m3
2006,US,rural,latrine,abs_min,0.0,m3/m3
2006,US,rural,other,abs_min,0.0,m3/m3
2006,US,rural,sewer,abs_min,0.0,m3/m3
2006,US,rural,none,abs_min,0.0,m3/m3
2006,US,urban-high,septic-tank,abs_min,0.0,m3/m3
2006,US,urban-high,latrine,abs_min,0.0,m3/m3
2006,US,urban-high,other,abs_min,0.0,m3/m3
2006,US,urban-high,sewer,abs_min,0.0,m3/m3
2006,US,urban-high,none,abs_min,0.0,m3/m3
2006,CA,rural,septic-tank,abs_min,0.0,m3/m3
2006,CA,rural,latrine,abs_min,0.0,m3/m3
2006,CA,rural,other,abs_min,0.0,m3/m3
2006,CA,rural,sewer,abs_min,0.0,m3/m3
2006,CA,rural,none,abs_min,0.0,m3/m3
2006,CA,urban-high,septic-tank,abs_min,0.0,m3/m3
2006,CA,urban-high,latrine,abs_min,0.0,m3/m3
2006,CA,urban-high,other,abs_min,0.0,m3/m3
2006,CA,urban-high,sewer,abs_min,0.0,m3/m3
2006,CA,urban-high,none,abs_min,0.0,m3/m3
2006,BR,rural,septic-tank,abs_min,0.0,m3/m3
2006,BR,rural,latrine,abs_min,0.0,m3/m3
2006,BR,rural,other,abs_min,0.0,m3/m3
2006,BR,rural,sewer,abs_min,0.0,m3/m3
2006,BR,rural,none,abs_min,0.0,m3/m3
2006,BR,urban-high,septic-tank,abs_min,0.0,m3/m3
2006,BR,urban-high,latrine,abs_min,0.0,m3/m3
2006,BR,urban-high,other,abs_min,0.0,m3/m3
2006,BR,urban-high,sewer,abs_min,0.0,m3/m3
2006,BR,urban-high,none,abs_min,0.0,m3/m3
2006,BR,urban-low,septic-tank,abs_min,0.0,m3/m3
2006,BR,urban-low,latrine,abs_min,0.0,m3/m3
2006,BR,urban-low,other,abs_min,0.0,m3/m3
2006,BR,urban-low,sewer,abs_min,0.0,m3/m3
2006,BR,urban-low,none,abs_min,0.0,m3/m3
2006,MX,rural,septic-tank,abs_min,0.0,m3/m3
2006,MX,rural,latrine,abs_min,0.0,m3/m3
2006,MX,rural,other,abs_min,0.0,m3/m3
2006,MX,rural,sewer,abs_min,0.0,m3/m3
2006,MX,rural,none,abs_min,0.0,m3/m3
2006,MX,urban-high,septic-tank,abs_min,0.0,m3/m3
2006,MX,urban-high,latrine,abs_min,0.0,m3/m3
2006,MX,urban-high,other,abs_min,0.0,m3/m3
2006,MX,urban-high,sewer,abs_min,0.0,m3/m3
2006,MX,urban-high,none,abs_min,0.0,m3/m3
2006,MX,urban-low,septic-tank,abs_min,0.0,m3/m3
2006,MX,urban-low,latrine,abs_min,0.0,m3/m3
2006,MX,urban-low,other,abs_min,0.0,m3/m3
2006,MX,urban-low,sewer,abs_min,0.0,m3/m3
2006,MX,urban-low,none,abs_min,0.0,m3/m3
2006,AU,rural,septic-tank,abs_min,0.0,m3/m3
2006,AU,rural,latrine,abs_min,0.0,m3/m3
2006,AU,rural,other,abs_min,0.0,m3/m3
2006,AU,rural,sewer,abs_min,0.0,m3/m3
2006,AU,rural,none,abs_min,0.0,m3/m3
2006,AU,urban-high,septic-tank,abs_min,0.0,m3/m3
2006,AU,urban-high,latrine,abs_min,0.0,m3/m3
2006,AU,urban-high,other,abs_min,0.0,m3/m3
2006,AU,urban-high,sewer,abs_min,0.0,m3/m3
2006,AU,urban-high,none,abs_min,0.0,m3/m3
2006,NZ,rural,septic-tank,abs_min,0.0,m3/m3
2006,NZ,rural,latrine,abs_min,0.0,m3/m3
2006,NZ,rural,other,abs_min,0.0,m3/m3
2006,NZ,rural,sewer,abs_min,0.0,m3/m3
2006,NZ,rural,none,abs_min,0.0,m3/m3
2006,NZ,urban-high,septic-tank,abs_min,0.0,m3/m3
2006,NZ,urban-high,latrine,abs_min,0.0,m3/m3
2006,NZ,urban-high,other,abs_min,0.0,m3/m3
2006,NZ,urban-high,sewer,abs_min,0.0,m3/m3
2006,NZ,urban-high,none,abs_min,0.0,m3/m3
2006,NG,rural,septic-tank,abs_max,1.0,m3/m3
2006,NG,rural,latrine,abs_max,1.0,m3/m3
2006,NG,rural,other,abs_max,1.0,m3/m3
2006,NG,rural,sewer,abs_max,1.0,m3/m3
2006,NG,rural,none,abs_max,1.0,m3/m3
2006,NG,urban-high,septic-tank,abs_max,1.0,m3/m3
2006,NG,urban-high,latrine,abs_max,1.0,m3/m3
2006,NG,urban-high,other,abs_max,1.0,m3/m3
2006,NG,urban-high,sewer,abs_max,1.0,m3/m3
2006,NG,urban-high,none,abs_max,1.0,m3/m3
2006,NG,urban-low,septic-tank,abs_max,1.0,m3/m3
2006,NG,urban-low,latrine,abs_max,1.0,m3/m3
2006,NG,urban-low,other,abs_max,1.0,m3/m3
2006,NG,urban-low,sewer,abs_max,1.0,m3/m3
2006,NG,urban-low,none,abs_max,1.0,m3/m3
2006,EG,rural,septic-tank,abs_max,1.0,m3/m3
2006,EG,rural,latrine,abs_max,1.0,m3/m3
2006,EG,rural,other,abs_max,1.0,m3/m3
2006,EG,rural,sewer,abs_max,1.0,m3/m3
2006,EG,rural,none,abs_max,1.0,m3/m3
2006,EG,urban-high,septic-tank,abs_max,1.0,m3/m3
2006,EG,urban-high,latrine,abs_max,1.0,m3/m3
2006,EG,urban-high,other,abs_max,1.0,m3/m3
2006,EG,urban-high,sewer,abs_max,1.0,m3/m3
2006,EG,urban-high,none,abs_max,1.0,m3/m3
2006,EG,urban-low,septic-tank,abs_max,1.0,m3/m3
2006,EG,urban-low,latrine,abs_max,1.0,m3/m3
2006,EG,urban-low,other,abs_max,1.0,m3/m3
2006,EG,urban-low,sewer,abs_max,1.0,m3/m3
2006,EG,urban-low,none,abs_max,1.0,m3/m3
2006,KE,rural,septic-tank,abs_max,1.0,m3/m3
2006,KE,rural,latrine,abs_max,1.0,m3/m3
2006,KE,rural,other,abs_max,1.0,m3/m3
2006,KE,rural,sewer,abs_max,1.0,m3/m3
2006,KE,rural,none,abs_max,1.0,m3/m3
2006,KE,urban-high,septic-tank,abs_max,1.0,m3/m3
2006,KE,urban-high,latrine,abs_max,1.0,m3/m3
2006,KE,urban-high,other,abs_max,1.0,m3/m3
2006,KE,urban-high,sewer,abs_max,1.0,m3/m3
2006,KE,urban-high,none,abs_max,1.0,m3/m3
2006,KE,urban-low,septic-tank,abs_max,1.0,m3/m3
2006,KE,urban-low,latrine,abs_max,1.0,m3/m3
2006,KE,urban-low,other,abs_max,1.0,m3/m3
2006,KE,urban-low,sewer,abs_max,1.0,m3/m3
2006,KE,urban-low,none,abs_max,1.0,m3/m3
2006,ZA,rural,septic-tank,abs_max,1.0,m3/m3
2006,ZA,rural,latrine,abs_max,1.0,m3/m3
2006,ZA,rural,other,abs_max,1.0,m3/m3
2006,ZA,rural,sewer,abs_max,1.0,m3/m3
2006,ZA,rural,none,abs_max,1.0,m3/m3
2006,ZA,urban-high,septic-tank,abs_max,1.0,m3/m3
2006,ZA,urban-high,latrine,abs_max,1.0,m3/m3
2006,ZA,urban-high,other,abs_max,1.0,m3/m3
2006,ZA,urban-high,sewer,abs_max,1.0,m3/m3
2006,ZA,urban-high,none,abs_max,1.0,m3/m3
2006,ZA,urban-low,septic-tank,abs_max,1.0,m3/m3
2006,ZA,urban-low,latrine,abs_max,1.0,m3/m3
2006,ZA,urban-low,other,abs_max,1.0,m3/m3
2006,ZA,urban-low,sewer,abs_max,1.0,m3/m3
2006,ZA,urban-low,none,abs_max,1.0,m3/m3
2006,CN,rural,septic-tank,abs_max,1.0,m3/m3
2006,CN,rural,latrine,abs_max,1.0,m3/m3
2006,CN,rural,other,abs_max,1.0,m3/m3
2006,CN,rural,sewer,abs_max,1.0,m3/m3
2006,CN,rural,none,abs_max,1.0,m3/m3
2006,CN,urban-high,septic-tank,abs_max,1.0,m3/m3
2006,CN,urban-high,latrine,abs_max,1.0,m3/m3
2006,CN,urban-high,other,abs_max,1.0,m3/m3
2006,CN,urban-high,sewer,abs_max,1.0,m3/m3
2006,CN,urban-high,none,abs_max,1.0,m3/m3
2006,CN,urban-low,septic-tank,abs_max,1.0,m3/m3
2006,CN,urban-low,latrine,abs_max,1.0,m3/m3
2006,CN,urban-low,other,abs_max,1.0,m3/m3
2006,CN,urban-low,sewer,abs_max,1.0,m3/m3
2006,CN,urban-low,none,abs_max,1.0,m3/m3
2006,IN,rural,septic-tank,abs_max,1.0,m3/m3
2006,IN,rural,latrine,abs_max,1.0,m3/m3
2006,IN,rural,other,abs_max,1.0,m3/m3
2006,IN,rural,sewer,abs_max,1.0,m3/m3
2006,IN,rural,none,abs_max,1.0,m3/m3
2006,IN,urban-high,septic-tank,abs_max,1.0,m3/m3
2006,IN,urban-high,latrine,abs_max,1.0,m3/m3
2006,IN,urban-high,other,abs_max,1.0,m3/m3
2006,IN,urban-high,sewer,abs_max,1.0,m3/m3
2006,IN,urban-high,none,abs_max,1.0,m3/m3
2006,IN,urban-low,septic-tank,abs_max,1.0,m3/m3
2006,IN,urban-low,latrine,abs_max,1.0,m3/m3
2006,IN,urban-low,other,abs_max,1.0,m3/m3
2006,IN,urban-low,sewer,abs_max,1.0,m3/m3
2006,IN,urban-low,none,abs_max,1.0,m3/m3
2006,ID,rural,septic-tank,abs_max,1.0,m3/m3
2006,ID,rural,latrine,abs_max,1.0,m3/m3
2006,ID,rural,other,abs_max,1.0,m3/m3
2006,ID,rural,sewer,abs_max,1.0,m3/m3
2006,ID,rural,none,abs_max,1.0,m3/m3
2006,ID,urban-high,septic-tank,abs_max,1.0,m3/m3
2006,ID,urban-high,latrine,abs_max,1.0,m3/m3
2006,ID,urban-high,other,abs_max,1.0,m3/m3
2006,ID,urban-high,sewer,abs_max,1.0,m3/m3
2006,ID,urban-high,none,abs_max,1.0,m3/m3
2006,ID,urban-low,septic-tank,abs_max,1.0,m3/m3
2006,ID,urban-low,latrine,abs_max,1.0,m3/m3
2006,ID,urban-low,other,abs_max,1.0,m3/m3
2006,ID,urban-low,sewer,abs_max,1.0,m3/m3
2006,ID,urban-low,none,abs_max,1.0,m3/m3
2006,PK,rural,septic-tank,abs_max,1.0,m3/m3
2006,PK,rural,latrine,abs_max,1.0,m3/m3
2006,PK,rural,other,abs_max,1.0,m3/m3
2006,PK,rural,sewer,abs_max,1.0,m3/m3
2006,PK,rural,none,abs_max,1.0,m3/m3
2006,PK,urban-high,septic-tank,abs_max,1.0,m3/m3
2006,PK,urban-high,latrine,abs_max,1.0,m3/m3
2006,PK,urban-high,other,abs_max,1.0,m3/m3
2006,PK,urban-high,sewer,abs_max,1.0,m3/m3
2006,PK,urban-high,none,abs_max,1.0,m3/m3
2006,PK,urban-low,septic-tank,abs_max,1.0,m3/m3
2006,PK,urban-low,latrine,abs_max,1.0,m3/m3
2006,PK,urban-low,other,abs_max,1.0,m3/m3
2006,PK,urban-low,sewer,abs_max,1.0,m3/m3
2006,PK,urban-low,none,abs_max,1.0,m3/m3
2006,BD,rural,septic-tank,abs_max,1.0,m3/m3
2006,BD,rural,latrine,abs_max,1.0,m3/m3
2006,BD,rural,other,abs_max,1.0,m3/m3
2006,BD,rural,sewer,abs_max,1.0,m3/m3
2006,BD,rural,none,abs_max,1.0,m3/m3
2006,BD,urban-high,septic-tank,abs_max,1.0,m3/m3
2006,BD,urban-high,latrine,abs_max,1.0,m3/m3
2006,BD,urban-high,other,abs_max,1.0,m3/m3
2006,BD,urban-high,sewer,abs_max,1.0,m3/m3
2006,BD,urban-high,none,abs_max,1.0,m3/m3
2006,BD,urban-low,septic-tank,abs_max,1.0,m3/m3
2006,BD,urban-low,latrine,abs_max,1.0,m3/m3
2006,BD,urban-low,other,abs_max,1.0,m3/m3
2006,BD,urban-low,sewer,abs_max,1.0,m3/m3
2006,BD,urban-low,none,abs_max,1.0,m3/m3
2006,JP,rural,septic-tank,abs_max,1.0,m3/m3
2006,JP,rural,latrine,abs_max,1.0,m3/m3
2006,JP,rural,other,abs_max,1.0,m3/m3
2006,JP,rural,sewer,abs_max,1.0,m3/m3
2006,JP,rural,none,abs_max,1.0,m3/m3
2006,JP,urban-high,septic-tank,abs_max,1.0,m3/m3
2006,JP,urban-high,latrine,abs_max,1.0,m3/m3
2006,JP,urban-high,other,abs_max,1.0,m3/m3
2006,JP,urban-high,sewer,abs_max,1.0,m3/m3
2006,JP,urban-high,none,abs_max,1.0,m3/m3
2006,JP,urban-low,septic-tank,abs_max,1.0,m3/m3
2006,JP,urban-low,latrine,abs_max,1.0,m3/m3
2006,JP,urban-low,other,abs_max,1.0,m3/m3
2006,JP,urban-low,sewer,abs_max,1.0,m3/m3
2006,JP,urban-low,none,abs_max,1.0,m3/m3
2006,RU,rural,septic-tank,abs_max,1.0,m3/m3
2006,RU,rural,latrine,abs_max,1.0,m3/m3
2006,RU,rural,other,abs_max,1.0,m3/m3
2006,RU,rural,sewer,abs_max,1.0,m3/m3
2006,RU,rural,none,abs_max,1.0,m3/m3
2006,RU,urban-high,septic-tank,abs_max,1.0,m3/m3
2006,RU,urban-high,latrine,abs_max,1.0,m3/m3
2006,RU,urban-high,other,abs_max,1.0,m3/m3
2006,RU,urban-high,sewer,abs_max,1.0,m3/m3
2006,RU,urban-high,none,abs_max,1.0,m3/m3
2006,DE,rural,septic-tank,abs_max,1.0,m3/m3
2006,DE,rural,latrine,abs_max,1.0,m3/m3
2006,DE,rural,other,abs_max,1.0,m3/m3
2006,DE,rural,sewer,abs_max,1.0,m3/m3
2006,DE,rural,none,abs_max,1.0,m3/m3
2006,DE,urban-high,septic-tank,abs_max,1.0,m3/m3
2006,DE,urban-high,latrine,abs_max,1.0,m3/m3
2006,DE,urban-high,other,abs_max,1.0,m3/m3
2006,DE,urban-high,sewer,abs_max,1.0,m3/m3
2006,DE,urban-high,none,abs_max,1.0,m3/m3
2006,GB,rural,septic-tank,abs_max,1.0,m3/m3
2006,GB,rural,latrine,abs_max,1.0,m3/m3
2006,GB,rural,other,abs_max,1.0,m3/m3
2006,GB,rural,sewer,abs_max,1.0,m3/m3
2006,GB,rural,none,abs_max,1.0,m3/m3
2006,GB,urban-high,septic-tank,abs_max,1.0,m3/m3
2006,GB,urban-high,latrine,abs_max,1.0,m3/m3
2006,GB,urban-high,other,abs_max,1.0,m3/m3
2006,GB,urban-high,sewer,abs_max,1.0,m3/m3
2006,GB,urban-high,none,abs_max,1.0,m3/m3
2006,FR,rural,septic-tank,abs_max,1.0,m3/m3
2006,FR,rural,latrine,abs_max,1.0,m3/m3
2006,FR,rural,other,abs_max,1.0,m3/m3
2006,FR,rural,sewer,abs_max,1.0,m3/m3
2006,FR,rural,none,abs_max,1.0,m3/m3
2006,FR,urban-high,septic-tank,abs_max,1.0,m3/m3
2006,FR,urban-high,latrine,abs_max,1.0,m3/m3
2006,FR,urban-high,other,abs_max,1.0,m3/m3
2006,FR,urban-high,sewer,abs_max,1.0,m3/m3
2006,FR,urban-high,none,abs_max,1.0,m3/m3
2006,IT,rural,septic-tank,abs_max,1.0,m3/m3
2006,IT,rural,latrine,abs_max,1.0,m3/m3
2006,IT,rural,other,abs_max,1.0,m3/m3
2006,IT,rural,sewer,abs_max,1.0,m3/m3
2006,IT,rural,none,abs_max,1.0,m3/m3
2006,IT,urban-high,septic-tank,abs_max,1.0,m3/m3
2006,IT,urban-high,latrine,abs_max,1.0,m3/m3
2006,IT,urban-high,other,abs_max,1.0,m3/m3
2006,IT,urban-high,sewer,abs_max,1.0,m3/m3
2006,IT,urban-high,none,abs_max,1.0,m3/m3
2006,US,rural,septic-tank,abs_max,1.0,m3/m3
2006,US,rural,latrine,abs_max,1.0,m3/m3
2006,US,rural,other,abs_max,1.0,m3/m3
2006,US,rural,sewer,abs_max,1.0,m3/m3
2006,US,rural,none,abs_max,1.0,m3/m3
2006,US,urban-high,septic-tank,abs_max,1.0,m3/m3
2006,US,urban-high,latrine,abs_max,1.0,m3/m3
2006,US,urban-high,other,abs_max,1.0,m3/m3
2006,US,urban-high,sewer,abs_max,1.0,m3/m3
2006,US,urban-high,none,abs_max,1.0,m3/m3
2006,CA,rural,septic-tank,abs_max,1.0,m3/m3
2006,CA,rural,latrine,abs_max,1.0,m3/m3
2006,CA,rural,other,abs_max,1.0,m3/m3
2006,CA,rural,sewer,abs_max,1.0,m3/m3
2006,CA,rural,none,abs_max,1.0,m3/m3
2006,CA,urban-high,septic-tank,abs_max,1.0,m3/m3
2006,CA,urban-high,latrine,abs_max,1.0,m3/m3
2006,CA,urban-high,other,abs_max,1.0,m3/m3
2006,CA,urban-high,sewer,abs_max,1.0,m3/m3
2006,CA,urban-high,none,abs_max,1.0,m3/m3
2006,BR,rural,septic-tank,abs_max,1.0,m3/m3
2006,BR,rural,latrine,abs_max,1.0,m3/m3
2006,BR,rural,other,abs_max,1.0,m3/m3
2006,BR,rural,sewer,abs_max,1.0,m3/m3
2006,BR,rural,none,abs_max,1.0,m3/m3
2006,BR,urban-high,septic-tank,abs_max,1.0,m3/m3
2006,BR,urban-high,latrine,abs_max,1.0,m3/m3
2006,BR,urban-high,other,abs_max,1.0,m3/m3
2006,BR,urban-high,sewer,abs_max,1.0,m3/m3
2006,BR,urban-high,none,abs_max,1.0,m3/m3
2006,BR,urban-low,septic-tank,abs_max,1.0,m3/m3
2006,BR,urban-low,latrine,abs_max,1.0,m3/m3
2006,BR,urban-low,other,abs_max,1.0,m3/m3
2006,BR,urban-low,sewer,abs_max,1.0,m3/m3
2006,BR,urban-low,none,abs_max,1.0,m3/m3
2006,MX,rural,septic-tank,abs_max,1.0,m3/m3
2006,MX,rural,latrine,abs_max,1.0,m3/m3
2006,MX,rural,other,abs_max,1.0,m3/m3
2006,MX,rural,sewer,abs_max,1.0,m3/m3
2006,MX,rural,none,abs_max,1.0,m3/m3
2006,MX,urban-high,septic-tank,abs_max,1.0,m3/m3
2006,MX,urban-high,latrine,abs_max,1.0,m3/m3
2006,MX,urban-high,other,abs_max,1.0,m3/m3
2006,MX,urban-high,sewer,abs_max,1.0,m3/m3
2006,MX,urban-high,none,abs_max,1.0,m3/m3
2006,MX,urban-low,septic-tank,abs_max,1.0,m3/m3
2006,MX,urban-low,latrine,abs_max,1.0,m3/m3
2006,MX,urban-low,other,abs_max,1.0,m3/m3
2006,MX,urban-low,sewer,abs_max,1.0,m3/m3
2006,MX,urban-low,none,abs_max,1.0,m3/m3
2006,AU,rural,septic-tank,abs_max,1.0,m3/m3
2006,AU,rural,latrine,abs_max,1.0,m3/m3
2006,AU,rural,other,abs_max,1.0,m3/m3
2006,AU,rural,sewer,abs_max,1.0,m3/m3
2006,AU,rural,none,abs_max,1.0,m3/m3
2006,AU,urban-high,septic-tank,abs_max,1.0,m3/m3
2006,AU,urban-high,latrine,abs_max,1.0,m3/m3
2006,AU,urban-high,other,abs_max,1.0,m3/m3
2006,AU,urban-high,sewer,abs_max,1.0,m3/m3
2006,AU,urban-high,none,abs_max,1.0,m3/m3
2006,NZ,rural,septic-tank,abs_max,1.0,m3/m3
2006,NZ,rural,latrine,abs_max,1.0,m3/m3
2006,NZ,rural,other,abs_max,1.0,m3/m3
2006,NZ,rural,sewer,abs_max,1.0,m3/m3
2006,NZ,rural,none,abs_max,1.0,m3/m3
2006,NZ,urban-high,septic-tank,abs_max,1.0,m3/m3
2006,NZ,urban-high,latrine,abs_max,1.0,m3/m3
2006,NZ,urban-high,other,abs_max,1.0,m3/m3
2006,NZ,urban-high,sewer,abs_max,1.0,m3/m3
2006,NZ,urban-high,none,abs_max,1.0,m3/m3
