year,region,income_class,property,value,unit
2006,NG,rural,def,0.52,cap/cap
2006,NG,urban-high,def,0.1,cap/cap
2006,NG,urban-low,def,0.38,cap/cap
2006,EG,rural,def,0.57,cap/cap
2006,EG,urban-high,def,0.09,cap/cap
2006,EG,urban-low,def,0.34,cap/cap
2006,KE,rural,def,0.62,cap/cap
2006,KE,urban-high,def,0.08,cap/cap
2006,KE,urban-low,def,0.3,cap/cap
2006,ZA,rural,def,0.39,cap/cap
2006,ZA,urban-high,def,0.12,cap/cap
2006,ZA,urban-low,def,0.49,cap/cap
2006,CN,rural,def,0.59,cap/cap
2006,CN,urban-high,def,0.12,cap/cap
2006,CN,urban-low,def,0.29,cap/cap
2006,IN,rural,def,0.71,cap/cap
2006,IN,urban-high,def,0.06,cap/cap
2006,IN,urban-low,def,0.23,cap/cap
2006,ID,rural,def,0.54,cap/cap
2006,ID,urban-high,def,0.12,cap/cap
2006,ID,urban-low,def,0.34,cap/cap
2006,PK,rural,def,0.65,cap/cap
2006,PK,urban-high,def,0.07,cap/cap
2006,PK,urban-low,def,0.28,cap/cap
2006,BD,rural,def,0.72,cap/cap
2006,BD,urban-high,def,0.06,cap/cap
2006,BD,urban-low,def,0.22,cap/cap
2006,JP,rural,def,0.2,cap/cap
2006,JP,urban-high,def,0.8,cap/cap
2006,JP,urban-low,def,0.0,cap/cap
2006,RU,rural,def,0.27,cap/cap
2006,RU,urban-high,def,0.73,cap/cap
2006,RU,urban-low,def,0.0,cap/cap
2006,DE,rural,def,0.06,cap/cap
2006,DE,urban-high,def,0.94,cap/cap
2006,DE,urban-low,def,0.0,cap/cap
2006,GB,rural,def,0.1,cap/cap
2006,GB,urban-high,def,0.9,cap/cap
2006,GB,urban-low,def,0.0,cap/cap
2006,FR,rural,def,0.24,cap/cap
2006,FR,urban-high,def,0.76,cap/cap
2006,FR,urban-low,def,0.0,cap/cap
2006,IT,rural,def,0.32,cap/cap
2006,IT,urban-high,def,0.68,cap/cap
2006,IT,urban-low,def,0.0,cap/cap
2006,US,rural,def,0.22,cap/cap
2006,US,urban-high,def,0.78,cap/cap
2006,US,urban-low,def,0.0,cap/cap
2006,CA,rural,def,0.2,cap/cap
2006,CA,urban-high,def,0.8,cap/cap
2006,CA,urban-low,def,0.0,cap/cap
2006,BR,rural,def,0.16,cap/cap
2006,BR,urban-high,def,0.25,cap/cap
2006,BR,urban-low,def,0.59,cap/cap
2006,MX,rural,def,0.25,cap/cap
2006,MX,urban-high,def,0.19,cap/cap
2006,MX,urban-low,def,0.56,cap/cap
2006,AU,rural,def,0.08,cap/cap
2006,AU,urban-high,def,0.92,cap/cap
2006,AU,urban-low,def,0.0,cap/cap
2006,NZ,rural,def,0.08,cap/cap
2006,NZ,urban-high,def,0.92,cap/cap
2006,NZ,urban-low,def,0.0,cap/cap
2006,NG,rural,min,0.442,cap/cap
2006,NG,urban-high,min,0.085,cap/cap
2006,NG,urban-low,min,0.323,cap/cap
2006,EG,rural,min,0.4845,cap/cap
2006,EG,urban-high,min,0.0765,cap/cap
2006,EG,urban-low,min,0.289,cap/cap
2006,KE,rural,min,0.527,cap/cap
2006,KE,urban-high,min,0.068,cap/cap
2006,KE,urban-low,min,0.255,cap/cap
2006,ZA,rural,min,0.3315,cap/cap
2006,ZA,urban-high,min,0.102,cap/cap
2006,ZA,urban-low,min,0.4165,cap/cap
2006,CN,rural,min,0.5015,cap/cap
2006,CN,urban-high,min,0.102,cap/cap
2006,CN,urban-low,min,0.2465,cap/cap
2006,IN,rural,min,0.6035,cap/cap
2006,IN,urban-high,min,0.051,cap/cap
2006,IN,urban-low,min,0.1955,cap/cap
2006,ID,rural,min,0.459,cap/cap
2006,ID,urban-high,min,0.102,cap/cap
2006,ID,urban-low,min,0.289,cap/cap
2006,PK,rural,min,0.5525,cap/cap
2006,PK,urban-high,min,0.0595,cap/cap
2006,PK,urban-low,min,0.238,cap/cap
2006,BD,rural,min,0.612,cap/cap
2006,BD,urban-high,min,0.051,cap/cap
2006,BD,urban-low,min,0.187,cap/cap
2006,JP,rural,min,0.17,cap/cap
2006,JP,urban-high,min,0.68,cap/cap
2006,JP,urban-low,min,0.0,cap/cap
2006,RU,rural,min,0.2295,cap/cap
2006,RU,urban-high,min,0.6205,cap/cap
2006,RU,urban-low,min,0.0,cap/cap
2006,DE,rural,min,0.051,cap/cap
2006,DE,urban-high,min,0.799,cap/cap
2006,DE,urban-low,min,0.0,cap/cap
2006,GB,rural,min,0.085,cap/cap
2006,GB,urban-high,min,0.765,cap/cap
2006,GB,urban-low,min,0.0,cap/cap
2006,FR,rural,min,0.204,cap/cap
2006,FR,urban-high,min,0.646,cap/cap
2006,FR,urban-low,min,0.0,cap/cap
2006,IT,rural,min,0.272,cap/cap
2006,IT,urban-high,min,0.578,cap/cap
2006,IT,urban-low,min,0.0,cap/cap
2006,US,rural,min,0.187,cap/cap
2006,US,urban-high,min,0.663,cap/cap
2006,US,urban-low,min,0.0,cap/cap
2006,CA,rural,min,0.17,cap/cap
2006,CA,urban-high,min,0.68,cap/cap
2006,CA,urban-low,min,0.0,cap/cap
2006,BR,rural,min,0.136,cap/cap
2006,BR,urban-high,min,0.2125,cap/cap
2006,BR,urban-low,min,0.5015,cap/cap
2006,MX,rural,min,0.2125,cap/cap
2006,MX,urban-high,min,0.1615,cap/cap
2006,MX,urban-low,min,0.476,cap/cap
2006,AU,rural,min,0.068,cap/cap
2006,AU,urban-high,min,0.782,cap/cap
2006,AU,urban-low,min,0.0,cap/cap
2006,NZ,rural,min,0.068,cap/cap
2006,NZ,urban-high,min,0.782,cap/cap
2006,NZ,urban-low,min,0.0,cap/cap
2006,NG,rural,max,0.598,cap/cap
2006,NG,urban-high,max,0.115,cap/cap
2006,NG,urban-low,max,0.437,cap/cap
2006,EG,rural,max,0.6555,cap/cap
2006,EG,urban-high,max,0.1035,cap/cap
2006,EG,urban-low,max,0.391,cap/cap
2006,KE,rural,max,0.713,cap/cap
2006,KE,urban-high,max,0.092,cap/cap
2006,KE,urban-low,max,0.345,cap/cap
2006,ZA,rural,max,0.4485,cap/cap
2006,ZA,urban-high,max,0.138,cap/cap
2006,ZA,urban-low,max,0.5635,cap/cap
2006,CN,rural,max,0.6785,cap/cap
2006,CN,urban-high,max,0.138,cap/cap
2006,CN,urban-low,max,0.3335,cap/cap
2006,IN,rural,max,0.8165,cap/cap
2006,IN,urban-high,max,0.069,cap/cap
2006,IN,urban-low,max,0.2645,cap/cap
2006,ID,rural,max,0.621,cap/cap
2006,ID,urban-high,max,0.138,cap/cap
2006,ID,urban-low,max,0.391,cap/cap
2006,PK,rural,max,0.7475,cap/cap
2006,PK,urban-high,max,0.0805,cap/cap
2006,PK,urban-low,max,0.322,cap/cap
2006,BD,rural,max,0.828,cap/cap
2006,BD,urban-high,max,0.069,cap/cap
2006,BD,urban-low,max,0.253,cap/cap
2006,JP,rural,max,0.23,cap/cap
2006,JP,urban-high,max,0.92,cap/cap
2006,JP,urban-low,max,0.0,cap/cap
2006,RU,rural,max,0.3105,cap/cap
2006,RU,urban-high,max,0.8395,cap/cap
2006,RU,urban-low,max,0.0,cap/cap
2006,DE,rural,max,0.069,cap/cap
2006,DE,urban-high,max,1.081,cap/cap
2006,DE,urban-low,max,0.0,cap/cap
2006,GB,rural,max,0.115,cap/cap
2006,GB,urban-high,max,1.035,cap/cap
2006,GB,urban-low,max,0.0,cap/cap
2006,FR,rural,max,0.276,cap/cap
2006,FR,urban-high,max,0.874,cap/cap
2006,FR,urban-low,max,0.0,cap/cap
2006,IT,rural,max,0.368,cap/cap
2006,IT,urban-high,max,0.782,cap/cap
2006,IT,urban-low,max,0.0,cap/cap
2006,US,rural,max,0.253,cap/cap
2006,US,urban-high,max,0.897,cap/cap
2006,US,urban-low,max,0.0,cap/cap
2006,CA,rural,max,0.23,cap/cap
2006,CA,urban-high,max,0.92,cap/cap
2006,CA,urban-low,max,0.0,cap/cap
2006,BR,rural,max,0.184,cap/cap
2006,BR,urban-high,max,0.2875,cap/cap
2006,BR,urban-low,max,0.6785,cap/cap
2006,MX,rural,max,0.2875,cap/cap
2006,MX,urban-high,max,0.2185,cap/cap
2006,MX,urban-low,max,0.644,cap/cap
2006,AU,rural,max,0.092,cap/cap
2006,AU,urban-high,max,1.058,cap/cap
2006,AU,urban-low,max,0.0,cap/cap
2006,NZ,rural,max,0.092,cap/cap
2006,NZ,urban-high,max,1.058,cap/cap
2006,NZ,urban-low,max,0.0,cap/cap
2006,NG,rural,abs_min,0.0,cap/cap
2006,NG,urban-high,abs_min,0.0,cap/cap
2006,NG,urban-low,abs_min,0.0,cap/cap
2006,EG,rural,abs_min,0.0,cap/cap
2006,EG,urban-high,abs_min,0.0,cap/cap
2006,EG,urban-low,abs_min,0.0,cap/cap
2006,KE,rural,abs_min,0.0,cap/cap
2006,KE,urban-high,abs_min,0.0,cap/cap
2006,KE,urban-low,abs_min,0.0,cap/cap
2006,ZA,rural,abs_min,0.0,cap/cap
2006,ZA,urban-high,abs_min,0.0,cap/cap
2006,ZA,urban-low,abs_min,0.0,cap/cap
2006,CN,rural,abs_min,0.0,cap/cap
2006,CN,urban-high,abs_min,0.0,cap/cap
2006,CN,urban-low,abs_min,0.0,cap/cap
2006,IN,rural,abs_min,0.0,cap/cap
2006,IN,urban-high,abs_min,0.0,cap/cap
2006,IN,urban-low,abs_min,0.0,cap/cap
2006,ID,rural,abs_min,0.0,cap/cap
2006,ID,urban-high,abs_min,0.0,cap/cap
2006,ID,urban-low,abs_min,0.0,cap/cap
2006,PK,rural,abs_min,0.0,cap/cap
2006,PK,urban-high,abs_min,0.0,cap/cap
2006,PK,urban-low,abs_min,0.0,cap/cap
2006,BD,rural,abs_min,0.0,cap/cap
2006,BD,urban-high,abs_min,0.0,cap/cap
2006,BD,urban-low,abs_min,0.0,cap/cap
2006,JP,rural,abs_min,0.0,cap/cap
2006,JP,urban-high,abs_min,0.0,cap/cap
2006,JP,urban-low,abs_min,0.0,cap/cap
2006,RU,rural,abs_min,0.0,cap/cap
2006,RU,urban-high,abs_min,0.0,cap/cap
2006,RU,urban-low,abs_min,0.0,cap/cap
2006,DE,rural,abs_min,0.0,cap/cap
2006,DE,urban-high,abs_min,0.0,cap/cap
2006,DE,urban-low,abs_min,0.0,cap/cap
2006,GB,rural,abs_min,0.0,cap/cap
2006,GB,urban-high,abs_min,0.0,cap/cap
2006,GB,urban-low,abs_min,0.0,cap/cap
2006,FR,rural,abs_min,0.0,cap/cap
2006,FR,urban-high,abs_min,0.0,cap/cap
2006,FR,urban-low,abs_min,0.0,cap/cap
2006,IT,rural,abs_min,0.0,cap/cap
2006,IT,urban-high,abs_min,0.0,cap/cap
2006,IT,urban-low,abs_min,0.0,cap/cap
2006,US,rural,abs_min,0.0,cap/cap
2006,US,urban-high,abs_min,0.0,cap/cap
2006,US,urban-low,abs_min,0.0,cap/cap
2006,CA,rural,abs_min,0.0,cap/cap
2006,CA,urban-high,abs_min,0.0,cap/cap
2006,CA,urban-low,abs_min,0.0,cap/cap
2006,BR,rural,abs_min,0.0,cap/cap
2006,BR,urban-high,abs_min,0.0,cap/cap
2006,BR,urban-low,abs_min,0.0,cap/cap
2006,MX,rural,abs_min,0.0,cap/cap
2006,MX,urban-high,abs_min,0.0,cap/cap
2006,MX,urban-low,abs_min,0.0,cap/cap
2006,AU,rural,abs_min,0.0,cap/cap
2006,AU,urban-high,abs_min,0.0,cap/cap
2006,AU,urban-low,abs_min,0.0,cap/cap
2006,NZ,rural,abs_min,0.0,cap/cap
2006,NZ,urban-high,abs_min,0.0,cap/cap
2006,NZ,urban-low,abs_min,0.0,cap/cap
2006,NG,rural,abs_max,1.0,cap/cap
2006,NG,urban-high,abs_max,1.0,cap/cap
2006,NG,urban-low,abs_max,1.0,cap/cap
2006,EG,rural,abs_max,1.0,cap/cap
2006,EG,urban-high,abs_max,1.0,cap/cap
2006,EG,urban-low,abs_max,1.0,cap/cap
2006,KE,rural,abs_max,1.0,cap/cap
2006,KE,urban-high,abs_max,1.0,cap/cap
2006,KE,urban-low,abs_max,1.0,cap/cap
2006,ZA,rural,abs_max,1.0,cap/cap
2006,ZA,urban-high,abs_max,1.0,cap/cap
2006,ZA,urban-low,abs_max,1.0,cap/cap
2006,CN,rural,abs_max,1.0,cap/cap
2006,CN,urban-high,abs_max,1.0,cap/cap
2006,CN,urban-low,abs_max,1.0,cap/cap
2006,IN,rural,abs_max,1.0,cap/cap
2006,IN,urban-high,abs_max,1.0,cap/cap
2006,IN,urban-low,abs_max,1.0,cap/cap
2006,ID,rural,abs_max,1.0,cap/cap
2006,ID,urban-high,abs_max,1.0,cap/cap
2006,ID,urban-low,abs_max,1.0,cap/cap
2006,PK,rural,abs_max,1.0,cap/cap
2006,PK,urban-high,abs_max,1.0,cap/cap
2006,PK,urban-low,abs_max,1.0,cap/cap
2006,BD,rural,abs_max,1.0,cap/cap
2006,BD,urban-high,abs_max,1.0,cap/cap
2006,BD,urban-low,abs_max,1.0,cap/cap
2006,JP,rural,abs_max,1.0,cap/cap
2006,JP,urban-high,abs_max,1.0,cap/cap
2006,JP,urban-low,abs_max,1.0,cap/cap
2006,RU,rural,abs_max,1.0,cap/cap
2006,RU,urban-high,abs_max,1.0,cap/cap
2006,RU,urban-low,abs_max,1.0,cap/cap
2006,DE,rural,abs_max,1.0,cap/cap
2006,DE,urban-high,abs_max,1.0,cap/cap
2006,DE,urban-low,abs_max,1.0,cap/cap
2006,GB,rural,abs_max,1.0,cap/cap
2006,GB,urban-high,abs_max,1.0,cap/cap
2006,GB,urban-low,abs_max,1.0,cap/cap
2006,FR,rural,abs_max,1.0,cap/cap
2006,FR,urban-high,abs_max,1.0,cap/cap
2006,FR,urban-low,abs_max,1.0,cap/cap
2006,IT,rural,abs_max,1.0,cap/cap
2006,IT,urban-high,abs_max,1.0,cap/cap
2006,IT,urban-low,abs_max,1.0,cap/cap
2006,US,rural,abs_max,1.0,cap/cap
2006,US,urban-high,abs_max,1.0,cap/cap
2006,US,urban-low,abs_max,1.0,cap/cap
2006,CA,rural,abs_max,1.0,cap/cap
2006,CA,urban-high,abs_max,1.0,cap/cap
2006,CA,urban-low,abs_max,1.0,cap/cap
2006,BR,rural,abs_max,1.0,cap/cap
2006,BR,urban-high,abs_max,1.0,cap/cap
2006,BR,urban-low,abs_max,1.0,cap/cap
2006,MX,rural,abs_max,1.0,cap/cap
2006,MX,urban-high,abs_max,1.0,cap/cap
2006,MX,urban-low,abs_max,1.0,cap/cap
2006,AU,rural,abs_max,1.0,cap/cap
2006,AU,urban-high,abs_max,1.0,cap/cap
2006,AU,urban-low,abs_max,1.0,cap/cap
2006,NZ,rural,abs_max,1.0,cap/cap
2006,NZ,urban-high,abs_max,1.0,cap/cap
2006,NZ,urban-low,abs_max,1.0,cap/cap
