code,description,region_type
AF,Afghanistan,country
AX,Åland Islands,country
AL,Albania,country
DZ,Algeria,country
AS,American Samoa,country
AD,Andorra,country
AO,Angola,country
AI,Anguilla,country
AQ,Antarctica,country
AG,Antigua and Barbuda,country
AR,Argentina,country
AM,Armenia,country
AW,Aruba,country
AU,Australia,country
AT,Austria,country
AZ,Azerbaijan,country
BS,Bahamas,country
BH,Bahrain,country
BD,Bangladesh,country
BB,Barbados,country
BY,Belarus,country
BE,Belgium,country
BZ,Belize,country
BJ,Benin,country
BM,Bermuda,country
BT,Bhutan,country
BO,Bolivia,country
BQ,"Bonaire, Sint Eustatius and Saba",country
BA,Bosnia and Herzegovina,country
BW,Botswana,country
BR,Brazil,country
IO,British Indian Ocean Territory,country
BN,Brunei Darussalam,country
BG,Bulgaria,country
BF,Burkina Faso,country
BI,Burundi,country
KH,Cambodia,country
CM,Cameroon,country
CA,Canada,country
CV,Cape Verde,country
KY,Cayman Islands,country
CF,Central African Republic,country
TD,Chad,country
CL,Chile,country
CN,China,country
CX,Christmas Island,country
CC,Cocos (Keeling) Islands,country
CO,Colombia,country
KM,Comoros,country
CG,Congo,country
CD,"Congo, The Democratic Republic of the",country
CK,Cook Islands,country
CR,Costa Rica,country
CI,Côte d'Ivoire,country
HR,Croatia,country
CU,Cuba,country
CW,Curaçao,country
CY,Cyprus,country
CZ,Czech Republic,country
DK,Denmark,country
DJ,Djibouti,country
DM,Dominica,country
DO,Dominican Republic,country
EC,Ecuador,country
EG,Egypt,country
SV,El Salvador,country
GQ,Equatorial Guinea,country
ER,Eritrea,country
EE,Estonia,country
SZ,Eswatini,country
ET,Ethiopia,country
FK,Falkland Islands (Malvinas),country
FO,Faroe Islands,country
FJ,Fiji,country
FI,Finland,country
FR,France,country
GF,French Guiana,country
PF,French Polynesia,country
TF,French Southern Territories,country
GA,Gabon,country
GM,Gambia,country
GE,Georgia,country
DE,Germany,country
GH,Ghana,country
GI,Gibraltar,country
GR,Greece,country
GL,Greenland,country
GD,Grenada,country
GP,Guadeloupe,country
GU,Guam,country
GT,Guatemala,country
GG,Guernsey,country
GN,Guinea,country
GW,Guinea-Bissau,country
GY,Guyana,country
HT,Haiti,country
HM,Heard Island and McDonald Islands,country
VA,Holy See (Vatican City State),country
HN,Honduras,country
HK,Hong Kong,country
HU,Hungary,country
IS,Iceland,country
IN,India,country
ID,Indonesia,country
XZ,Installations in International Waters,country
IR,"Iran, Islamic Republic of",country
IQ,Iraq,country
IE,Ireland,country
IM,Isle of Man,country
IL,Israel,country
IT,Italy,country
JM,Jamaica,country
JP,Japan,country
JE,Jersey,country
JO,Jordan,country
KZ,Kazakhstan,country
KE,Kenya,country
KI,Kiribati,country
KP,"Korea, Democratic People's Republic of",country
KR,"Korea, Republic of",country
KW,Kuwait,country
KG,Kyrgyzstan,country
LA,Lao People's Democratic Republic,country
LV,Latvia,country
LB,Lebanon,country
LS,Lesotho,country
LR,Liberia,country
LY,Libya,country
LI,Liechtenstein,country
LT,Lithuania,country
LU,Luxembourg,country
MO,Macao,country
MG,Madagascar,country
MW,Malawi,country
MY,Malaysia,country
MV,Maldives,country
ML,Mali,country
MT,Malta,country
MH,Marshall Islands,country
MQ,Martinique,country
MR,Mauritania,country
MU,Mauritius,country
YT,Mayotte,country
MX,Mexico,country
FM,"Micronesia, Federated States of",country
MD,"Moldova, Republic of",country
MC,Monaco,country
MN,Mongolia,country
ME,Montenegro,country
MS,Montserrat,country
MA,Morocco,country
MZ,Mozambique,country
MM,Myanmar,country
NA,Namibia,country
NR,Nauru,country
NP,Nepal,country
NL,Netherlands,country
NC,New Caledonia,country
NZ,New Zealand,country
NI,Nicaragua,country
NE,Niger,country
NG,Nigeria,country
NU,Niue,country
NF,Norfolk Island,country
MK,North Macedonia,country
MP,Northern Mariana Islands,country
NO,Norway,country
OM,Oman,country
PK,Pakistan,country
PW,Palau,country
PS,"Palestine, State of",country
PA,Panama,country
PG,Papua New Guinea,country
PY,Paraguay,country
PE,Peru,country
PH,Philippines,country
PN,Pitcairn,country
PL,Poland,country
PT,Portugal,country
PR,Puerto Rico,country
QA,Qatar,country
RE,Reunion,country
RO,Romania,country
RU,Russian Federation,country
RW,Rwanda,country
BL,Saint Barthélemy,country
SH,"Saint Helena, Ascension and Tristan Da Cunha",country
KN,Saint Kitts and Nevis,country
LC,Saint Lucia,country
MF,Saint Martin (French Part),country
PM,Saint Pierre and Miquelon,country
VC,Saint Vincent and the Grenadines,country
WS,Samoa,country
SM,San Marino,country
ST,Sao Tome and Principe,country
SA,Saudi Arabia,country
SN,Senegal,country
RS,Serbia,country
SC,Seychelles,country
SL,Sierra Leone,country
SG,Singapore,country
SX,Sint Maarten (Dutch Part),country
SK,Slovakia,country
SI,Slovenia,country
SB,Solomon Islands,country
SO,Somalia,country
ZA,South Africa,country
GS,South Georgia and the South Sandwich Islands,country
SS,South Sudan,country
ES,Spain,country
LK,Sri Lanka,country
SD,Sudan,country
SR,Suriname,country
SJ,Svalbard and Jan Mayen,country
SE,Sweden,country
CH,Switzerland,country
SY,Syrian Arab Republic,country
TW,"Taiwan, Province of China",country
TJ,Tajikistan,country
TZ,"Tanzania, United Republic of",country
TH,Thailand,country
TL,Timor-Leste,country
TG,Togo,country
TK,Tokelau,country
TO,Tonga,country
TT,Trinidad and Tobago,country
TN,Tunisia,country
TR,Türkiye,country
TM,Turkmenistan,country
TC,Turks and Caicos Islands,country
TV,Tuvalu,country
UG,Uganda,country
UA,Ukraine,country
AE,United Arab Emirates,country
GB,United Kingdom,country
US,United States,country
UM,United States Minor Outlying Islands,country
UY,Uruguay,country
UZ,Uzbekistan,country
VU,Vanuatu,country
VE,Venezuela,country
VN,Viet Nam,country
VG,"Virgin Islands, British",country
VI,"Virgin Islands, U.S.",country
WF,Wallis and Futuna,country
EH,Western Sahara,country
XK,Kosovo,country
YE,Yemen,country
ZM,Zambia,country
ZW,Zimbabwe,country
Central Asia,Central Asia,UNregion
Eastern Asia,Eastern Asia,UNregion
South-Eastern Asia,South-Eastern Asia,UNregion
Southern Asia,Southern Asia,UNregion
Western Asia,Western Asia,UNregion
Northern Africa,Northern Africa,UNregion
Eastern Africa,Eastern Africa,UNregion
Middle Africa,Middle Africa,UNregion
Southern Africa,Southern Africa,UNregion
Western Africa,Western Africa,UNregion
Eastern Europe,Eastern Europe,UNregion
Northern Europe,Northern Europe,UNregion
Southern Europe,Southern Europe,UNregion
Western Europe,Western Europe,UNregion
Caribbean,Caribbean,UNregion
Central America,Central America,UNregion
South America,South America,UNregion
Northern America,Northern America,UNregion
Australia and New Zealand,Australia and New Zealand,UNregion
Melanesia,Melanesia,UNregion
Polynesia,Polynesia,UNregion
Micronesia,Micronesia,UNregion
World,World,World
dummy,place holder for emtpy tables,
Middle East,Middle East,geographic region
Latin America,Latin America,geographic region
Indian Subcontinent,Indian Subcontinent,geographic region
Sub-Saharan Africa, Sub-Subsaharan Africa,geographic region
NAM,North America,continent
SAM,South America,continent
ANT,Antarctica,continent
AFR,Africa,continent
EUR,Europe,continent
ASI,Asia,continent
AUS,Australia and New Zealand,continent
